%!PS-Adobe-3.0 
%%Creator: MATLAB, The Mathworks, Inc. Version 7.10.0.499 (R2010a). Operating System: Linux 2.6.38-13-generic #53-Ubuntu SMP Mon Nov 28 19:33:45 UTC 2011 x86_64.
%%Title: /home/saeed/Desktop/Plots/circularOrbit.eps
%%CreationDate: 05/05/2012  19:37:02
%%DocumentNeededFonts: Helvetica
%%DocumentProcessColors: Cyan Magenta Yellow Black
%%LanguageLevel: 2
%%Pages: (atend)
%%BoundingBox: (atend)
%%EndComments

%%BeginProlog
% MathWorks dictionary
/MathWorks 160 dict begin
% definition operators
/bdef {bind def} bind def
/ldef {load def} bind def
/xdef {exch def} bdef
/xstore {exch store} bdef
% operator abbreviations
/c  /clip ldef
/cc /concat ldef
/cp /closepath ldef
/gr /grestore ldef
/gs /gsave ldef
/mt /moveto ldef
/np /newpath ldef
/cm /currentmatrix ldef
/sm /setmatrix ldef
/rm /rmoveto ldef
/rl /rlineto ldef
/s {show newpath} bdef
/sc {setcmykcolor} bdef
/sr /setrgbcolor ldef
/sg /setgray ldef
/w /setlinewidth ldef
/j /setlinejoin ldef
/cap /setlinecap ldef
/rc {rectclip} bdef
/rf {rectfill} bdef
% page state control
/pgsv () def
/bpage {/pgsv save def} bdef
/epage {pgsv restore} bdef
/bplot /gsave ldef
/eplot {stroke grestore} bdef
% orientation switch
/portraitMode 0 def /landscapeMode 1 def /rotateMode 2 def
% coordinate system mappings
/dpi2point 0 def
% font control
/FontSize 0 def
/FMS {/FontSize xstore findfont [FontSize 0 0 FontSize neg 0 0]
  makefont setfont} bdef
/reencode {exch dup where {pop load} {pop StandardEncoding} ifelse
  exch dup 3 1 roll findfont dup length dict begin
  { 1 index /FID ne {def}{pop pop} ifelse } forall
  /Encoding exch def currentdict end definefont pop} bdef
/isroman {findfont /CharStrings get /Agrave known} bdef
/FMSR {3 1 roll 1 index dup isroman {reencode} {pop pop} ifelse
  exch FMS} bdef
/csm {1 dpi2point div -1 dpi2point div scale neg translate
 dup landscapeMode eq {pop -90 rotate}
  {rotateMode eq {90 rotate} if} ifelse} bdef
% line types: solid, dotted, dashed, dotdash
/SO { [] 0 setdash } bdef
/DO { [.5 dpi2point mul 4 dpi2point mul] 0 setdash } bdef
/DA { [6 dpi2point mul] 0 setdash } bdef
/DD { [.5 dpi2point mul 4 dpi2point mul 6 dpi2point mul 4
  dpi2point mul] 0 setdash } bdef
% macros for lines and objects
/L {lineto stroke} bdef
/MP {3 1 roll moveto 1 sub {rlineto} repeat} bdef
/AP {{rlineto} repeat} bdef
/PDlw -1 def
/W {/PDlw currentlinewidth def setlinewidth} def
/PP {closepath eofill} bdef
/DP {closepath stroke} bdef
/MR {4 -2 roll moveto dup  0 exch rlineto exch 0 rlineto
  neg 0 exch rlineto closepath} bdef
/FR {MR stroke} bdef
/PR {MR fill} bdef
/L1i {{currentfile picstr readhexstring pop} image} bdef
/tMatrix matrix def
/MakeOval {newpath tMatrix currentmatrix pop translate scale
0 0 1 0 360 arc tMatrix setmatrix} bdef
/FO {MakeOval stroke} bdef
/PO {MakeOval fill} bdef
/PD {currentlinewidth 2 div 0 360 arc fill
   PDlw -1 eq not {PDlw w /PDlw -1 def} if} def
/FA {newpath tMatrix currentmatrix pop translate scale
  0 0 1 5 -2 roll arc tMatrix setmatrix stroke} bdef
/PA {newpath tMatrix currentmatrix pop	translate 0 0 moveto scale
  0 0 1 5 -2 roll arc closepath tMatrix setmatrix fill} bdef
/FAn {newpath tMatrix currentmatrix pop translate scale
  0 0 1 5 -2 roll arcn tMatrix setmatrix stroke} bdef
/PAn {newpath tMatrix currentmatrix pop translate 0 0 moveto scale
  0 0 1 5 -2 roll arcn closepath tMatrix setmatrix fill} bdef
/vradius 0 def /hradius 0 def /lry 0 def
/lrx 0 def /uly 0 def /ulx 0 def /rad 0 def
/MRR {/vradius xdef /hradius xdef /lry xdef /lrx xdef /uly xdef
  /ulx xdef newpath tMatrix currentmatrix pop ulx hradius add uly
  vradius add translate hradius vradius scale 0 0 1 180 270 arc 
  tMatrix setmatrix lrx hradius sub uly vradius add translate
  hradius vradius scale 0 0 1 270 360 arc tMatrix setmatrix
  lrx hradius sub lry vradius sub translate hradius vradius scale
  0 0 1 0 90 arc tMatrix setmatrix ulx hradius add lry vradius sub
  translate hradius vradius scale 0 0 1 90 180 arc tMatrix setmatrix
  closepath} bdef
/FRR {MRR stroke } bdef
/PRR {MRR fill } bdef
/MlrRR {/lry xdef /lrx xdef /uly xdef /ulx xdef /rad lry uly sub 2 div def
  newpath tMatrix currentmatrix pop ulx rad add uly rad add translate
  rad rad scale 0 0 1 90 270 arc tMatrix setmatrix lrx rad sub lry rad
  sub translate rad rad scale 0 0 1 270 90 arc tMatrix setmatrix
  closepath} bdef
/FlrRR {MlrRR stroke } bdef
/PlrRR {MlrRR fill } bdef
/MtbRR {/lry xdef /lrx xdef /uly xdef /ulx xdef /rad lrx ulx sub 2 div def
  newpath tMatrix currentmatrix pop ulx rad add uly rad add translate
  rad rad scale 0 0 1 180 360 arc tMatrix setmatrix lrx rad sub lry rad
  sub translate rad rad scale 0 0 1 0 180 arc tMatrix setmatrix
  closepath} bdef
/FtbRR {MtbRR stroke } bdef
/PtbRR {MtbRR fill } bdef
/stri 6 array def /dtri 6 array def
/smat 6 array def /dmat 6 array def
/tmat1 6 array def /tmat2 6 array def /dif 3 array def
/asub {/ind2 exch def /ind1 exch def dup dup
  ind1 get exch ind2 get sub exch } bdef
/tri_to_matrix {
  2 0 asub 3 1 asub 4 0 asub 5 1 asub
  dup 0 get exch 1 get 7 -1 roll astore } bdef
/compute_transform {
  dmat dtri tri_to_matrix tmat1 invertmatrix 
  smat stri tri_to_matrix tmat2 concatmatrix } bdef
/ds {stri astore pop} bdef
/dt {dtri astore pop} bdef
/db {2 copy /cols xdef /rows xdef mul dup 3 mul string
  currentfile 
  3 index 0 eq {/ASCIIHexDecode filter}
  {/ASCII85Decode filter 3 index 2 eq {/RunLengthDecode filter} if }
  ifelse exch readstring pop
  dup 0 3 index getinterval /rbmap xdef
  dup 2 index dup getinterval /gbmap xdef
  1 index dup 2 mul exch getinterval /bbmap xdef pop pop}bdef
/it {gs np dtri aload pop moveto lineto lineto cp c
  cols rows 8 compute_transform 
  rbmap gbmap bbmap true 3 colorimage gr}bdef
/il {newpath moveto lineto stroke}bdef
currentdict end def
%%EndProlog

%%BeginSetup
MathWorks begin

0 cap

end
%%EndSetup

%%Page: 1 1
%%BeginPageSetup
%%PageBoundingBox:   107   198   490   606
MathWorks begin
bpage
%%EndPageSetup

%%BeginObject: obj1
bplot

/dpi2point 12 def
portraitMode 0216 7344 csm

 1078    68  4596  4890 rc
85 dict begin %Colortable dictionary
/c0 { 0.000000 0.000000 0.000000 sr} bdef
/c1 { 1.000000 1.000000 1.000000 sr} bdef
/c2 { 0.900000 0.000000 0.000000 sr} bdef
/c3 { 0.000000 0.820000 0.000000 sr} bdef
/c4 { 0.000000 0.000000 0.800000 sr} bdef
/c5 { 0.910000 0.820000 0.320000 sr} bdef
/c6 { 1.000000 0.260000 0.820000 sr} bdef
/c7 { 0.000000 0.820000 0.820000 sr} bdef
c0
1 j
1 sg
   0    0 6913 5186 rf
6 w
0 2335 -1642 -1069 0 -2336 5467 3794 4 MP
PP
1642 1070 0 2335 -1642 -1069 0 -2336 5467 3794 5 MP stroke
1642 1070 2139 -821 -1642 -1069 3328 4614 4 MP
PP
-2139 820 1642 1070 2139 -821 -1642 -1069 3328 4614 5 MP stroke
0 2335 2139 -820 0 -2336 1686 3545 4 MP
PP
-2139 821 0 2335 2139 -820 0 -2336 1686 3545 5 MP stroke
4 w
DO
0 sg
3862 4409 mt 2221 3340 L
2221 3340 mt 2221 1004 L
4397 4204 mt 2756 3134 L
2756 3134 mt 2756  799 L
4932 3999 mt 3291 2929 L
3291 2929 mt 3291  594 L
5467 3794 mt 3825 2724 L
3825 2724 mt 3825  389 L
2917 4347 mt 5057 3526 L
5057 3526 mt 5057 1191 L
2507 4080 mt 4646 3259 L
4646 3259 mt 4646  923 L
2096 3812 mt 4236 2991 L
4236 2991 mt 4236  656 L
1686 3545 mt 3825 2724 L
3825 2724 mt 3825  389 L
1686 3545 mt 3825 2724 L
3825 2724 mt 5467 3794 L
1686 2961 mt 3825 2140 L
3825 2140 mt 5467 3210 L
1686 2377 mt 3825 1556 L
3825 1556 mt 5467 2626 L
1686 1793 mt 3825  972 L
3825  972 mt 5467 2042 L
1686 1209 mt 3825  389 L
3825  389 mt 5467 1458 L
SO
6 w
3328 4614 mt 5467 3794 L
3328 4614 mt 1686 3545 L
1686 3545 mt 1686 1209 L
3862 4409 mt 3911 4441 L
%%IncludeResource: font Helvetica
/Helvetica /ISOLatin1Encoding 144 FMSR

3940 4594 mt 
(-0.5) s
4397 4204 mt 4446 4236 L
4475 4389 mt 
(0) s
4932 3999 mt 4981 4031 L
5010 4184 mt 
(0.5) s
5467 3794 mt 5516 3826 L
5545 3978 mt 
(1) s
2917 4347 mt 2863 4368 L
2546 4514 mt 
(-0.5) s
2507 4080 mt 2452 4101 L
2340 4247 mt 
(0) s
2096 3812 mt 2042 3833 L
1810 3980 mt 
(0.5) s
1686 3545 mt 1631 3566 L
1519 3712 mt 
(1) s
1686 3545 mt 1637 3513 L
1444 3547 mt 
(-1) s
1686 2961 mt 1637 2929 L
1324 2963 mt 
(-0.5) s
1686 2377 mt 1637 2345 L
1528 2379 mt 
(0) s
1686 1793 mt 1637 1761 L
1408 1795 mt 
(0.5) s
1686 1209 mt 1637 1177 L
1528 1212 mt 
(1) s
gs 1686 389 3782 4226 rc
/c8 { 1.000000 0.000000 0.000000 sr} bdef
c8
-169 -45 -153 -56 -137 -66 -116 -76 -94 -83 -69 -88 -44 -93 -18 -95 
10 -95 36 -94 63 -90 87 -84 110 -78 131 -69 149 -60 164 -48 
177 -36 184 -23 190 -10 190 3 188 17 181 30 171 42 157 54 
140 64 121 74 99 81 75 88 49 92 23 94 -4 96 -30 94 
-57 91 -82 86 -106 79 -126 71 -146 62 -161 50 -174 39 -183 26 
-189 13 -191 0 -188 -14 -183 -27 -173 -40 -160 -51 -145 -63 -125 -71 
-104 -80 -80 -87 -55 -91 -28 -94 -2 -95 25 -95 51 -92 77 -87 
100 -81 122 -73 142 -63 158 -53 172 -42 181 -29 188 -16 191 -2 
189 11 184 24 176 37 163 49 148 60 130 70 108 79 86 85 
60 90 35 94 7 95 -19 95 -46 92 -71 88 -96 83 -117 75 
-138 66 -155 55 -169 44 -180 32 -187 18 -190 6 -190 -9 -185 -21 
-178 -34 -166 -47 -152 -58 -134 -68 -113 -76 -90 -84 -66 -89 -40 -93 
-14 -95 14 -96 40 -93 66 -89 90 -84 113 -76 134 -68 152 -58 
166 -47 178 -34 185 -21 190 -9 190 6 187 18 180 32 169 44 
155 55 138 66 117 75 96 82 71 89 46 92 19 95 -7 95 
-35 94 -60 90 -86 85 -108 79 -130 70 -148 60 -163 49 -176 37 
-184 24 -189 11 -191 -2 -188 -16 -181 -29 -172 -41 -158 -54 -142 -63 
-122 -73 -100 -81 -77 -87 -51 -92 -25 -95 2 -95 28 -94 55 -91 
80 -87 104 -80 125 -71 145 -63 160 -51 173 -40 183 -27 188 -14 
191 0 189 13 183 26 174 39 161 50 146 62 126 71 106 79 
82 86 57 91 30 94 4 95 -23 95 -49 92 -75 88 -99 81 
-121 74 -140 64 -157 54 -171 42 -181 30 -188 17 -190 3 -189 -10 
-185 -23 -177 -36 -164 -48 -149 -60 -131 -69 -110 -78 -87 -84 -63 -90 
-36 -94 -10 -95 18 -95 44 -93 69 -88 94 -83 116 -76 137 -66 
153 -56 169 -45 179 -33 186 -19 190 -7 190 8 186 20 179 33 
167 46 152 57 136 67 114 76 93 84 67 89 42 93 16 95 
-12 95 -38 93 -64 90 -89 84 -112 77 -132 69 -150 58 -165 48 
-177 35 -186 22 -189 9 -191 -4 -187 -18 -180 -30 -170 -43 -156 -55 
-139 -65 -120 -74 -97 -82 -73 -88 -48 -92 -21 -95 6 -95 33 -94 
58 -91 84 -85 107 -79 128 -71 147 -61 162 -50 175 -37 183 -26 
189 -12 191 2 188 15 182 28 173 40 159 52 143 63 124 73 
102 80 78 87 54 91 26 95 1 95 -27 94 -53 92 -79 87 
-102 80 -124 73 -143 62 -159 53 -172 40 -182 28 -189 15 -190 2 
-189 -12 -184 -26 -175 -37 -162 -50 -147 -61 -128 -70 -107 -79 -84 -86 
-58 -91 -33 -93 -6 -96 21 -94 48 -93 73 -88 97 -81 119 -75 
140 -65 156 -55 169 -43 181 -30 187 -18 190 -4 190 9 185 22 
177 35 166 48 150 58 132 69 112 77 89 84 64 90 38 93 
12 95 -16 95 -42 93 2286 2307 300 MP stroke
-67 89 -92 83 -115 77 -135 67 -153 57 -167 45 -178 34 -186 20 
-190 8 -191 -7 -186 -19 -179 -33 -168 -44 -154 -57 -136 -66 -117 -76 
-94 -82 -69 -89 -44 -93 -18 -95 10 -95 36 -93 63 -90 87 -85 
110 -78 131 -69 149 -59 164 -49 176 -36 185 -23 190 -10 190 3 
188 17 180 30 171 42 157 54 141 64 121 74 99 81 75 88 
49 92 23 94 -4 96 -30 94 -57 91 -82 86 -105 79 -127 71 
-145 62 -162 50 -174 39 -183 26 -189 13 -190 0 -189 -14 -182 -27 
-174 -40 -160 -51 -144 -62 -126 -72 -103 -80 -81 -87 -55 -91 -28 -94 
-2 -95 24 -95 52 -91 76 -88 101 -81 122 -73 142 -63 158 -53 
172 -42 181 -29 188 -16 190 -2 190 11 184 24 176 37 163 49 
148 60 129 70 109 78 85 86 61 90 35 94 7 95 -19 95 
-46 92 -71 88 -95 83 -118 75 -138 65 -155 56 -169 44 -179 32 
-187 18 -191 6 -189 -9 -186 -21 -178 -34 -166 -47 -152 -58 -133 -67 
-114 -77 -90 -84 -66 -89 -40 -93 -14 -95 14 -95 40 -93 66 -90 
90 -84 113 -76 134 -68 151 -58 167 -47 177 -34 186 -21 190 -9 
190 6 187 18 180 32 169 44 155 55 137 66 118 75 96 82 
71 89 46 92 19 95 -7 95 -35 94 -60 90 -86 85 -108 79 
-130 69 -147 61 -164 49 -175 37 -185 24 -189 11 -190 -2 -188 -16 
-182 -29 -171 -41 -159 -53 -141 -64 -123 -73 -100 -81 -77 -87 -51 -92 
-25 -94 1 -96 29 -94 55 -91 80 -87 104 -79 125 -72 144 -63 
161 -51 173 -40 183 -27 188 -14 191 0 188 13 184 26 174 39 
161 50 145 62 127 71 106 79 82 86 57 91 30 94 4 95 
-23 95 -49 92 -75 87 -99 82 -121 74 -140 64 -157 54 -171 42 
-181 30 -187 17 -191 3 -189 -10 -185 -23 -176 -36 -165 -48 -149 -60 
-131 -69 -110 -78 -87 -84 -63 -90 -36 -94 -10 -95 18 -95 43 -92 
70 -89 94 -83 116 -76 136 -66 154 -56 168 -45 179 -33 187 -19 
190 -7 190 7 186 21 178 33 168 46 152 57 135 67 115 76 
92 84 68 89 42 92 16 95 -12 96 -38 93 -64 90 -89 84 
-111 77 -133 69 -150 58 -165 48 -177 35 -185 22 -190 9 -190 -4 
-188 -17 -180 -31 -170 -43 -156 -55 -139 -65 -119 -74 -98 -82 -73 -88 
-48 -92 -21 -95 6 -95 32 -94 59 -91 84 -85 107 -79 128 -71 
146 -61 163 -49 174 -38 184 -26 189 -12 191 2 188 15 182 28 
172 40 160 52 143 63 124 73 102 80 78 87 54 91 26 95 
1 95 -27 94 -53 92 -79 86 -102 81 -123 72 -143 63 -160 53 
-172 40 -182 28 -188 15 -191 2 -189 -12 -184 -25 -174 -38 -163 -50 
-147 -61 -128 -70 -107 -79 -84 -86 -58 -90 -33 -94 -6 -95 21 -95 
48 -92 73 -88 97 -82 119 -75 139 -65 156 -54 170 -44 180 -30 
188 -18 190 -4 190 9 3353 3166 300 MP stroke
185 22 177 35 165 47 151 59 132 68 112 78 89 84 64 90 
38 93 12 95 -15 95 -42 93 -68 89 -92 83 -115 76 -135 68 
-153 57 -167 45 -178 34 -186 20 -190 8 -190 -7 -187 -19 -179 -33 
-168 -44 -154 -57 -136 -66 -117 -75 -94 -83 -69 -89 -44 -93 -18 -95 
10 -95 36 -93 62 -90 87 -85 111 -78 130 -69 149 -59 165 -49 
176 -36 185 -23 189 -10 191 3 187 17 181 30 171 42 157 54 
141 64 121 74 98 81 75 88 50 92 23 94 -4 95 -30 94 
-57 91 -82 86 -105 80 -127 71 -145 62 -161 50 -174 39 -184 26 
-188 13 -191 0 -188 -14 -183 -27 -173 -40 -161 -51 -144 -62 -125 -72 
-104 -80 -80 -86 -56 -92 -28 -94 -2 -95 24 -94 52 -92 76 -87 
101 -81 122 -73 141 -64 159 -53 171 -42 182 -29 188 -16 190 -2 
189 11 185 24 175 37 164 49 148 60 129 70 109 78 85 85 
61 91 34 93 8 96 -19 94 -45 93 -72 88 -95 83 -118 75 
-138 65 -155 56 -168 44 -180 32 -187 18 -190 6 -190 -9 -186 -21 
-177 -34 -167 -47 -151 -57 -134 -68 -113 -77 -91 -84 -66 -89 -40 -93 
-14 -95 13 -95 41 -93 65 -90 91 -84 113 -76 134 -68 151 -58 
166 -46 178 -35 186 -21 189 -9 191 6 186 18 180 32 169 44 
155 55 138 66 118 75 96 82 71 88 46 93 19 95 -7 95 
-35 94 -60 90 -85 85 -109 78 -129 70 -148 60 -164 49 -175 38 
-184 24 -189 11 -191 -2 -188 -16 -181 -29 -172 -41 -158 -53 -142 -64 
-123 -73 -100 -81 -77 -87 -51 -92 -25 -94 1 -96 29 -94 55 -91 
80 -86 104 -80 125 -72 144 -62 160 -52 174 -40 182 -27 189 -14 
190 0 189 13 183 26 174 38 162 51 145 62 127 71 105 79 
82 86 57 91 31 94 4 95 -23 95 -49 92 -75 87 -99 82 
-120 74 -141 64 -157 54 -170 42 -181 30 -188 17 -190 3 -190 -10 
-185 -23 -176 -36 -164 -48 -150 -59 -131 -70 -110 -77 -87 -85 -62 -90 
-37 -94 -10 -95 18 -95 43 -92 70 -89 94 -83 116 -75 136 -67 
154 -56 168 -45 179 -33 186 -19 190 -7 190 7 187 21 178 33 
167 46 153 57 135 67 115 76 92 83 68 89 42 93 16 95 
-12 95 -38 94 -64 89 -89 85 -111 77 -132 69 -151 58 -165 48 
-177 35 -185 22 -190 9 -190 -4 -187 -17 -181 -31 -170 -43 -156 -55 
-139 -65 -119 -74 -98 -82 -73 -88 -47 -92 -22 -95 6 -95 32 -94 
59 -91 83 -85 107 -79 128 -71 147 -60 162 -50 175 -38 184 -26 
189 -12 190 2 188 15 183 27 172 41 159 52 144 63 123 72 
103 81 78 87 53 91 27 94 1 96 -27 94 -53 92 -79 86 
-102 81 -123 72 -143 63 -159 53 -173 40 -182 28 -188 15 -190 2 
-190 -12 -183 -25 -175 -38 -163 -50 -146 -61 -129 -70 -107 -79 -83 -86 
-59 -90 -33 -94 -6 -95 4924 2528 300 MP stroke
21 -95 48 -92 73 -88 97 -82 119 -74 139 -66 156 -54 170 -44 
180 -30 187 -18 191 -4 189 9 186 22 177 35 165 47 150 59 
133 68 112 78 88 84 65 89 38 94 12 95 -15 95 -42 93 
-68 89 -92 83 -115 76 -135 68 -152 57 -167 45 -179 34 -186 20 
-190 8 -190 -7 -186 -19 -179 -33 -169 -44 -154 -56 -136 -67 -116 -75 
-94 -83 -70 -89 -44 -93 -18 -94 10 -96 36 -93 62 -90 87 -85 
110 -78 131 -69 149 -59 164 -49 177 -36 184 -23 190 -10 190 3 
188 17 181 29 171 43 157 53 140 65 121 73 99 82 75 87 
50 92 23 95 -4 95 -30 94 -57 91 -82 86 -105 80 -126 71 
-146 61 -161 51 -174 39 -183 26 -189 13 -191 0 -188 -14 -183 -27 
-173 -40 -161 -51 -144 -62 -125 -72 -104 -80 -80 -86 -55 -91 -29 -95 
-2 -95 24 -94 52 -92 76 -87 100 -81 123 -73 141 -64 158 -53 
172 -42 181 -29 188 -16 191 -2 189 11 184 24 176 37 163 49 
148 60 130 70 109 78 85 85 61 91 34 93 8 95 -19 95 
-45 93 -72 88 -95 83 -118 74 -137 66 -155 56 -169 44 -180 32 
-187 18 -190 6 -190 -8 -185 -22 -178 -34 -167 -47 -151 -57 -134 -68 
-113 -77 -91 -83 -66 -90 -40 -93 -14 -95 13 -95 40 -93 66 -90 
91 -83 113 -77 133 -68 152 -58 166 -46 178 -35 185 -21 190 -9 
190 6 187 18 180 32 169 44 155 55 138 66 118 75 95 82 
72 88 46 93 19 95 -7 95 -35 93 -60 91 -85 85 -109 78 
-129 70 -148 60 -163 49 -176 37 -184 25 -189 11 -191 -2 -188 -16 
-181 -29 -172 -41 -158 -53 -142 -64 -122 -73 -101 -81 -77 -87 -51 -92 
-25 -94 1 -95 29 -95 55 -91 80 -86 104 -80 125 -72 144 -62 
160 -52 173 -40 183 -27 188 -14 191 0 189 13 183 26 174 38 
161 51 146 61 127 72 105 79 82 86 57 91 31 94 4 95 
-23 95 -49 92 -75 87 -98 82 -121 73 -140 65 -158 54 -170 42 
-181 30 -188 17 -190 3 -190 -10 -184 -23 -177 -36 -164 -48 -149 -59 
-131 -70 -111 -77 -87 -85 -62 -90 -37 -93 -10 -96 18 -94 43 -93 
70 -89 93 -83 117 -75 136 -67 154 -56 168 -45 179 -33 186 -19 
190 -7 190 7 186 21 179 33 167 46 153 57 135 67 115 76 
92 83 68 89 42 93 16 95 -12 95 -38 94 -64 89 -88 85 
-112 77 -132 68 -150 59 -166 47 -176 36 -186 22 -189 9 -191 -4 
-187 -17 -180 -31 -170 -43 -156 -55 -140 -65 -119 -74 -97 -82 -74 -88 
-47 -92 -22 -95 6 -95 32 -94 59 -90 83 -86 107 -79 128 -71 
147 -60 162 -50 175 -38 183 -26 189 -12 191 2 188 15 182 27 
173 41 159 52 143 63 124 72 102 81 79 87 53 91 27 94 
1 96 -27 94 -53 91 -78 87 -102 81 -124 72 -143 63 -159 53 
-172 40 -182 28 -189 15 3460 1830 300 MP stroke
-190 2 -189 -12 -184 -25 -175 -38 -162 -50 -147 -61 -128 -70 -107 -79 
-84 -85 -59 -91 -33 -94 -6 -95 21 -95 48 -92 73 -88 97 -82 
119 -74 139 -66 156 -54 169 -43 181 -31 187 -18 190 -4 190 9 
185 22 177 35 166 47 150 59 133 68 111 77 89 85 65 89 
38 94 12 95 -15 95 -42 93 -68 89 -92 83 -114 76 -135 67 
-153 57 -167 46 -178 34 -186 20 -190 8 -191 -6 -186 -20 -179 -32 
-168 -45 -154 -56 -137 -67 -116 -75 -94 -83 -70 -89 -44 -92 -18 -95 
10 -95 36 -94 62 -90 87 -85 110 -78 131 -69 149 -59 164 -48 
176 -37 185 -23 190 -10 190 3 188 17 181 29 170 43 158 53 
140 65 121 73 99 82 75 87 50 92 23 95 -4 95 -30 94 
-57 91 -82 86 -105 80 -126 71 -146 61 -161 51 -174 39 -183 26 
-189 13 -190 0 -189 -14 -183 -27 -173 -40 -160 -51 -145 -62 -125 -72 
-104 -80 -80 -86 -55 -91 -29 -94 -2 -96 24 -94 51 -92 77 -87 
100 -81 122 -73 142 -64 158 -53 172 -42 181 -29 188 -16 190 -2 
190 11 184 24 176 37 163 49 148 60 130 70 109 78 85 85 
61 90 34 94 8 95 -19 95 -45 93 -71 88 -96 82 -118 75 
-137 66 -155 56 -169 44 -180 31 -186 19 -191 6 -189 -8 -186 -22 
-178 -34 -166 -47 -152 -57 -134 -68 -113 -77 -91 -83 -66 -90 -40 -93 
-14 -95 13 -95 40 -93 66 -89 90 -84 114 -77 133 -68 151 -58 
167 -46 177 -35 186 -21 190 -9 190 6 187 18 180 32 169 44 
155 55 138 66 118 74 95 83 72 88 46 93 19 94 -7 96 
-35 93 -60 91 -85 85 -108 78 -130 70 -148 60 -163 49 -175 37 
-185 25 -189 11 -190 -2 -188 -16 -182 -29 -172 -41 -158 -53 -142 -64 
-122 -73 -101 -81 -77 -87 -51 -92 -25 -94 1 -95 29 -94 55 -92 
80 -86 103 -80 125 -72 145 -62 160 -52 173 -40 183 -27 188 -14 
191 0 188 13 184 26 174 38 161 51 146 61 127 71 105 80 
82 86 57 91 31 94 4 95 -23 94 -49 92 -75 88 -98 82 
-121 73 -140 65 -157 54 -171 42 -181 30 -187 17 -191 3 -189 -10 
-185 -23 -176 -36 -165 -48 -149 -59 -131 -69 -110 -78 -88 -85 -62 -90 
-37 -93 -10 -95 17 -95 44 -93 70 -89 93 -83 116 -75 137 -67 
153 -56 168 -45 179 -33 187 -19 190 -7 190 7 186 21 178 33 
168 46 152 57 136 67 115 76 92 83 68 89 42 93 16 95 
-12 95 -38 93 -64 90 -88 84 -112 78 -132 68 -150 59 -165 47 
-177 36 -185 22 -190 9 -190 -4 -188 -17 -180 -31 -170 -43 -156 -55 
-139 -65 -120 -74 -97 -82 -74 -88 -47 -92 -22 -95 6 -95 32 -94 
59 -90 83 -86 107 -79 128 -70 146 -61 163 -50 174 -38 184 -26 
189 -12 191 2 188 14 182 28 173 41 159 52 143 63 124 72 
102 81 79 86 53 92 2259 2644 300 MP stroke
27 94 1 95 -27 95 -53 91 -78 87 -102 81 -124 72 -143 63 
-159 52 -172 41 -182 28 -188 15 -191 2 -189 -12 -184 -25 -175 -38 
-162 -50 -147 -61 -128 -70 -107 -79 -84 -85 -59 -91 -33 -94 -6 -95 
21 -95 47 -92 73 -88 97 -82 120 -74 138 -65 156 -55 170 -43 
180 -31 188 -18 190 -4 190 9 185 22 177 35 165 47 151 59 
132 68 112 77 89 84 65 90 38 93 12 96 -15 94 -42 93 
-68 89 -92 84 -114 76 -135 67 -153 57 -167 46 -178 34 -186 20 
-190 8 -190 -6 -187 -20 -179 -32 -168 -45 -154 -56 -137 -67 -116 -75 
-94 -83 -70 -89 -44 -92 -18 -95 10 -95 36 -94 62 -90 87 -85 
110 -77 131 -70 149 -59 164 -48 176 -37 185 -23 189 -10 191 3 
187 17 181 29 171 43 157 53 141 65 121 73 99 82 75 87 
50 92 23 95 -4 95 -30 94 -57 91 -81 86 -106 79 -126 72 
-145 61 -162 51 -174 39 -183 26 -188 13 -191 0 -188 -14 -183 -27 
-174 -39 -160 -52 -144 -62 -126 -72 -104 -80 -80 -86 -55 -91 -29 -94 
-2 -96 24 -94 51 -92 77 -87 100 -81 122 -73 142 -64 158 -53 
171 -42 182 -29 188 -16 190 -2 189 11 185 24 175 37 164 49 
148 60 130 70 108 78 86 85 61 90 34 94 8 95 -19 95 
-45 92 -71 89 -96 82 -117 75 -138 66 -155 56 -169 44 -179 31 
-187 19 -190 6 -190 -8 -186 -22 -178 -34 -166 -46 -152 -58 -133 -68 
-114 -76 -91 -84 -66 -90 -40 -93 -14 -95 13 -95 40 -93 66 -89 
90 -84 113 -77 134 -68 151 -58 166 -46 178 -35 186 -21 189 -9 
191 6 186 18 180 32 169 43 155 56 138 66 118 74 96 83 
72 88 46 92 19 95 -7 95 -34 94 -61 90 -85 86 -108 78 
-130 70 -147 60 -164 49 -175 37 -184 25 -189 11 -191 -2 -188 -16 
-182 -29 -171 -41 -159 -53 -141 -64 -123 -73 -101 -80 -77 -88 -51 -91 
-25 -95 1 -95 29 -94 55 -91 80 -87 103 -80 125 -72 144 -62 
160 -52 174 -39 182 -28 189 -14 190 0 189 13 183 26 174 38 
162 51 146 61 126 71 106 80 82 86 57 90 31 94 4 96 
-23 94 -49 92 -74 88 -99 81 -121 74 -140 65 -157 54 -171 42 
-180 30 -188 17 -190 3 -190 -10 -185 -23 -176 -36 -165 -48 -149 -59 
-131 -69 -110 -78 -88 -85 -62 -90 -37 -93 -10 -95 17 -95 44 -93 
69 -89 94 -83 116 -75 136 -67 154 -56 168 -45 179 -33 186 -19 
190 -7 190 7 187 21 178 33 167 46 153 57 135 67 115 76 
93 83 68 89 42 93 16 95 -12 95 -37 93 -64 90 -89 84 
-111 78 -133 68 -150 59 -165 47 -177 36 -185 22 -190 9 -190 -4 
-187 -17 -181 -31 -170 -43 -156 -54 -139 -66 -120 -74 -97 -82 -73 -87 
-48 -93 -22 -94 6 -96 32 -93 59 -91 83 -86 107 -79 128 -70 
146 -61 162 -50 175 -38 4026 3137 300 MP stroke
184 -25 189 -13 190 2 189 14 182 28 172 41 160 52 143 63 
124 72 102 80 79 87 53 92 27 94 1 95 -27 95 -53 91 
-78 87 -102 80 -124 73 -142 63 -159 52 -173 41 -182 28 -188 15 
-190 2 -190 -12 -183 -25 -175 -38 -163 -50 -147 -60 -128 -71 -107 -79 
-84 -85 -59 -91 -33 -94 -6 -95 21 -94 47 -93 73 -88 97 -82 
119 -74 139 -65 156 -55 170 -43 180 -31 187 -18 191 -4 189 8 
186 23 177 35 165 47 151 59 132 68 112 77 89 84 65 90 
38 93 12 95 -15 95 -42 93 -68 89 -91 84 -115 76 -135 67 
-152 57 -167 46 -179 34 -186 20 -190 8 -190 -6 -186 -20 -180 -32 
-168 -45 -154 -56 -136 -67 -117 -75 -94 -83 -70 -88 -44 -93 -18 -95 
10 -95 36 -94 62 -90 87 -84 110 -78 130 -70 149 -59 165 -48 
176 -37 184 -23 190 -10 190 3 188 17 181 29 171 42 157 54 
141 64 121 74 99 81 75 88 50 92 23 94 -4 96 -30 94 
-57 91 -81 86 -105 79 -127 72 -145 61 -161 51 -174 39 -183 26 
-189 13 -191 0 -188 -14 -183 -27 -173 -39 -161 -52 -144 -62 -126 -72 
-104 -79 -80 -87 -55 -91 -29 -94 -3 -95 25 -95 51 -92 77 -87 
100 -81 122 -73 141 -64 159 -53 171 -42 181 -29 188 -15 191 -3 
189 11 184 24 176 37 164 49 148 60 129 69 109 79 86 85 
61 90 34 94 8 95 -19 95 -45 92 -71 89 -95 82 -118 75 
-138 66 -154 56 -169 44 -180 31 -187 19 -190 6 -190 -8 -185 -22 
-178 -34 -167 -46 -151 -58 -134 -68 -114 -76 -90 -84 -67 -89 -40 -93 
-14 -95 13 -96 40 -93 66 -89 90 -84 113 -77 134 -68 151 -58 
166 -46 178 -35 185 -21 190 -9 190 6 187 18 180 32 169 43 
155 56 138 65 118 75 96 83 72 88 46 92 19 95 -7 95 
-34 94 -61 90 -85 86 -108 78 -129 70 -148 60 -163 49 -176 37 
-184 25 -189 11 -191 -2 -188 -16 -181 -29 -172 -41 -158 -53 -142 -64 
-123 -72 -100 -81 -77 -87 -52 -92 -25 -95 1 -95 29 -94 55 -91 
79 -87 104 -80 125 -72 144 -62 160 -52 173 -39 183 -28 188 -14 
191 0 189 13 183 25 174 39 162 51 145 61 127 71 106 79 
82 86 57 91 31 94 4 95 -22 95 -50 92 -74 88 -99 81 
-120 74 -141 65 -157 54 -170 42 -181 30 -188 17 -190 3 -190 -10 
-184 -23 -177 -36 -164 -48 -150 -59 -131 -69 -110 -78 -87 -84 -63 -90 
-37 -94 -10 -95 17 -95 44 -93 69 -88 94 -83 116 -76 136 -67 
154 -56 168 -45 179 -33 186 -19 190 -7 190 7 186 21 179 33 
167 46 153 56 135 68 115 76 93 83 68 89 42 93 16 95 
-11 95 -38 93 -64 90 -89 84 -111 77 -132 69 -150 59 -166 47 
-177 36 -185 22 -189 9 -191 -4 -187 -17 -180 -31 -170 -43 -157 -54 
-139 -65 -119 -75 -98 -81 4781 2198 300 MP stroke
-73 -88 -48 -93 -22 -94 6 -95 32 -94 58 -91 84 -86 107 -79 
127 -70 147 -61 162 -50 175 -38 183 -25 189 -13 191 2 188 14 
182 28 173 41 159 52 144 63 124 72 102 80 79 87 53 91 
27 95 1 95 -27 94 -53 92 -78 87 -102 80 -123 73 -143 63 
-159 52 -172 41 -183 28 -188 15 -190 2 -189 -12 -184 -25 -175 -38 
-163 -50 -146 -60 -129 -71 -107 -78 -84 -86 -59 -91 -33 -93 -6 -96 
21 -94 47 -93 73 -88 97 -82 119 -74 139 -65 156 -55 170 -43 
180 -31 187 -18 190 -5 190 9 185 23 177 35 166 47 150 58 
133 69 112 77 89 84 64 90 39 93 12 95 -15 95 -42 93 
-67 89 -92 84 -115 76 -135 67 -152 57 -167 46 -178 34 -186 20 
-190 8 -191 -6 -186 -20 -179 -32 -169 -45 -154 -56 -136 -66 -117 -76 
-94 -83 -70 -88 -44 -93 -18 -95 10 -95 36 -93 62 -91 87 -84 
109 -78 131 -69 149 -60 164 -48 176 -36 185 -24 190 -10 190 3 
188 17 181 29 171 42 157 54 140 64 122 74 99 81 75 88 
50 92 23 94 -3 96 -31 94 -56 91 -82 86 -105 79 -127 71 
-145 62 -161 51 -174 39 -183 26 -189 13 -190 0 -189 -14 -183 -27 
-173 -39 -160 -52 -145 -62 -125 -71 -104 -80 -81 -87 -55 -91 -29 -94 
-3 -95 25 -95 51 -91 76 -88 101 -81 122 -73 141 -64 158 -53 
172 -41 181 -30 188 -15 190 -3 190 11 184 24 176 37 163 49 
148 60 130 69 109 79 86 85 61 90 34 94 8 95 -19 95 
-45 92 -71 88 -95 83 -118 75 -137 66 -155 55 -169 45 -180 31 
-186 19 -191 6 -189 -8 -186 -22 -178 -34 -166 -46 -152 -58 -134 -68 
-114 -76 -90 -84 -67 -89 -40 -93 -14 -95 13 -95 40 -94 66 -89 
90 -84 113 -77 133 -68 152 -57 166 -47 177 -35 186 -21 190 -9 
190 6 187 18 180 31 169 44 155 56 138 65 118 75 96 82 
72 89 46 92 19 95 -7 95 -34 94 -61 90 -85 85 -108 79 
-129 70 -148 60 -163 49 -175 37 -185 25 -189 11 -190 -2 -188 -16 
-182 -29 -172 -41 -158 -53 -142 -63 -123 -73 -100 -81 -77 -87 -52 -92 
-25 -94 1 -96 29 -94 54 -91 80 -87 104 -80 125 -72 144 -62 
160 -52 173 -39 183 -28 188 -14 191 0 188 12 184 26 174 39 
161 51 146 61 127 71 106 79 82 86 57 91 31 94 4 95 
-22 95 -50 92 -74 88 -99 81 -120 74 -140 64 -157 54 -171 43 
-181 30 -187 17 -191 3 -189 -10 -185 -23 -176 -36 -165 -48 -149 -59 
-132 -69 -110 -78 -87 -84 -63 -90 -37 -94 -10 -95 17 -95 44 -93 
69 -88 94 -83 116 -76 136 -66 153 -57 168 -45 179 -33 187 -19 
190 -7 190 7 186 21 178 33 168 45 153 57 135 67 115 76 
93 84 68 89 42 92 16 95 -11 96 -38 93 -64 90 -89 84 
-111 77 -132 69 -150 59 2823 1942 300 MP stroke
-165 47 -177 36 -185 22 -190 9 -190 -4 -188 -17 -180 -31 -170 -43 
-156 -54 -140 -65 -119 -74 -98 -82 -73 -88 -48 -92 -22 -95 6 -95 
32 -94 58 -91 84 -85 106 -79 128 -71 147 -61 162 -50 174 -38 
184 -25 189 -13 191 2 188 14 182 28 173 41 159 52 143 62 
124 73 103 80 79 87 53 91 27 95 1 95 -27 94 -53 92 
-78 87 -102 80 -123 73 -143 63 -159 52 -172 41 -182 28 -188 15 
-191 2 -189 -12 -184 -25 -175 -38 -162 -50 -147 -60 -129 -71 -107 -78 
-84 -86 -59 -90 -33 -94 -6 -95 21 -95 47 -92 73 -88 97 -83 
119 -74 139 -65 156 -55 169 -43 181 -31 187 -18 190 -5 190 9 
185 23 177 35 166 47 150 58 133 69 112 77 89 84 64 90 
39 93 12 95 -15 95 -42 93 -67 89 -92 84 -115 76 -134 67 
-153 57 -167 46 -178 34 -186 20 -190 8 -190 -6 -187 -20 -179 -32 
-168 -45 -154 -56 -137 -66 -117 -76 -94 -82 -70 -89 -44 -93 -18 -95 
10 -95 36 -93 62 -90 86 -85 110 -78 131 -69 149 -60 164 -48 
176 -36 185 -24 189 -10 191 3 187 17 181 29 171 42 158 54 
140 64 121 74 100 81 75 88 50 92 23 94 -3 95 -31 94 
-56 91 -82 87 -105 79 -126 71 -146 62 -161 51 -174 39 -183 26 
-188 13 -191 0 -188 -14 -183 -27 -174 -39 -160 -52 -145 -62 -125 -71 
-104 -80 -81 -86 -55 -92 -29 -94 -3 -95 25 -94 51 -92 76 -88 
100 -81 123 -73 141 -64 158 -53 171 -41 182 -29 188 -16 190 -3 
189 11 185 24 175 37 164 49 148 59 130 70 109 78 86 85 
60 91 35 93 8 96 -19 94 -45 93 -71 88 -95 83 -118 75 
-137 66 -155 55 -169 45 -179 31 -187 19 -190 6 -190 -8 -186 -22 
-178 -34 -166 -46 -152 -58 -134 -68 -113 -76 -91 -84 -67 -89 -40 -93 
-14 -95 13 -95 40 -93 66 -90 90 -84 113 -76 133 -68 151 -58 
166 -47 178 -35 186 -21 189 -9 191 6 187 18 179 31 170 44 
155 56 138 65 118 75 96 82 71 89 47 92 19 95 -7 95 
-34 94 -60 90 -85 85 -109 79 -129 70 -148 60 -163 49 -175 37 
-184 25 -189 11 -191 -2 -188 -16 -182 -29 -171 -41 -159 -53 -142 -63 
-122 -73 -101 -81 -77 -87 -52 -92 -25 -94 1 -96 29 -94 54 -91 
80 -87 104 -80 125 -71 143 -63 161 -51 173 -40 182 -28 189 -14 
190 0 189 12 183 26 175 39 161 50 146 62 127 71 105 79 
83 86 57 91 31 94 4 95 -22 95 -49 92 -75 87 -99 82 
-120 74 -140 64 -157 54 -171 43 -180 30 -188 17 -190 3 -190 -10 
-185 -23 -176 -36 -165 -48 -149 -59 -131 -69 -111 -78 -87 -84 -63 -90 
-37 -94 -10 -95 17 -95 44 -92 69 -89 93 -83 116 -76 137 -66 
153 -57 168 -45 179 -32 186 -20 190 -7 191 7 186 21 178 33 
168 45 152 57 136 67 2562 2946 300 MP stroke
115 76 92 83 69 89 42 93 16 95 -11 95 -38 94 -64 90 
-88 84 -112 77 -132 69 -150 59 -165 47 -177 36 -185 22 -190 9 
-190 -4 -187 -17 -181 -31 -170 -43 -156 -54 -139 -65 -120 -74 -98 -82 
-73 -88 -48 -92 -22 -95 6 -95 32 -94 58 -91 83 -85 107 -79 
128 -71 146 -61 163 -50 174 -38 184 -25 189 -13 190 2 189 14 
182 28 172 40 160 53 143 62 124 73 103 80 78 87 54 91 
27 94 1 96 -27 94 -53 92 -78 86 -101 81 -124 73 -143 63 
-159 52 -172 41 -182 28 -188 15 -190 2 -190 -12 -183 -25 -175 -38 
-163 -49 -147 -61 -128 -70 -108 -79 -84 -86 -59 -90 -33 -94 -6 -95 
21 -95 47 -92 73 -88 97 -82 119 -75 138 -65 156 -55 170 -43 
180 -31 187 -18 191 -5 189 9 186 23 177 35 165 47 151 58 
133 69 112 77 89 84 64 89 39 94 12 95 -15 95 -42 93 
-67 89 -92 83 -114 77 -135 67 -153 57 -167 46 -178 34 -186 20 
-190 8 -190 -6 -186 -20 -180 -32 -168 -45 -154 -56 -137 -66 -116 -75 
-95 -83 -70 -89 -44 -93 -18 -94 10 -96 36 -93 62 -90 86 -85 
110 -78 131 -69 149 -60 164 -48 176 -36 184 -24 190 -10 190 3 
188 16 181 30 171 42 157 54 141 64 121 74 99 81 76 87 
50 92 23 95 -3 95 -31 94 -56 91 -82 86 -105 80 -126 71 
-145 62 -161 51 -174 39 -183 26 -189 13 -191 0 -188 -14 -183 -27 
-173 -39 -161 -51 -144 -63 -126 -71 -104 -80 -81 -86 -55 -91 -29 -95 
-3 -95 25 -94 51 -92 76 -87 100 -81 122 -74 142 -63 158 -54 
171 -41 181 -29 188 -16 191 -3 189 11 184 24 176 37 164 48 
148 60 130 70 109 78 85 85 61 91 35 93 8 95 -18 95 
-46 93 -71 88 -95 83 -117 75 -138 66 -155 55 -168 44 -180 32 
-187 19 -190 6 -190 -8 -185 -22 -178 -34 -167 -46 -152 -58 -134 -67 
-113 -77 -91 -84 -66 -89 -41 -93 -14 -95 13 -95 40 -93 65 -90 
91 -84 112 -76 134 -68 151 -58 166 -47 178 -35 185 -21 190 -9 
190 5 187 19 180 31 169 44 155 55 139 66 118 75 96 82 
71 88 47 93 19 95 -7 95 -34 93 -60 91 -85 85 -108 79 
-130 70 -147 60 -163 49 -176 37 -184 25 -189 11 -191 -2 -188 -16 
-181 -29 -172 -41 -159 -53 -142 -63 -122 -73 -101 -81 -77 -87 -52 -92 
-25 -94 1 -95 29 -95 54 -91 80 -86 103 -80 125 -72 144 -63 
160 -51 173 -40 183 -28 188 -14 191 0 189 12 183 26 174 39 
162 50 146 62 127 71 105 79 83 86 57 91 31 94 4 95 
-22 95 -49 92 -75 87 -98 82 -121 74 -140 64 -157 54 -170 43 
-181 30 -188 17 -190 3 -190 -10 -184 -23 -177 -36 -164 -48 -150 -59 
-131 -69 -111 -77 -87 -85 -63 -90 -37 -93 -10 -96 17 -94 44 -93 
69 -89 93 -83 116 -76 4586 2949 300 MP stroke
136 -66 154 -57 168 -45 179 -32 186 -20 190 -7 190 7 186 21 
179 33 167 45 153 57 136 67 115 76 92 83 69 89 42 93 
16 95 -11 95 -38 94 -64 89 -88 85 -112 77 -132 69 -150 58 
-165 48 -177 35 -185 23 -189 9 -191 -4 -187 -17 -180 -31 -171 -43 
-156 -54 -139 -65 -120 -74 -97 -82 -74 -88 -48 -92 -22 -95 6 -95 
32 -94 58 -91 83 -85 107 -79 128 -71 146 -61 162 -50 175 -38 
183 -25 189 -13 191 2 188 14 182 28 173 40 160 52 143 63 
124 73 103 80 78 87 54 91 27 94 1 96 -27 94 -52 91 
-78 87 -102 81 -124 72 -142 64 -159 52 -173 41 -182 28 -188 15 
-190 2 -189 -12 -184 -25 -175 -38 -163 -49 -147 -61 -128 -70 -107 -79 
-85 -86 -59 -90 -33 -94 -6 -95 21 -95 47 -92 73 -88 96 -82 
119 -75 139 -65 156 -55 170 -43 180 -31 187 -18 190 -5 190 9 
185 23 177 35 166 47 151 58 132 68 112 78 90 84 64 89 
39 94 12 95 -15 95 -42 93 -67 89 -92 83 -114 76 -135 68 
-152 57 -167 46 -179 33 -185 21 -190 8 -191 -6 -186 -20 -179 -32 
-169 -45 -154 -56 -137 -66 -116 -75 -94 -83 -70 -89 -45 -92 -18 -95 
10 -95 36 -94 61 -90 87 -85 110 -78 130 -69 149 -60 164 -48 
177 -36 184 -24 190 -10 190 3 188 16 181 30 171 42 157 54 
141 64 121 74 99 81 76 87 49 92 24 95 -3 95 -31 94 
-56 91 -82 86 -104 80 -127 71 -145 62 -161 51 -174 39 -183 26 
-189 13 -190 0 -189 -14 -183 -27 -173 -39 -161 -51 -144 -62 -126 -72 
-104 -80 -81 -86 -55 -91 -29 -94 -3 -96 25 -94 51 -92 76 -87 
100 -81 122 -74 141 -63 158 -54 172 -41 181 -29 188 -16 190 -3 
190 11 184 24 176 37 163 48 149 60 130 70 108 78 86 85 
61 90 35 94 8 95 -18 95 -46 93 -71 88 -95 83 -117 75 
-138 66 -154 55 -169 44 -180 32 -186 19 -191 6 -189 -8 -186 -22 
-178 -34 -167 -46 -151 -58 -134 -67 -114 -77 -91 -83 -66 -90 -41 -93 
-14 -95 13 -95 40 -93 65 -89 90 -84 113 -77 134 -68 151 -58 
166 -47 177 -34 186 -22 190 -9 190 5 187 19 180 31 169 44 
155 55 138 66 118 75 96 82 72 88 46 93 20 94 -7 96 
-34 93 -60 91 -85 85 -108 78 -129 70 -148 61 -163 49 -176 37 
-184 25 -189 11 -190 -2 -188 -16 -182 -28 -172 -42 -158 -53 -142 -63 
-123 -73 -101 -81 -77 -87 -52 -92 -25 -94 1 -95 29 -94 54 -92 
80 -86 103 -80 125 -72 144 -63 160 -51 173 -40 183 -27 188 -15 
191 0 188 12 184 26 174 39 162 50 145 62 127 71 106 79 
83 86 57 91 31 94 4 95 -22 94 -49 92 -75 88 -98 82 
-121 74 -140 64 -156 54 -171 43 -181 30 -187 17 -191 3 -189 -10 
-185 -23 -177 -36 -164 -47 4336 1944 300 MP stroke
-150 -60 -131 -69 -110 -77 -88 -85 -63 -90 -37 -93 -10 -95 17 -95 
44 -93 69 -89 93 -83 116 -75 136 -67 154 -57 167 -45 179 -32 
187 -20 190 -7 190 7 186 21 179 33 167 45 153 57 135 67 
116 76 92 83 68 89 43 93 16 95 -11 95 -38 93 -64 90 
-88 85 -111 77 -132 69 -150 58 -165 48 -177 35 -185 23 -190 9 
-190 -4 -188 -17 -180 -31 -170 -43 -157 -54 -139 -65 -120 -74 -97 -82 
-74 -88 -48 -92 -22 -95 6 -95 32 -94 58 -90 83 -86 107 -79 
127 -71 147 -61 162 -50 175 -38 183 -25 189 -13 191 2 188 14 
182 28 173 40 159 52 144 63 124 72 102 81 79 86 54 92 
27 94 1 95 -27 95 -52 91 -78 87 -102 81 -123 72 -143 63 
-159 53 -172 41 -182 28 -188 15 -191 2 -189 -12 -184 -25 -175 -38 
-162 -49 -147 -61 -129 -70 -107 -79 -84 -85 -60 -91 -33 -94 -6 -95 
21 -95 47 -92 73 -88 96 -82 119 -75 139 -65 156 -55 169 -43 
181 -31 187 -18 190 -5 190 9 185 23 177 35 166 47 150 58 
133 68 112 77 89 85 65 89 39 93 12 96 -15 94 -42 93 
-67 90 -92 83 -114 76 -135 68 -152 57 -167 46 -178 33 -186 21 
-190 8 -190 -6 -187 -20 -179 -32 -168 -45 -155 -56 -136 -66 -117 -75 
-94 -83 -70 -89 -45 -92 -18 -95 10 -95 35 -94 62 -90 87 -85 
110 -78 130 -69 149 -60 164 -48 176 -36 185 -24 189 -10 191 3 
187 16 181 30 171 42 158 54 141 64 121 73 99 82 75 87 
50 92 24 95 -3 95 -31 94 -56 91 -81 86 -105 80 -127 71 
-145 62 -161 51 -174 39 -183 26 -188 13 -191 0 -188 -14 -183 -27 
-174 -39 -160 -51 -145 -62 -126 -72 -104 -80 -80 -86 -56 -91 -29 -94 
-3 -96 25 -94 51 -92 76 -87 100 -81 122 -73 141 -64 158 -54 
171 -41 182 -29 188 -16 190 -3 189 11 185 24 176 37 163 48 
148 60 130 70 109 78 86 85 61 90 35 94 8 95 -18 95 
-46 92 -70 89 -96 82 -117 75 -137 66 -155 56 -169 44 -179 32 
-187 19 -190 6 -190 -8 -186 -21 -178 -35 -166 -46 -152 -57 -134 -68 
-114 -77 -91 -83 -66 -90 -41 -93 -14 -95 13 -95 40 -93 65 -89 
90 -84 113 -77 133 -68 152 -58 166 -47 177 -34 186 -22 189 -9 
191 5 187 19 179 31 170 44 155 55 138 66 118 75 96 82 
72 88 46 92 20 95 -7 95 -34 94 -60 91 -85 85 -108 78 
-129 70 -148 61 -163 49 -175 37 -184 25 -189 11 -191 -2 -188 -16 
-182 -28 -171 -42 -159 -52 -142 -64 -123 -73 -101 -81 -77 -87 -52 -91 
-25 -95 1 -95 28 -94 55 -92 80 -86 103 -80 125 -72 144 -63 
160 -51 173 -40 182 -27 189 -15 190 0 189 12 183 26 175 39 
161 50 146 61 127 71 106 80 82 86 58 90 31 94 4 96 
-22 94 -49 92 -75 88 2376 2195 300 MP stroke
-98 82 -120 73 -140 65 -157 54 -171 43 -181 30 -187 17 -190 3 
-190 -9 -185 -24 -176 -35 -165 -48 -149 -59 -132 -70 -110 -77 -88 -85 
-63 -90 -37 -93 -10 -95 17 -95 43 -93 70 -89 93 -83 116 -75 
136 -67 153 -56 168 -46 179 -32 186 -20 190 -7 191 7 186 21 
178 33 168 45 153 57 135 67 115 76 93 83 68 89 43 93 
16 95 -11 95 -38 93 -64 90 -88 84 -111 78 -132 69 -150 58 
-165 48 -177 35 -185 23 -190 9 -190 -4 -187 -17 -181 -31 -170 -42 
-156 -55 -140 -65 -120 -74 -97 -82 -74 -88 -48 -92 -22 -94 6 -96 
32 -93 58 -91 83 -86 106 -79 128 -71 147 -61 162 -50 174 -38 
184 -25 189 -13 190 2 189 14 182 28 173 40 159 52 143 63 
125 72 102 81 79 86 54 92 27 94 1 95 -27 95 -52 91 
-78 87 -102 81 -123 72 -143 63 -159 53 -172 41 -182 28 -188 15 
-190 2 -190 -12 -183 -25 -175 -38 -163 -49 -147 -61 -129 -70 -107 -79 
-84 -85 -59 -91 -34 -94 -6 -95 21 -94 47 -93 72 -88 97 -82 
119 -74 139 -66 155 -55 170 -43 180 -31 187 -18 191 -5 189 9 
186 22 177 35 165 48 151 58 133 68 112 77 89 84 65 90 
39 93 12 95 -15 95 -41 93 -68 89 -91 84 -115 76 -134 68 
-153 57 -167 46 -178 33 -186 21 -190 8 -190 -6 -186 -20 -180 -32 
-168 -44 -154 -56 -137 -67 -117 -75 -94 -83 -70 -88 -45 -93 -18 -95 
10 -95 35 -94 62 -90 87 -85 109 -78 131 -69 149 -59 164 -49 
176 -36 184 -24 190 -10 190 3 188 16 181 30 171 42 158 54 
140 64 122 73 99 82 75 87 50 92 24 94 -3 96 -30 94 
-57 91 -81 86 -105 79 -126 72 -145 62 -162 50 -173 39 -183 27 
-189 13 -191 0 -188 -14 -183 -27 -173 -39 -161 -51 -145 -62 -125 -72 
-105 -80 -80 -86 -56 -91 -29 -94 -3 -95 25 -95 51 -92 76 -87 
100 -81 122 -73 141 -64 158 -53 171 -42 182 -29 187 -16 191 -3 
189 11 184 24 176 36 164 49 148 60 130 70 109 78 86 85 
61 90 35 94 8 95 -18 95 -45 92 -71 89 -95 82 -118 75 
-137 66 -155 56 -168 44 -180 32 -187 19 -190 6 -190 -8 -186 -21 
-177 -35 -167 -46 -152 -57 -134 -68 -114 -76 -91 -84 -66 -89 -41 -93 
-14 -95 13 -96 40 -93 65 -89 90 -84 113 -77 133 -68 151 -58 
166 -47 178 -34 185 -22 190 -9 190 5 187 19 180 31 169 44 
156 55 138 66 118 74 96 83 72 88 46 92 20 95 -7 95 
-34 94 -60 90 -85 86 -108 78 -129 70 -147 60 -164 50 -175 37 
-184 25 -189 11 -191 -2 -188 -16 -181 -28 -172 -41 -159 -53 -142 -64 
-123 -73 -101 -80 -77 -88 -52 -91 -25 -95 1 -95 28 -94 55 -91 
80 -87 103 -80 125 -72 143 -62 160 -52 173 -40 183 -27 188 -15 
191 0 189 12 183 26 3120 3136 300 MP stroke
174 39 162 50 146 61 127 71 106 80 82 85 58 91 31 94 
4 95 -22 95 -49 92 -74 88 -99 81 -120 74 -140 65 -157 54 
-170 43 -181 30 -188 17 -190 3 -190 -9 -184 -24 -177 -35 -165 -48 
-149 -59 -131 -69 -111 -78 -88 -85 -63 -89 -36 -94 -11 -95 17 -95 
43 -93 69 -89 94 -83 116 -75 136 -67 153 -56 168 -45 179 -33 
186 -20 190 -7 190 7 186 20 179 34 167 45 153 57 136 67 
115 76 93 83 68 89 43 93 16 95 -11 95 -38 93 -63 90 
-89 84 -111 78 -132 68 -150 59 -165 48 -177 35 -185 23 -189 9 
-191 -4 -187 -17 -181 -30 -170 -43 -156 -55 -140 -65 -119 -74 -98 -82 
-74 -87 -48 -93 -22 -94 6 -95 32 -94 58 -91 83 -86 106 -79 
128 -70 146 -61 162 -51 175 -38 183 -25 189 -13 191 2 188 14 
183 28 172 40 160 52 143 63 124 72 103 80 79 87 54 91 
27 95 1 95 -26 94 -53 92 -78 87 -102 80 -123 73 -142 63 
-159 53 -173 41 -182 28 -188 15 -190 2 -189 -12 -184 -25 -175 -37 
-163 -50 -147 -61 -129 -70 -107 -79 -84 -85 -59 -91 -34 -93 -6 -96 
21 -94 47 -93 72 -88 97 -82 119 -74 138 -66 156 -55 170 -43 
180 -31 187 -18 190 -5 190 9 185 22 178 35 165 47 151 59 
133 68 112 77 89 84 65 90 39 93 12 95 -15 95 -41 93 
-68 89 -91 84 -115 76 -134 67 -152 58 -167 46 -179 33 -185 21 
-190 8 -191 -6 -186 -20 -179 -32 -169 -44 -154 -56 -137 -67 -117 -75 
-94 -83 -70 -88 -45 -93 -18 -95 10 -95 35 -93 62 -91 87 -84 
109 -78 131 -70 148 -59 165 -49 176 -36 184 -24 190 -10 190 3 
188 16 181 30 171 42 157 53 141 65 121 73 100 81 75 88 
50 92 24 94 -3 96 -30 94 -57 91 -81 86 -105 79 -126 72 
-145 61 -161 51 -174 39 -183 27 -189 13 -190 0 -189 -14 -183 -26 
-173 -40 -161 -51 -144 -62 -126 -72 -104 -79 -81 -87 -56 -91 -29 -94 
-3 -95 25 -95 50 -91 77 -88 100 -81 121 -73 142 -64 157 -53 
172 -42 181 -29 188 -16 190 -3 190 11 184 24 176 36 164 49 
148 60 130 70 109 78 86 85 61 90 35 94 8 95 -18 95 
-45 92 -71 89 -95 82 -118 75 -137 66 -154 56 -169 44 -180 32 
-186 19 -191 6 -189 -8 -186 -21 -178 -34 -167 -47 -152 -57 -134 -68 
-113 -76 -92 -84 -66 -89 -41 -93 -14 -95 13 -95 39 -94 66 -89 
90 -84 113 -77 133 -68 151 -58 166 -47 177 -34 186 -22 190 -9 
190 5 187 19 180 31 169 44 155 55 139 66 118 74 96 83 
72 88 46 92 20 95 -7 95 -34 94 -60 90 -85 86 -108 78 
-129 70 -147 60 -163 50 -176 37 -184 25 -189 11 -190 -2 -188 -16 
-182 -28 -172 -41 -158 -53 -143 -64 -122 -73 -101 -80 -78 -87 -52 -92 
-25 -94 1 -96 28 -94 4893 2648 300 MP stroke
55 -91 79 -87 104 -80 124 -72 144 -62 160 -52 173 -40 183 -27 
188 -15 191 0 188 12 184 26 174 39 162 50 146 61 127 71 
106 79 82 86 58 91 31 94 4 95 -22 95 -49 92 -74 88 
-99 81 -120 74 -140 65 -157 54 -170 42 -181 31 -187 17 -191 3 
-189 -9 -185 -23 -177 -36 -164 -48 -150 -59 -131 -69 -111 -78 -88 -84 
-62 -90 -37 -94 -11 -95 17 -95 43 -93 69 -88 94 -83 115 -76 
136 -67 154 -56 168 -45 178 -33 187 -20 190 -7 190 7 186 20 
179 34 167 45 153 57 136 67 115 76 93 83 68 89 43 93 
16 94 -11 96 -38 93 -63 90 -89 84 -111 78 -132 68 -150 59 
-165 48 -176 35 -185 23 -190 9 -190 -4 -188 -17 -180 -30 -170 -43 
-157 -55 -139 -65 -120 -74 -98 -81 -74 -88 -48 -92 -22 -95 6 -95 
31 -94 59 -91 83 -86 106 -79 128 -70 146 -61 162 -51 175 -38 
183 -25 189 -13 191 2 188 14 182 28 173 40 160 52 143 63 
124 72 103 80 79 87 54 91 27 95 1 95 -26 94 -53 92 
-78 87 -101 80 -124 73 -142 63 -159 53 -172 41 -182 28 -188 15 
-191 2 -189 -12 -184 -25 -175 -37 -163 -50 -147 -60 -128 -71 -108 -78 
-84 -86 -59 -90 -34 -94 -6 -95 21 -95 47 -92 72 -89 97 -82 
119 -74 138 -65 156 -55 169 -44 181 -31 187 -18 190 -5 190 9 
185 22 177 35 166 47 151 59 132 68 113 77 89 84 65 90 
39 93 12 95 -15 95 -41 93 -67 89 -92 84 -114 76 -135 67 
-152 58 -167 46 -178 33 -186 21 -190 8 -190 -6 -187 -20 -179 -32 
-169 -44 -154 -56 -137 -67 -116 -75 -95 -83 -70 -88 -45 -93 -17 -95 
8 -95 36 -93 62 -90 86 -85 110 -78 130 -70 149 -59 164 -49 
176 -36 185 -24 189 -10 191 3 187 16 181 30 172 42 157 53 
141 65 121 73 100 81 75 88 50 92 24 94 -3 95 -30 94 
-57 91 -81 87 -105 79 -126 72 -145 61 -161 51 -174 39 -183 27 
-188 13 -191 0 -189 -14 -182 -26 -174 -40 -161 -51 -144 -62 -126 -72 
-104 -79 -81 -87 -56 -91 -29 -94 -3 -95 25 -94 50 -92 76 -88 
100 -81 122 -73 141 -64 158 -53 172 -42 181 -29 188 -16 190 -3 
189 11 185 24 176 36 163 49 149 60 130 69 109 79 86 85 
61 90 35 93 8 96 -18 94 -45 93 -71 88 -95 83 -117 75 
-138 66 -154 56 -169 44 -179 32 -187 19 -190 6 -190 -8 -186 -21 
-178 -34 -166 -47 -152 -57 -135 -68 -113 -76 -91 -84 -67 -89 -41 -93 
-14 -95 13 -95 39 -93 66 -90 90 -84 112 -77 134 -68 151 -58 
166 -47 177 -34 186 -22 189 -9 191 5 187 19 180 31 169 44 
155 55 138 65 119 75 96 82 72 89 46 92 20 95 -7 95 
-34 94 -60 90 -84 85 -108 79 -129 70 -148 60 -163 50 -175 37 
-184 24 -189 12 -191 -2 3701 1830 300 MP stroke
-188 -16 -182 -28 -172 -41 -158 -53 -142 -64 -123 -72 -101 -81 -78 -87 
-51 -92 -26 -94 1 -96 28 -94 55 -91 79 -87 103 -80 125 -72 
144 -62 160 -52 173 -40 182 -27 189 -15 190 0 189 12 183 26 
175 38 161 51 146 61 128 71 105 79 83 86 58 91 31 94 
4 95 -22 95 -49 92 -74 88 -98 81 -121 74 -140 65 -156 54 
-171 42 -181 31 -187 17 -190 3 -190 -9 -185 -23 -176 -36 -165 -48 
-150 -59 -131 -69 -111 -78 -87 -84 -63 -90 -37 -94 -11 -95 17 -95 
43 -92 69 -89 93 -83 116 -76 136 -67 153 -56 168 -45 179 -33 
186 -20 190 -7 191 7 186 20 178 33 168 46 153 57 136 67 
115 75 93 84 68 88 43 93 16 95 -11 95 -38 94 -63 90 
-88 84 -112 77 -131 69 -150 59 -165 48 -177 35 -185 23 -190 9 
-190 -4 -187 -17 -181 -30 -170 -43 -157 -55 -139 -64 -120 -74 -98 -82 
-73 -88 -49 -92 -22 -95 6 -95 31 -94 58 -91 83 -85 107 -80 
127 -70 147 -61 162 -50 174 -39 184 -25 189 -13 190 2 189 14 
182 28 173 40 159 52 144 63 124 72 103 80 79 87 54 91 
27 94 1 96 -26 94 -53 92 -78 87 -101 80 -123 73 -143 63 
-159 53 -172 40 -182 29 -188 15 -190 2 -190 -12 -184 -25 -175 -37 
-162 -50 -147 -60 -129 -71 -108 -78 -84 -86 -59 -90 -33 -94 -7 -95 
20 -95 47 -92 73 -88 97 -83 118 -74 139 -65 156 -55 169 -44 
180 -31 187 -18 191 -5 189 9 186 22 177 35 166 47 150 59 
133 68 112 77 90 84 65 90 39 93 12 95 -15 95 -41 93 
-67 89 -92 84 -114 76 -135 67 -152 57 -167 46 -178 34 -186 21 
-190 8 -190 -6 -187 -19 -179 -33 -168 -44 -154 -56 -137 -66 -117 -76 
-95 -82 -70 -89 -44 -93 -18 -94 8 -96 36 -93 62 -90 86 -85 
110 -78 130 -70 149 -59 164 -49 176 -36 184 -24 190 -10 190 3 
188 16 181 30 171 42 158 53 141 64 121 74 99 81 76 88 
50 91 24 95 -3 95 -30 94 -56 91 -82 86 -104 80 -127 71 
-145 62 -161 51 -173 39 -183 27 -189 13 -191 0 -188 -14 -183 -26 
-174 -40 -160 -51 -145 -62 -126 -71 -104 -80 -81 -86 -56 -91 -29 -95 
-3 -95 25 -94 50 -92 76 -88 100 -81 122 -73 141 -64 158 -53 
171 -42 182 -29 187 -16 191 -3 189 11 185 24 175 36 164 49 
148 60 131 69 109 78 86 85 61 91 35 93 8 95 -18 95 
-45 93 -71 88 -95 83 -117 75 -137 66 -155 56 -169 44 -179 32 
-187 19 -190 6 -190 -8 -186 -21 -178 -34 -166 -47 -152 -57 -134 -68 
-114 -76 -91 -84 -67 -89 -41 -93 -14 -95 13 -95 39 -93 66 -90 
89 -84 113 -77 133 -68 151 -58 166 -47 178 -34 185 -22 190 -9 
190 5 187 19 180 31 170 44 155 55 138 65 119 75 96 82 
72 88 46 93 20 95 2229 2524 300 MP stroke
-7 95 -34 93 -59 91 -85 85 -108 79 -129 70 -148 60 -163 50 
-175 37 -184 24 -189 12 -191 -2 -188 -16 -181 -28 -172 -41 -159 -53 
-142 -63 -123 -73 -101 -81 -77 -87 -52 -92 -26 -94 1 -95 28 -95 
55 -91 79 -86 103 -81 125 -72 144 -62 160 -52 172 -40 183 -27 
188 -15 191 0 189 12 183 26 174 38 162 51 146 61 127 71 
106 79 83 86 57 91 32 94 4 95 -22 95 -49 92 -74 87 
-98 82 -120 74 -140 65 -157 54 -170 42 -181 31 -188 17 -190 3 
-190 -9 -184 -23 -177 -36 -165 -48 -149 -59 -132 -69 -111 -78 -87 -84 
-63 -90 -37 -93 -11 -96 17 -94 43 -93 69 -89 93 -83 116 -76 
136 -67 153 -56 168 -45 179 -33 186 -20 190 -7 190 7 186 20 
179 33 168 46 153 56 135 67 116 76 92 83 69 89 43 93 
16 95 -11 95 -38 94 -63 89 -88 85 -111 77 -132 69 -150 59 
-165 48 -177 35 -185 23 -189 9 -191 -4 -187 -17 -181 -30 -170 -43 
-156 -54 -140 -65 -120 -74 -98 -82 -73 -88 -49 -92 -22 -95 5 -95 
32 -94 58 -91 83 -85 107 -79 127 -71 146 -61 162 -50 175 -39 
184 -25 188 -12 191 1 188 14 183 28 172 40 160 52 143 63 
125 72 103 80 79 87 54 91 27 94 1 96 -26 94 -53 91 
-77 87 -102 81 -123 73 -143 63 -159 53 -172 40 -182 29 -188 15 
-190 2 -189 -12 -184 -25 -175 -37 -163 -50 -147 -60 -129 -71 -107 -78 
-85 -86 -59 -90 -33 -94 -7 -95 20 -95 47 -92 73 -88 96 -82 
119 -75 139 -65 155 -55 170 -44 180 -31 187 -18 190 -5 190 9 
185 22 178 35 165 47 151 58 133 69 112 77 90 84 65 89 
39 94 12 95 -15 95 -41 93 -67 89 -92 83 -114 77 -134 67 
-153 57 -166 46 -179 34 -185 21 -190 8 -191 -6 -186 -19 -180 -33 
-168 -44 -154 -56 -137 -66 -117 -76 -95 -82 -70 -89 -44 -92 -18 -95 
8 -95 36 -94 62 -90 86 -85 110 -78 130 -69 149 -60 164 -49 
176 -36 184 -24 190 -10 190 3 188 16 181 30 171 42 158 53 
140 64 122 74 99 81 76 87 50 92 24 95 -3 95 -30 94 
-56 91 -82 86 -104 80 -126 71 -145 62 -161 51 -174 39 -183 27 
-189 13 -190 0 -189 -14 -183 -26 -173 -40 -161 -51 -145 -62 -126 -71 
-104 -80 -81 -86 -56 -91 -29 -94 -3 -96 24 -94 51 -92 76 -87 
100 -82 122 -73 141 -64 158 -53 171 -42 181 -29 188 -16 190 -3 
190 11 184 23 176 37 164 49 148 60 130 69 109 78 87 85 
61 90 35 94 8 95 -18 95 -45 93 -71 88 -95 83 -117 75 
-137 66 -155 56 -168 44 -180 32 -186 19 -191 6 -189 -8 -186 -21 
-178 -34 -167 -46 -152 -58 -134 -67 -114 -77 -91 -84 -67 -89 -41 -93 
-14 -95 13 -95 39 -93 65 -90 90 -84 113 -76 133 -69 151 -58 
166 -46 177 -35 186 -22 3792 3167 300 MP stroke
190 -9 190 5 187 19 180 31 169 44 156 55 138 65 118 75 
97 82 72 88 46 93 20 94 -7 96 -34 93 -59 91 -85 85 
-108 79 -129 70 -147 60 -163 49 -176 38 -184 24 -189 12 -190 -2 
-188 -16 -182 -28 -172 -41 -159 -53 -142 -63 -123 -73 -101 -81 -77 -87 
-52 -92 -26 -94 1 -95 28 -94 54 -92 80 -86 103 -80 125 -73 
143 -62 160 -52 173 -40 183 -27 188 -15 191 0 188 12 184 26 
174 38 162 51 146 61 127 71 106 79 83 86 57 91 32 94 
4 95 -22 94 -49 93 -74 87 -98 82 -120 74 -140 64 -157 55 
-170 42 -181 30 -187 18 -191 3 -189 -9 -185 -23 -177 -36 -164 -48 
-150 -59 -132 -69 -110 -77 -88 -85 -63 -90 -37 -93 -11 -95 17 -95 
43 -93 69 -89 93 -83 116 -76 136 -66 153 -57 168 -45 178 -33 
187 -20 190 -7 190 7 186 20 179 33 167 46 153 56 136 67 
115 76 93 83 69 89 43 93 16 95 -11 95 -38 93 -63 90 
-88 85 -111 77 -132 69 -150 59 -165 47 -176 36 -185 23 -190 9 
-190 -4 -188 -17 -180 -30 -171 -43 -156 -54 -140 -65 -120 -74 -97 -82 
-74 -88 -49 -92 -22 -95 5 -95 32 -94 58 -90 83 -86 106 -79 
128 -71 146 -61 162 -50 175 -39 183 -25 189 -12 191 1 188 14 
182 28 173 40 160 52 143 62 125 73 102 80 80 86 53 92 
28 94 1 95 -26 95 -53 91 -77 87 -102 81 -123 73 -142 63 
-159 52 -172 41 -182 29 -188 15 -191 2 -189 -12 -184 -25 -175 -37 
-163 -50 -147 -60 -129 -70 -107 -79 -85 -85 -59 -91 -33 -94 -7 -95 
20 -95 47 -92 73 -88 96 -82 119 -75 138 -65 156 -55 169 -44 
181 -31 187 -18 190 -5 190 9 185 22 177 35 166 47 151 58 
133 69 112 77 90 84 65 89 39 93 12 96 -15 94 -41 93 
-67 90 -92 83 -114 77 -134 67 -152 57 -167 46 -178 34 -186 21 
-190 8 -190 -6 -187 -19 -179 -33 -169 -44 -154 -56 -137 -66 -117 -75 
-94 -83 -71 -89 -44 -92 -18 -95 8 -95 36 -94 62 -90 86 -85 
109 -78 131 -69 148 -60 164 -48 176 -37 185 -24 189 -10 191 3 
187 16 182 30 171 41 157 54 141 64 122 74 99 81 76 87 
50 92 24 95 -3 95 -30 94 -56 91 -81 86 -105 80 -126 71 
-145 62 -161 51 -174 39 -183 27 -188 13 -191 0 -189 -14 -182 -26 
-174 -40 -161 -51 -145 -62 -125 -71 -105 -80 -81 -86 -55 -91 -30 -94 
-3 -96 24 -94 51 -92 76 -87 100 -81 121 -74 142 -64 157 -53 
172 -42 181 -29 188 -16 190 -3 189 11 185 23 176 37 164 49 
148 59 130 70 109 78 86 85 62 90 35 94 8 95 -18 95 
-45 92 -71 89 -94 83 -118 75 -137 66 -154 56 -169 44 -179 32 
-187 19 -190 6 -190 -8 -186 -21 -178 -34 -167 -46 -152 -58 -134 -67 
-114 -77 -91 -83 -67 -90 4870 2311 300 MP stroke
-41 -93 -14 -95 13 -95 39 -93 65 -89 90 -84 113 -77 133 -68 
151 -59 166 -46 177 -35 186 -22 189 -9 191 5 187 19 180 31 
169 43 155 56 139 65 118 75 96 82 73 88 46 92 20 95 
-7 95 -33 94 -60 91 -85 85 -108 78 -129 71 -147 60 -163 49 
-175 38 -184 24 -189 12 -191 -2 -188 -16 -182 -28 -172 -41 -158 -53 
-143 -63 -123 -73 -101 -81 -77 -87 -52 -91 -26 -95 1 -95 28 -94 
54 -92 80 -86 103 -80 124 -72 144 -63 160 -52 173 -40 182 -27 
189 -15 190 0 189 12 184 26 174 38 162 51 146 61 127 71 
106 79 83 86 57 90 32 94 4 96 -22 94 -48 92 -75 88 
-98 82 -120 74 -140 64 -156 55 -171 42 -181 30 -187 18 -190 3 
-190 -9 -185 -23 -176 -36 -165 -48 -150 -59 -131 -69 -111 -77 -88 -85 
-63 -90 -37 -93 -11 -95 17 -95 43 -93 69 -89 93 -83 115 -76 
136 -66 154 -57 167 -45 179 -33 186 -20 190 -7 191 7 186 20 
178 33 168 46 153 56 136 67 115 76 93 83 69 89 43 93 
16 95 -11 95 -37 93 -64 90 -88 85 -111 77 -132 69 -149 59 
-165 47 -177 36 -185 23 -190 9 -190 -4 -187 -17 -181 -30 -170 -43 
-157 -54 -139 -65 -120 -74 -98 -82 -74 -88 -49 -92 -22 -94 5 -96 
32 -94 58 -90 83 -86 106 -79 128 -71 146 -61 162 -50 174 -38 
184 -26 189 -12 190 1 189 14 182 28 173 40 159 52 144 62 
124 72 103 81 79 86 54 92 28 94 1 95 -26 95 -53 91 
-77 87 -102 81 -123 72 -142 64 -159 52 -172 41 -182 29 -188 15 
-190 2 -190 -12 -184 -25 -175 -37 -163 -50 -147 -60 -128 -70 -108 -79 
-85 -85 -59 -91 -33 -94 -7 -95 20 -95 47 -92 72 -88 97 -82 
119 -75 138 -65 156 -55 169 -44 180 -31 187 -18 191 -5 189 9 
186 22 177 35 166 47 151 58 133 68 112 77 89 84 65 90 
39 93 13 95 -15 95 -41 93 -67 90 -91 83 -114 76 -135 68 
-152 57 -167 46 -178 34 -186 21 -190 8 -190 -6 -187 -19 -179 -32 
-168 -45 -155 -56 -137 -66 -117 -75 -94 -83 -71 -88 -44 -93 -18 -95 
8 -95 36 -94 61 -90 87 -85 109 -78 130 -69 149 -60 164 -48 
176 -37 184 -24 190 -10 190 3 188 16 181 30 171 41 158 54 
141 64 121 73 100 82 76 87 50 92 24 94 -3 96 -30 94 
-56 91 -81 86 -105 80 -126 71 -145 62 -161 51 -173 39 -183 27 
-189 13 -191 0 -188 -14 -183 -26 -174 -39 -160 -52 -145 -61 -126 -72 
-105 -80 -81 -86 -55 -91 -30 -94 -3 -95 24 -95 51 -92 76 -87 
100 -81 121 -74 141 -64 158 -53 171 -42 182 -29 187 -16 191 -3 
189 10 185 24 175 37 164 49 149 59 130 70 109 78 86 85 
62 90 35 94 8 95 -18 95 -45 92 -70 89 -95 82 -117 76 
-138 66 -154 55 -169 45 3035 1884 300 MP stroke
-179 32 -187 19 -190 6 -190 -8 -186 -21 -178 -34 -166 -46 -152 -58 
-135 -67 -114 -77 -91 -83 -67 -89 -41 -93 -14 -95 13 -96 39 -93 
65 -89 90 -84 112 -77 134 -68 151 -58 165 -47 178 -35 185 -22 
190 -9 190 5 187 19 180 31 170 43 155 55 138 66 119 75 
96 82 72 88 47 92 20 95 -7 95 -33 94 -60 90 -85 86 
-108 78 -128 71 -148 60 -163 49 -175 38 -184 24 -189 12 -191 -2 
-188 -16 -181 -28 -172 -41 -159 -53 -142 -63 -123 -73 -102 -81 -77 -87 
-52 -91 -26 -95 1 -95 28 -94 54 -91 80 -87 103 -80 124 -72 
144 -63 160 -52 173 -40 182 -27 188 -15 191 0 189 12 183 26 
175 38 161 50 146 62 128 71 106 79 83 85 57 91 32 94 
4 95 -22 95 -48 92 -74 88 -99 82 -120 74 -140 64 -156 55 
-171 42 -180 30 -188 18 -190 3 -190 -9 -185 -23 -176 -36 -165 -48 
-150 -59 -131 -69 -111 -77 -88 -85 -63 -89 -37 -94 -11 -95 17 -95 
43 -93 68 -89 94 -83 115 -75 136 -67 153 -57 168 -45 179 -33 
186 -20 190 -7 190 7 186 20 179 33 168 46 153 56 136 67 
115 76 93 83 69 89 42 93 17 95 -11 95 -37 93 -64 90 
-88 84 -111 78 -131 69 -150 59 -165 47 -177 36 -185 23 -189 9 
-191 -4 -187 -17 -181 -30 -170 -43 -156 -54 -140 -65 -120 -74 -98 -82 
-74 -87 -49 -93 -22 -94 5 -95 32 -94 58 -91 83 -86 106 -79 
127 -71 147 -61 162 -50 174 -38 184 -26 188 -12 191 1 188 14 
183 28 172 40 160 52 144 62 124 72 103 81 79 86 54 92 
28 94 1 95 -26 94 -52 92 -78 87 -101 81 -124 72 -142 64 
-159 52 -172 41 -182 29 -188 15 -190 2 -189 -12 -184 -25 -175 -37 
-163 -49 -148 -61 -128 -70 -108 -79 -84 -85 -60 -91 -33 -93 -7 -96 
20 -94 47 -93 72 -88 97 -82 118 -75 139 -65 155 -55 170 -44 
180 -31 187 -18 190 -5 190 9 185 22 178 35 166 47 150 58 
133 68 113 77 89 84 65 90 39 93 13 95 -15 95 -41 93 
-67 89 -91 84 -114 76 -135 68 -152 57 -167 46 -178 34 -185 21 
-190 8 -191 -6 -186 -19 -180 -32 -168 -45 -154 -56 -137 -66 -117 -75 
-95 -83 -71 -88 -44 -93 -18 -95 8 -95 36 -93 61 -91 87 -85 
109 -78 130 -69 149 -60 164 -48 176 -37 184 -24 190 -10 190 3 
188 16 181 29 171 42 158 54 141 64 121 73 100 81 76 88 
50 92 24 94 -3 96 -30 94 -56 91 -81 86 -105 80 -126 71 
-145 62 -160 51 -174 39 -183 27 -189 13 -190 0 -189 -13 -183 -27 
-173 -39 -161 -51 -145 -62 -126 -72 -104 -80 -81 -86 -56 -91 -30 -94 
-3 -95 24 -95 51 -92 76 -87 99 -81 122 -73 141 -64 158 -54 
171 -42 181 -29 188 -16 190 -3 190 10 184 24 176 37 164 49 
148 59 131 70 109 78 2420 2848 300 MP stroke
86 85 61 90 36 94 8 95 -18 95 -45 92 -70 89 -95 82 
-117 75 -137 67 -155 55 -168 45 -180 32 -186 19 -191 6 -189 -8 
-186 -21 -178 -34 -167 -46 -152 -58 -134 -67 -114 -76 -92 -84 -66 -89 
-41 -93 -15 -95 13 -95 39 -94 65 -89 90 -84 112 -77 133 -68 
151 -58 166 -47 177 -35 186 -22 190 -9 190 5 187 18 180 32 
169 43 156 55 138 66 119 74 96 83 72 88 47 92 20 95 
-7 95 -33 94 -60 90 -85 86 -107 78 -129 70 -148 61 -162 49 
-176 38 -184 24 -189 12 -190 -2 -188 -15 -182 -29 -172 -41 -159 -53 
-142 -63 -123 -73 -101 -80 -78 -87 -52 -92 -26 -94 1 -96 28 -94 
54 -91 79 -87 103 -80 125 -72 144 -63 159 -52 173 -40 183 -27 
188 -15 191 0 188 12 184 26 174 38 162 50 146 62 128 70 
106 80 82 85 58 91 32 94 4 95 -22 95 -48 92 -74 88 
-98 81 -121 74 -139 65 -157 54 -170 43 -181 30 -187 18 -191 3 
-189 -9 -185 -23 -177 -36 -165 -48 -149 -59 -132 -68 -111 -78 -88 -84 
-63 -90 -37 -94 -11 -95 17 -95 43 -93 68 -88 93 -84 116 -75 
136 -67 153 -57 168 -45 178 -33 187 -20 190 -7 190 7 186 20 
179 33 167 45 154 57 135 67 116 76 93 83 69 89 42 93 
17 94 -11 96 -37 93 -64 90 -88 84 -110 78 -132 69 -150 59 
-165 47 -176 36 -185 23 -190 9 -190 -3 -188 -18 -180 -30 -171 -43 
-156 -54 -140 -65 -120 -74 -98 -81 -74 -88 -48 -92 -22 -95 4 -95 
32 -94 58 -91 83 -86 106 -79 127 -71 146 -61 162 -50 175 -38 
183 -26 189 -12 191 1 188 14 182 27 173 41 160 51 144 63 
124 72 103 80 79 87 54 91 28 95 1 95 -26 94 -52 92 
-78 87 -101 81 -123 72 -143 64 -158 52 -172 41 -182 29 -188 15 
-191 2 -189 -12 -184 -24 -175 -38 -163 -49 -147 -61 -129 -70 -108 -79 
-84 -85 -60 -90 -33 -94 -7 -95 20 -95 47 -93 72 -88 97 -82 
118 -74 139 -66 155 -55 170 -43 180 -32 187 -18 190 -5 190 9 
185 22 177 35 166 47 151 58 133 68 113 77 89 84 65 90 
39 93 13 95 -15 95 -41 93 -67 89 -91 84 -114 76 -134 68 
-152 57 -167 46 -178 34 -186 21 -190 8 -190 -6 -187 -19 -179 -32 
-169 -45 -154 -56 -137 -66 -117 -75 -95 -83 -70 -88 -45 -93 -18 -95 
8 -95 36 -93 61 -91 86 -84 110 -78 130 -70 149 -60 163 -48 
176 -37 185 -24 189 -10 191 3 187 16 182 29 171 42 157 54 
141 64 122 73 100 81 75 88 51 92 24 94 -3 95 -30 94 
-56 92 -81 86 -104 79 -126 72 -145 62 -161 51 -174 39 -183 27 
-188 13 -191 0 -189 -13 -182 -27 -174 -39 -161 -51 -145 -62 -126 -72 
-104 -79 -81 -87 -56 -91 -30 -94 -3 -95 24 -95 51 -91 75 -88 
100 -81 122 -73 141 -64 4410 3031 300 MP stroke
157 -54 172 -42 181 -29 188 -16 190 -3 189 10 185 24 176 37 
164 48 148 60 130 70 110 78 86 85 61 90 36 93 8 96 
-18 94 -45 93 -70 88 -95 83 -117 75 -137 66 -154 56 -169 45 
-179 32 -187 19 -190 6 -190 -8 -186 -21 -178 -34 -167 -46 -152 -57 
-134 -68 -114 -76 -92 -84 -66 -89 -41 -93 -15 -95 13 -95 39 -93 
65 -90 90 -84 112 -77 133 -68 151 -58 166 -47 177 -35 186 -22 
189 -9 191 5 187 18 180 32 169 43 156 55 138 66 119 74 
96 82 72 89 47 92 20 95 -7 95 -33 94 -60 90 -84 86 
-108 78 -129 70 -147 61 -163 49 -175 38 -184 24 -189 12 -191 -2 
-188 -15 -182 -29 -172 -41 -159 -53 -142 -63 -123 -73 -101 -80 -78 -87 
-52 -92 -26 -94 1 -96 28 -94 54 -91 79 -87 103 -80 125 -72 
143 -63 160 -52 173 -40 182 -27 189 -14 190 -1 189 12 184 26 
174 38 162 50 146 61 127 71 106 79 83 86 58 91 32 94 
4 95 -22 95 -48 92 -74 88 -98 81 -120 74 -140 65 -157 54 
-170 43 -181 30 -187 18 -190 3 -190 -9 -185 -23 -177 -36 -164 -48 
-150 -58 -132 -69 -111 -78 -88 -84 -63 -90 -37 -94 -11 -95 17 -95 
43 -92 68 -89 93 -83 116 -76 136 -67 153 -57 167 -45 179 -33 
186 -20 190 -7 191 7 186 20 179 33 167 45 153 57 136 67 
116 76 93 83 68 89 43 92 17 95 -11 95 -37 94 -63 90 
-88 84 -111 78 -132 69 -150 58 -164 48 -177 36 -185 23 -190 9 
-190 -3 -187 -18 -181 -30 -170 -43 -157 -54 -140 -65 -120 -74 -98 -81 
-74 -88 -48 -92 -22 -95 4 -95 32 -94 58 -91 82 -86 107 -79 
127 -71 146 -61 162 -50 174 -38 184 -26 189 -12 190 1 189 14 
182 27 173 40 160 52 143 63 125 72 103 80 79 87 54 91 
28 94 1 96 -26 94 -52 92 -78 87 -101 80 -123 73 -142 63 
-159 53 -172 41 -182 29 -188 15 -190 2 -190 -12 -184 -24 -175 -38 
-163 -49 -147 -61 -129 -70 -108 -78 -84 -86 -60 -90 -33 -94 -7 -95 
20 -95 47 -92 72 -89 96 -82 119 -74 138 -66 156 -55 169 -43 
180 -32 187 -18 191 -5 189 9 186 22 177 35 166 47 151 58 
133 68 112 77 90 84 65 90 39 93 13 95 -15 95 -41 93 
-66 89 -92 84 -114 76 -134 68 -152 57 -167 46 -178 34 -186 21 
-190 8 -190 -6 -187 -19 -179 -32 -169 -45 -154 -56 -137 -66 -117 -75 
-95 -82 -70 -89 -45 -93 -18 -94 8 -96 36 -93 61 -90 86 -85 
110 -78 130 -70 148 -60 164 -48 176 -37 184 -24 190 -10 190 3 
188 16 181 29 171 42 158 54 141 64 122 73 100 81 75 88 
51 91 24 95 -3 95 -30 94 -56 91 -81 87 -104 79 -126 72 
-145 62 -161 51 -173 39 -183 27 -189 13 -191 0 -188 -13 -183 -27 
-174 -39 -161 -51 -145 -62 4523 2021 300 MP stroke
-126 -72 -104 -79 -81 -86 -56 -91 -30 -95 -3 -95 24 -94 51 -92 
75 -88 100 -81 121 -73 141 -64 158 -54 171 -42 182 -29 187 -16 
191 -3 189 10 185 24 176 37 163 48 149 60 130 70 110 78 
86 84 61 91 36 93 8 95 -18 95 -45 93 -70 88 -95 83 
-117 75 -137 66 -154 56 -169 45 -179 32 -187 19 -190 6 -190 -8 
-186 -21 -178 -34 -166 -46 -153 -57 -134 -68 -114 -76 -91 -84 -67 -89 
-41 -93 -15 -95 13 -95 39 -93 65 -90 89 -84 113 -77 133 -68 
151 -58 165 -47 178 -35 185 -22 190 -9 190 5 187 18 180 32 
170 43 155 55 139 66 118 74 97 82 72 88 47 93 20 95 
-7 95 -33 94 -60 90 -84 85 -108 79 -129 70 -147 61 -163 49 
-175 38 -184 24 -189 12 -191 -2 -188 -15 -182 -29 -172 -41 -158 -52 
-143 -64 -123 -72 -101 -81 -78 -87 -52 -92 -26 -94 1 -95 28 -95 
54 -91 79 -87 103 -80 124 -72 144 -63 160 -51 173 -41 182 -27 
188 -14 191 -1 189 12 183 26 175 38 162 50 146 61 127 71 
106 79 83 86 58 91 32 94 4 95 -22 95 -48 92 -74 88 
-98 81 -120 74 -140 65 -156 54 -171 43 -180 30 -188 18 -190 3 
-190 -9 -185 -23 -176 -36 -165 -47 -150 -59 -132 -69 -110 -78 -88 -84 
-64 -90 -37 -93 -11 -96 17 -94 42 -93 69 -89 93 -83 116 -76 
135 -67 153 -57 168 -45 179 -33 186 -20 190 -7 190 7 186 20 
179 33 168 45 153 57 136 67 116 75 93 84 68 88 43 93 
17 95 -11 95 -37 94 -63 90 -88 84 -111 78 -132 68 -149 59 
-165 48 -177 36 -185 23 -189 9 -191 -3 -187 -18 -181 -30 -170 -43 
-157 -54 -139 -65 -121 -73 -98 -82 -74 -88 -48 -92 -22 -95 4 -95 
32 -94 58 -91 82 -85 106 -80 128 -70 146 -62 162 -50 174 -38 
184 -26 188 -12 191 0 188 15 183 27 173 40 159 52 144 63 
125 72 103 80 79 87 54 91 28 94 1 96 -26 94 -52 92 
-78 87 -101 80 -123 73 -142 63 -159 53 -172 41 -182 29 -188 15 
-190 2 -189 -12 -184 -24 -175 -38 -163 -49 -148 -61 -129 -70 -107 -78 
-85 -86 -60 -90 -33 -94 -7 -95 20 -95 47 -92 72 -88 96 -83 
119 -74 138 -66 156 -55 169 -43 180 -32 187 -18 190 -5 190 9 
185 22 178 35 166 47 151 58 133 68 112 77 90 84 65 89 
39 94 13 95 -15 95 -40 93 -67 89 -92 84 -114 76 -134 67 
-152 58 -167 46 -178 34 -185 21 -190 8 -191 -6 -186 -19 -180 -32 
-168 -45 -155 -55 -137 -67 -117 -75 -95 -82 -70 -89 -45 -92 -18 -95 
8 -95 35 -94 62 -90 86 -85 109 -78 130 -70 149 -59 164 -49 
176 -37 184 -24 190 -10 190 3 188 16 181 29 171 42 158 54 
141 64 122 73 99 81 76 87 51 92 24 95 -3 95 -30 94 
-56 91 -81 86 -104 80 2504 2093 300 MP stroke
-126 72 -145 62 -161 51 -173 39 -183 27 -189 13 -190 0 -189 -13 
-183 -27 -174 -39 -160 -51 -145 -62 -126 -71 -105 -80 -81 -86 -56 -91 
-30 -94 -3 -96 24 -94 50 -92 76 -87 100 -82 121 -73 141 -64 
158 -54 171 -42 181 -29 188 -16 190 -3 190 10 184 24 176 37 
164 48 149 60 130 69 109 78 87 85 61 90 36 94 8 95 
-18 95 -44 93 -71 88 -94 83 -117 75 -137 66 -155 56 -168 45 
-180 32 -186 19 -191 6 -189 -8 -186 -21 -178 -34 -167 -46 -152 -57 
-135 -68 -114 -76 -91 -84 -67 -89 -41 -93 -15 -95 13 -95 39 -93 
65 -90 89 -84 113 -77 133 -68 150 -58 166 -47 178 -35 185 -22 
190 -9 190 5 187 18 180 31 170 44 155 55 139 65 118 75 
97 82 72 88 47 93 20 94 -7 96 -33 93 -60 91 -84 85 
-108 79 -128 70 -148 61 -163 49 -175 37 -184 25 -189 12 -190 -2 
-188 -15 -182 -29 -172 -41 -159 -52 -142 -64 -124 -72 -101 -81 -78 -87 
-52 -92 -26 -94 1 -95 28 -94 54 -92 79 -86 103 -81 124 -72 
144 -62 159 -52 173 -40 183 -28 188 -14 191 -1 188 12 184 26 
174 38 162 50 146 61 128 71 106 79 83 86 58 91 32 94 
5 95 -22 94 -49 93 -74 87 -98 82 -120 74 -139 65 -157 54 
-170 43 -181 30 -187 17 -191 4 -189 -9 -185 -23 -177 -36 -165 -47 
-150 -59 -131 -69 -111 -78 -88 -84 -64 -90 -37 -93 -11 -95 17 -95 
42 -93 69 -89 93 -83 115 -76 136 -67 153 -56 168 -46 178 -33 
187 -20 190 -7 190 7 186 20 179 33 168 45 153 57 136 67 
115 75 93 83 69 89 43 93 17 95 -11 95 -37 93 -63 90 
-88 85 -111 77 -131 69 -150 59 -165 48 -176 36 -185 23 -190 9 
-190 -3 -188 -18 -180 -30 -171 -42 -156 -55 -140 -64 -120 -74 -98 -82 
-75 -88 -48 -92 -22 -94 4 -96 32 -94 57 -90 83 -86 106 -79 
128 -71 146 -62 161 -50 175 -38 183 -26 189 -12 191 0 188 15 
182 27 173 40 160 52 144 63 124 72 103 80 80 87 54 91 
28 94 1 95 -26 95 -52 91 -77 87 -102 81 -123 73 -142 63 
-158 53 -172 41 -182 28 -188 16 -191 2 -189 -12 -184 -24 -175 -38 
-163 -49 -148 -60 -128 -71 -108 -78 -85 -85 -60 -91 -33 -94 -7 -95 
20 -95 47 -92 72 -88 96 -82 118 -75 139 -66 155 -55 170 -43 
180 -31 187 -19 190 -5 190 9 185 22 178 35 165 47 151 58 
133 68 113 77 90 84 65 89 39 93 13 95 -14 95 -41 94 
-67 89 -91 83 -114 77 -135 67 -152 58 -166 46 -178 34 -186 21 
-190 8 -190 -6 -187 -19 -179 -32 -169 -45 -154 -55 -138 -66 -117 -76 
-95 -82 -70 -89 -45 -92 -18 -95 8 -95 35 -94 62 -90 86 -85 
109 -78 130 -70 149 -59 163 -49 176 -37 185 -23 189 -11 191 3 
187 16 182 29 171 42 2901 3085 300 MP stroke
158 53 141 64 121 74 100 81 76 87 51 92 24 95 -3 95 
-30 94 -55 91 -81 86 -105 80 -126 72 -144 61 -161 52 -174 39 
-183 26 -188 14 -191 0 -189 -13 -183 -27 -173 -39 -161 -51 -145 -62 
-126 -71 -105 -80 -81 -86 -56 -91 -30 -94 -3 -95 24 -95 50 -92 
76 -87 100 -82 121 -73 141 -64 158 -54 171 -41 181 -30 188 -16 
190 -3 189 10 185 24 176 37 164 48 148 60 131 69 109 78 
87 85 61 90 36 94 8 95 -18 95 -44 92 -71 89 -94 83 
-117 75 -137 66 -155 56 -168 44 -179 33 -187 19 -190 6 -190 -8 
-186 -21 -178 -34 -167 -46 -152 -57 -135 -68 -114 -76 -91 -83 -67 -90 
-41 -93 -15 -95 13 -95 39 -93 64 -89 90 -85 112 -77 133 -68 
151 -58 166 -47 177 -35 186 -22 189 -9 191 5 187 18 180 31 
169 44 156 55 138 65 119 75 97 82 72 88 47 92 20 95 
-7 95 -33 94 -59 91 -85 85 -107 79 -129 70 -147 60 -163 50 
-175 37 -184 25 -189 12 -191 -2 -188 -15 -182 -29 -172 -41 -159 -52 
-142 -63 -123 -73 -102 -81 -77 -87 -53 -91 -26 -95 1 -95 28 -94 
54 -92 79 -86 103 -81 124 -72 143 -62 160 -52 173 -40 182 -28 
189 -14 190 -1 189 12 184 26 174 38 162 50 146 61 128 71 
106 79 83 86 58 90 32 94 5 96 -22 94 -49 92 -74 88 
-98 82 -120 74 -139 65 -157 54 -170 43 -181 30 -187 17 -190 4 
-190 -9 -185 -23 -177 -36 -165 -47 -149 -59 -132 -69 -111 -77 -88 -85 
-64 -90 -37 -93 -11 -95 16 -95 43 -93 69 -89 93 -83 115 -76 
136 -67 153 -56 167 -46 179 -33 186 -20 190 -7 191 7 186 20 
179 33 167 45 154 57 135 66 116 76 93 83 69 89 43 93 
17 95 -11 95 -37 93 -63 90 -88 85 -111 77 -131 69 -150 59 
-165 48 -176 36 -185 23 -190 9 -190 -3 -187 -18 -181 -30 -170 -42 
-157 -55 -140 -64 -120 -74 -98 -82 -75 -88 -48 -92 -22 -94 4 -96 
32 -94 57 -90 83 -86 106 -79 127 -71 146 -61 162 -51 174 -38 
184 -26 189 -12 190 0 189 15 182 27 173 40 160 52 144 63 
124 72 103 80 80 86 54 92 28 94 1 95 -26 95 -52 91 
-77 87 -101 81 -123 73 -143 63 -158 53 -172 41 -182 28 -188 16 
-190 2 -190 -12 -184 -24 -175 -38 -163 -49 -147 -60 -129 -70 -108 -79 
-85 -85 -60 -91 -33 -94 -7 -95 20 -95 46 -92 73 -88 96 -82 
118 -75 139 -65 155 -56 169 -43 180 -31 187 -19 191 -5 189 9 
186 22 177 35 166 46 151 59 133 68 113 77 90 84 65 89 
39 93 13 95 -14 95 -41 93 -67 90 -91 83 -114 77 -134 67 
-152 58 -167 46 -178 34 -186 21 -190 8 -190 -6 -187 -19 -179 -32 
-169 -44 -154 -56 -137 -66 -118 -75 -94 -83 -71 -88 -45 -93 -18 -95 
8 -95 35 -94 62 -90 4819 2763 300 MP stroke
86 -85 109 -78 130 -70 148 -59 164 -49 176 -37 184 -23 190 -11 
190 3 188 16 181 29 172 42 157 53 142 64 121 74 100 81 
76 87 51 92 24 94 -3 96 -30 94 -55 91 -81 86 -105 80 
-125 71 -145 62 -161 51 -174 40 -182 26 -189 14 -191 0 -188 -13 
-183 -27 -174 -39 -161 -51 -145 -62 -126 -71 -105 -80 -81 -86 -56 -91 
-30 -94 -3 -95 24 -95 50 -92 76 -87 99 -81 122 -74 141 -64 
157 -53 171 -42 182 -30 187 -16 191 -3 189 10 185 24 176 37 
164 48 148 60 131 69 109 78 86 85 62 90 36 94 8 95 
-18 95 -44 92 -71 89 -94 83 -117 75 -137 66 -154 56 -169 44 
-179 33 -187 19 -190 6 -190 -8 -186 -21 -178 -34 -167 -46 -152 -57 
-134 -67 -114 -77 -92 -83 -67 -89 -41 -93 -15 -95 12 -96 39 -93 
65 -89 90 -84 112 -77 133 -69 151 -58 166 -47 177 -35 185 -22 
190 -9 190 5 187 18 180 31 170 44 156 55 138 65 119 75 
96 82 73 88 47 92 20 95 -7 95 -33 94 -59 91 -85 85 
-107 79 -129 70 -147 60 -163 50 -175 37 -184 25 -189 12 -191 -2 
-188 -15 -182 -29 -172 -40 -159 -53 -142 -63 -123 -73 -102 -81 -77 -87 
-53 -91 -26 -95 1 -95 28 -94 53 -91 80 -87 102 -80 125 -73 
143 -62 160 -52 173 -40 182 -28 188 -14 191 -1 189 12 183 25 
175 39 162 50 146 61 127 71 107 79 83 86 58 90 32 94 
5 95 -22 95 -49 92 -74 88 -97 82 -120 74 -140 65 -156 54 
-171 43 -180 30 -188 17 -190 4 -190 -9 -185 -23 -176 -35 -165 -48 
-150 -59 -132 -69 -111 -77 -88 -85 -63 -90 -38 -93 -11 -95 16 -95 
43 -93 69 -89 92 -83 116 -76 135 -67 154 -56 167 -46 179 -33 
186 -20 190 -7 190 7 186 20 179 33 168 45 153 56 136 67 
116 76 93 83 69 89 43 93 17 95 -11 95 -37 93 -63 90 
-88 85 -110 77 -132 69 -149 59 -165 48 -177 36 -185 23 -189 9 
-191 -3 -187 -18 -181 -30 -170 -42 -157 -54 -140 -65 -120 -74 -98 -82 
-74 -87 -49 -93 -22 -94 4 -95 32 -94 57 -91 83 -86 106 -79 
127 -71 146 -61 162 -51 174 -38 184 -26 188 -12 191 0 188 15 
183 27 173 40 160 52 143 62 125 73 103 80 80 86 54 92 
28 94 1 95 -26 94 -52 92 -77 87 -101 81 -123 73 -142 63 
-159 53 -172 41 -182 28 -188 16 -190 2 -189 -12 -184 -24 -176 -38 
-163 -49 -147 -60 -129 -70 -108 -79 -85 -85 -59 -91 -34 -93 -7 -96 
20 -94 46 -93 72 -88 97 -82 118 -75 138 -65 156 -55 169 -44 
180 -31 187 -19 190 -5 190 9 185 22 178 34 166 47 151 58 
133 69 113 76 89 84 66 90 39 93 13 95 -14 95 -41 93 
-67 89 -91 84 -114 76 -134 68 -152 58 -167 46 -178 34 -185 21 
-190 8 -191 -6 -186 -19 3938 1852 300 MP stroke
-180 -32 -168 -44 -155 -56 -137 -66 -117 -75 -95 -83 -71 -88 -45 -93 
-18 -95 8 -95 35 -94 61 -90 87 -85 109 -78 130 -69 148 -60 
164 -49 176 -37 184 -23 189 -11 191 3 188 16 181 29 171 42 
158 53 141 64 122 73 100 82 76 87 50 92 25 94 -3 96 
-29 94 -56 91 -81 86 -104 80 -126 71 -145 62 -161 51 -173 40 
-183 26 -189 14 -190 0 -189 -13 -183 -27 -174 -39 -161 -51 -145 -62 
-126 -71 -104 -80 -82 -86 -56 -91 -30 -94 -3 -95 24 -95 50 -92 
76 -87 99 -81 122 -74 140 -64 158 -53 171 -42 181 -30 188 -16 
190 -3 190 10 184 24 176 36 164 49 149 60 130 69 110 78 
86 85 62 90 36 94 8 95 -18 95 -44 92 -70 89 -95 82 
-117 76 -137 66 -154 56 -168 44 -180 33 -186 19 -191 6 -189 -8 
-186 -21 -178 -34 -167 -46 -153 -57 -134 -67 -114 -77 -92 -83 -67 -89 
-41 -93 -15 -95 12 -95 39 -94 65 -89 90 -84 112 -77 133 -69 
151 -58 165 -47 178 -35 185 -22 190 -9 190 5 187 18 180 31 
170 44 155 55 139 65 119 75 96 82 73 88 47 92 20 95 
-7 95 -33 94 -59 90 -85 86 -107 78 -129 71 -147 60 -163 50 
-175 37 -184 25 -189 12 -190 -2 -188 -15 -182 -29 -172 -40 -159 -53 
-143 -63 -123 -73 -101 -81 -78 -86 -53 -92 -26 -94 1 -96 27 -94 
54 -91 79 -87 103 -80 124 -72 144 -63 160 -52 172 -40 183 -28 
188 -14 190 -2 189 13 184 25 174 39 162 50 147 61 127 71 
107 79 83 85 58 91 31 94 6 95 -22 95 -49 92 -73 88 
-98 82 -120 74 -140 65 -156 54 -170 43 -181 30 -187 17 -191 4 
-189 -9 -185 -23 -177 -35 -165 -48 -150 -59 -132 -69 -111 -77 -88 -85 
-63 -89 -38 -94 -11 -95 16 -95 43 -93 68 -89 93 -83 116 -76 
135 -66 153 -57 168 -46 179 -33 186 -20 190 -7 190 7 186 20 
179 33 168 45 153 56 136 67 116 76 93 83 69 89 43 93 
17 94 -11 96 -37 93 -63 90 -87 84 -111 78 -132 69 -149 59 
-165 48 -176 36 -185 23 -190 9 -190 -3 -188 -17 -180 -31 -171 -42 
-157 -54 -140 -65 -120 -74 -98 -82 -74 -87 -49 -92 -22 -95 4 -95 
32 -94 57 -91 83 -86 106 -79 127 -71 146 -61 161 -51 175 -38 
183 -26 189 -12 191 0 188 15 182 27 173 40 160 52 144 62 
125 72 103 80 79 87 55 91 28 95 1 95 -26 94 -52 92 
-77 87 -101 81 -123 73 -142 63 -159 53 -172 41 -181 28 -188 16 
-191 2 -189 -12 -184 -24 -175 -37 -163 -50 -148 -60 -129 -70 -108 -79 
-84 -85 -60 -90 -34 -94 -7 -95 20 -95 46 -93 72 -88 96 -82 
119 -75 138 -65 155 -55 170 -44 180 -31 187 -19 190 -5 190 9 
185 22 178 34 166 47 151 58 133 68 112 77 90 84 66 90 
39 93 13 95 -14 95 2242 2404 300 MP stroke
-41 93 -67 89 -91 84 -114 76 -134 68 -152 57 -166 47 -178 34 
-186 21 -190 8 -190 -6 -187 -19 -179 -32 -169 -44 -155 -56 -137 -66 
-117 -75 -95 -83 -71 -88 -45 -93 -18 -95 8 -95 35 -93 61 -91 
86 -85 109 -78 130 -69 149 -60 164 -49 175 -36 185 -24 189 -11 
191 3 187 16 182 29 171 42 158 53 141 64 122 73 100 81 
76 88 50 92 25 94 -3 95 -29 94 -56 92 -81 86 -104 80 
-126 71 -145 62 -160 51 -174 40 -183 26 -188 14 -191 0 -189 -13 
-183 -27 -173 -39 -161 -51 -145 -62 -126 -71 -105 -79 -82 -87 -56 -91 
-30 -94 -3 -95 24 -95 50 -91 76 -88 99 -81 121 -74 141 -64 
158 -53 171 -42 181 -30 188 -16 190 -3 189 10 185 24 176 36 
164 49 149 59 130 70 110 78 86 85 62 90 36 93 8 96 
-18 94 -44 93 -70 89 -95 82 -117 76 -136 66 -155 56 -168 44 
-179 32 -187 20 -190 6 -190 -8 -186 -21 -178 -34 -167 -45 -152 -58 
-135 -67 -114 -76 -92 -84 -67 -89 -41 -93 -15 -95 12 -95 39 -93 
65 -90 89 -84 113 -77 133 -68 150 -59 166 -47 177 -35 186 -22 
189 -9 191 5 187 18 180 31 169 44 156 55 139 65 118 74 
97 83 73 88 46 92 21 95 -7 95 -33 94 -59 90 -84 86 
-108 78 -128 71 -148 60 -162 50 -175 37 -184 25 -189 12 -191 -2 
-188 -15 -182 -28 -172 -41 -159 -53 -143 -63 -123 -73 -101 -80 -78 -87 
-53 -92 -26 -94 1 -96 27 -94 54 -91 79 -87 103 -80 124 -72 
144 -63 159 -52 173 -40 182 -28 189 -14 190 -2 189 13 184 25 
174 39 162 50 146 61 128 70 106 79 84 86 58 91 31 94 
6 95 -22 95 -48 92 -74 88 -98 82 -120 74 -139 64 -157 55 
-170 43 -181 30 -187 17 -190 4 -190 -9 -185 -23 -177 -35 -165 -48 
-150 -59 -131 -69 -112 -77 -88 -84 -63 -90 -38 -94 -11 -95 16 -95 
43 -92 68 -89 93 -84 115 -75 136 -67 153 -57 168 -45 178 -34 
186 -20 190 -7 190 7 187 20 179 33 167 45 154 56 136 67 
116 76 93 83 69 89 43 92 17 95 -11 95 -37 94 -63 90 
-87 84 -111 78 -131 69 -150 59 -165 48 -176 36 -185 23 -190 9 
-190 -3 -187 -17 -181 -31 -171 -42 -156 -54 -140 -65 -121 -74 -98 -81 
-74 -88 -49 -92 -22 -95 4 -95 31 -94 58 -91 82 -86 106 -79 
128 -71 145 -61 162 -50 174 -39 184 -26 189 -12 190 0 189 15 
182 27 173 40 160 52 144 62 125 72 103 80 79 87 55 91 
28 94 1 96 -26 94 -51 92 -78 87 -101 81 -123 72 -142 64 
-158 53 -172 41 -182 28 -188 16 -190 2 -190 -11 -184 -25 -175 -37 
-163 -50 -148 -60 -129 -70 -108 -79 -84 -85 -60 -90 -34 -94 -7 -95 
20 -95 46 -92 72 -89 96 -82 119 -75 138 -65 155 -55 169 -44 
180 -31 187 -19 191 -5 3551 3176 300 MP stroke
189 9 186 22 177 34 166 47 151 58 134 68 112 77 90 84 
66 90 39 93 13 95 -14 95 -41 93 -67 89 -91 84 -113 76 
-135 68 -151 57 -167 47 -178 34 -186 21 -190 8 -190 -6 -187 -19 
-179 -32 -169 -44 -154 -56 -138 -66 -117 -75 -95 -83 -71 -88 -45 -93 
-18 -94 8 -96 35 -93 61 -90 86 -85 109 -79 130 -69 149 -60 
163 -49 176 -36 184 -24 190 -11 190 3 188 16 181 29 172 42 
158 53 141 64 122 73 100 81 76 88 50 91 25 95 -3 95 
-29 94 -56 91 -81 87 -104 79 -126 72 -144 62 -161 51 -174 40 
-182 26 -189 14 -191 0 -188 -13 -183 -27 -174 -39 -161 -51 -145 -61 
-126 -72 -105 -79 -81 -86 -57 -91 -30 -95 -3 -95 24 -94 50 -92 
75 -88 100 -81 121 -73 141 -65 157 -53 171 -42 182 -30 187 -16 
191 -3 189 10 185 24 176 36 164 49 148 59 131 70 110 78 
86 85 62 90 36 93 8 95 -17 95 -45 93 -70 88 -95 83 
-116 75 -137 67 -154 56 -169 44 -179 32 -187 20 -190 6 -190 -8 
-186 -21 -178 -33 -167 -46 -152 -58 -135 -67 -114 -76 -92 -84 -67 -89 
-41 -93 -15 -95 12 -95 39 -93 65 -90 89 -84 113 -77 132 -68 
151 -59 166 -47 177 -35 185 -22 190 -9 190 5 187 18 180 31 
170 44 156 54 138 66 119 74 97 82 72 88 47 93 21 94 
-6 96 -34 94 -59 90 -84 86 -108 78 -128 70 -147 61 -163 50 
-175 37 -184 25 -189 12 -191 -2 -188 -15 -182 -28 -172 -41 -159 -53 
-142 -63 -124 -73 -101 -80 -78 -87 -53 -92 -26 -94 1 -95 27 -95 
54 -91 79 -87 103 -80 124 -72 143 -63 160 -52 173 -40 182 -28 
188 -14 191 -2 189 13 183 25 175 38 162 51 146 61 128 70 
106 79 83 86 58 91 32 94 6 95 -22 95 -48 92 -74 88 
-98 81 -120 74 -139 65 -157 55 -170 43 -180 30 -188 17 -190 4 
-190 -9 -185 -23 -176 -35 -165 -48 -150 -59 -132 -68 -111 -78 -89 -84 
-63 -90 -38 -93 -11 -96 16 -94 43 -93 68 -89 93 -83 115 -76 
136 -67 153 -57 167 -45 179 -34 186 -20 190 -7 190 7 186 20 
179 33 168 45 154 56 136 67 115 76 94 83 69 88 43 93 
17 95 -11 95 -37 94 -62 90 -88 84 -111 78 -131 69 -150 59 
-164 48 -177 36 -185 23 -189 9 -191 -3 -187 -17 -181 -30 -170 -43 
-157 -54 -140 -65 -120 -74 -99 -81 -74 -88 -49 -92 -22 -95 4 -95 
31 -94 58 -91 82 -86 106 -79 127 -71 146 -61 162 -50 174 -39 
184 -26 188 -12 191 0 188 15 183 27 173 40 160 52 144 62 
124 72 104 80 79 87 55 91 28 94 1 95 -25 95 -52 92 
-78 87 -101 80 -122 73 -142 64 -159 53 -172 41 -182 28 -188 16 
-190 2 -189 -11 -184 -25 -176 -37 -163 -50 -147 -60 -129 -70 -108 -78 
-85 -86 -60 -90 -34 -94 4917 2429 300 MP stroke
-7 -95 20 -95 46 -92 72 -88 96 -83 118 -74 138 -66 156 -55 
169 -44 180 -31 187 -19 190 -5 190 9 185 22 178 34 166 47 
151 58 133 68 113 77 90 84 65 89 40 94 13 95 -14 95 
-41 93 -66 89 -91 84 -114 76 -134 68 -152 57 -167 47 -178 34 
-185 21 -190 8 -191 -6 -186 -19 -180 -32 -169 -44 -154 -56 -137 -66 
-118 -75 -95 -82 -71 -89 -45 -92 -18 -95 8 -95 35 -94 61 -90 
86 -85 109 -78 130 -70 148 -60 164 -49 176 -36 184 -24 189 -11 
191 3 188 16 181 29 171 42 158 53 142 64 121 73 100 81 
77 87 50 92 25 95 -3 95 -29 94 -56 91 -81 87 -104 79 
-125 72 -145 62 -161 51 -173 40 -183 26 -189 14 -190 0 -189 -13 
-183 -27 -174 -39 -161 -51 -145 -61 -126 -72 -105 -79 -81 -86 -57 -91 
-30 -94 -3 -96 24 -94 50 -92 75 -88 100 -81 121 -73 141 -65 
157 -53 171 -42 181 -30 188 -16 190 -3 190 10 184 24 176 36 
164 49 149 59 131 70 109 77 87 85 62 90 35 94 9 95 
-17 95 -45 93 -70 88 -94 83 -117 75 -137 67 -154 56 -168 44 
-180 32 -186 20 -190 6 -190 -8 -186 -21 -179 -33 -166 -46 -153 -58 
-134 -67 -115 -76 -91 -84 -68 -89 -41 -93 -15 -95 12 -95 39 -93 
65 -90 89 -84 112 -77 133 -68 151 -59 165 -47 178 -35 185 -22 
190 -9 190 5 187 18 180 31 170 43 155 55 139 66 119 74 
97 82 72 88 47 93 21 94 -6 96 -34 93 -59 91 -84 85 
-107 79 -129 70 -147 61 -163 49 -175 38 -184 25 -189 12 -190 -2 
-188 -15 -182 -28 -172 -41 -159 -53 -143 -63 -123 -72 -102 -81 -78 -87 
-53 -92 -26 -94 1 -95 27 -94 54 -92 79 -87 103 -80 124 -72 
143 -63 160 -52 172 -40 183 -28 188 -14 190 -2 189 13 184 25 
175 38 162 50 146 61 128 71 106 79 83 86 58 91 32 94 
6 95 -22 94 -48 93 -74 87 -98 82 -119 74 -140 65 -156 55 
-170 43 -181 30 -187 17 -191 4 -189 -9 -185 -23 -177 -35 -165 -48 
-150 -59 -132 -68 -111 -78 -89 -84 -63 -90 -38 -93 -11 -95 16 -95 
43 -93 68 -89 93 -83 115 -76 135 -67 153 -57 168 -45 179 -34 
186 -20 190 -7 190 7 186 20 179 33 168 45 153 56 136 67 
116 75 94 83 69 89 43 93 17 95 -11 95 -36 93 -63 90 
-88 85 -110 78 -132 69 -149 59 -165 48 -176 35 -185 24 -190 9 
-190 -3 -188 -17 -180 -30 -171 -43 -157 -54 -140 -65 -120 -74 -99 -81 
-74 -88 -49 -92 -22 -94 4 -96 31 -94 58 -91 82 -85 106 -80 
127 -71 146 -61 162 -50 174 -39 183 -26 189 -12 191 0 188 15 
182 27 173 40 160 52 144 62 125 72 103 80 80 87 55 91 
28 94 1 95 -25 95 -52 91 -77 87 -101 81 -123 73 -142 64 
-159 52 -172 42 -181 28 3263 1846 300 MP stroke
-188 16 -191 2 -189 -11 -184 -25 -175 -37 -163 -49 -148 -61 -129 -70 
-108 -78 -85 -86 -60 -90 -34 -94 -7 -95 20 -95 46 -92 72 -88 
96 -83 118 -74 138 -66 155 -55 170 -44 180 -31 187 -19 190 -5 
190 9 185 22 178 34 166 47 151 58 133 68 113 77 90 84 
65 89 40 93 13 95 -14 95 -41 94 -66 89 -91 84 -114 76 
-134 68 -152 57 -166 46 -178 35 -186 21 -190 8 -190 -6 -187 -19 
-179 -32 -169 -44 -155 -56 -137 -66 -118 -75 -95 -82 -71 -89 -45 -92 
-18 -95 8 -95 35 -94 61 -90 86 -85 109 -78 130 -70 148 -60 
164 -49 175 -36 185 -24 189 -11 191 3 187 16 182 29 171 41 
158 54 141 64 122 73 100 81 76 87 51 92 25 95 -3 95 
-29 94 -56 91 -80 86 -105 80 -125 72 -145 62 -160 51 -174 39 
-183 27 -188 14 -191 0 -189 -13 -183 -27 -173 -39 -161 -50 -146 -62 
-126 -71 -105 -80 -81 -86 -57 -91 -30 -94 -3 -95 24 -95 50 -92 
75 -87 99 -82 122 -73 140 -64 158 -54 171 -42 181 -30 188 -16 
190 -3 189 10 185 24 176 36 164 49 149 59 131 69 109 78 
87 85 62 90 35 94 10 95 -18 95 -45 93 -70 88 -94 83 
-117 75 -137 66 -154 56 -168 45 -179 32 -187 20 -190 6 -190 -8 
-186 -21 -178 -33 -167 -46 -153 -57 -134 -68 -115 -76 -91 -84 -68 -89 
-41 -93 -15 -95 12 -95 39 -93 65 -90 89 -84 112 -77 133 -68 
150 -58 166 -48 177 -35 186 -22 189 -9 191 5 187 18 180 31 
169 43 156 55 139 66 119 74 97 82 72 88 47 92 21 95 
-6 95 -33 94 -60 91 -84 85 -107 79 -129 70 -147 61 -162 49 
-175 38 -184 25 -189 12 -191 -2 -188 -15 -182 -28 -172 -41 -159 -53 
-143 -63 -123 -72 -102 -81 -78 -87 -52 -91 -27 -95 1 -95 27 -94 
54 -92 79 -86 102 -81 125 -72 143 -63 159 -52 173 -40 182 -28 
189 -14 190 -2 189 13 184 25 174 38 162 50 147 61 127 71 
107 79 83 86 58 90 32 94 6 96 -22 94 -48 92 -74 88 
-97 82 -120 74 -140 65 -156 55 -170 42 -181 31 -187 17 -190 4 
-190 -9 -185 -23 -177 -35 -165 -48 -150 -58 -132 -69 -111 -77 -88 -85 
-64 -90 -38 -93 -11 -95 16 -95 43 -93 68 -89 93 -83 115 -76 
135 -67 153 -57 168 -45 178 -33 186 -21 190 -7 190 7 187 20 
179 32 168 46 153 56 136 67 116 75 93 83 70 89 43 93 
17 95 -10 95 -37 93 -63 90 -88 85 -110 77 -132 69 -149 60 
-165 48 -176 35 -185 23 -190 10 -190 -3 -187 -17 -181 -30 -171 -43 
-157 -54 -140 -65 -120 -73 -98 -82 -75 -88 -49 -92 -22 -94 4 -96 
31 -94 58 -90 82 -86 106 -79 127 -71 146 -62 161 -50 174 -39 
184 -26 189 -12 190 0 189 15 182 27 173 40 160 51 144 63 
125 72 103 80 80 86 2315 2740 300 MP stroke
55 92 28 94 1 95 -25 95 -52 91 -77 87 -101 81 -123 73 
-142 64 -158 52 -172 42 -182 28 -188 16 -190 2 -190 -11 -184 -25 
-175 -37 -163 -49 -148 -61 -129 -70 -108 -78 -85 -85 -60 -91 -34 -94 
-7 -95 20 -94 46 -93 72 -88 96 -82 118 -75 138 -66 155 -55 
169 -44 180 -31 187 -19 191 -5 189 9 186 22 177 34 166 47 
152 58 133 68 113 77 90 84 65 89 40 93 13 95 -14 95 
-41 93 -66 90 -91 83 -114 77 -134 68 -152 57 -166 46 -178 34 
-186 22 -190 8 -190 -6 -187 -19 -179 -32 -169 -44 -155 -56 -137 -66 
-117 -75 -96 -82 -70 -89 -46 -92 -18 -95 8 -95 35 -94 61 -90 
86 -85 109 -78 129 -70 149 -60 163 -48 176 -37 184 -24 190 -11 
190 3 188 16 181 29 172 41 158 54 141 64 122 73 100 81 
76 87 51 92 25 94 -3 96 -29 94 -56 91 -80 86 -104 80 
-126 72 -145 62 -160 51 -174 39 -182 27 -189 14 -190 0 -189 -13 
-183 -26 -174 -39 -161 -51 -145 -62 -127 -71 -105 -80 -81 -86 -56 -91 
-31 -94 -3 -95 24 -95 50 -92 75 -87 99 -82 121 -73 141 -64 
157 -54 171 -42 182 -30 187 -16 191 -3 189 10 185 24 176 36 
164 48 149 60 130 69 110 78 87 85 62 90 35 94 10 95 
-18 95 -45 92 -70 89 -94 83 -117 75 -136 66 -154 56 -169 45 
-179 32 -187 20 -190 6 -190 -8 -186 -21 -178 -33 -167 -46 -152 -57 
-135 -68 -114 -76 -92 -83 -67 -89 -42 -93 -15 -95 12 -96 39 -93 
65 -89 89 -85 112 -77 133 -68 150 -58 166 -47 177 -35 185 -23 
190 -9 190 5 187 18 181 31 169 43 156 55 139 65 119 75 
96 82 73 88 47 92 21 95 -6 95 -33 94 -60 91 -84 85 
-107 79 -128 70 -147 61 -163 49 -175 38 -184 25 -189 12 -191 -2 
-188 -15 -182 -28 -172 -41 -159 -52 -143 -64 -123 -72 -102 -81 -78 -87 
-52 -91 -27 -95 1 -95 27 -94 54 -92 79 -86 102 -81 124 -72 
144 -63 159 -52 173 -40 182 -28 188 -14 191 -2 189 13 183 25 
175 38 162 50 146 61 128 71 107 79 83 86 58 90 32 94 
6 95 -22 95 -48 92 -74 88 -97 82 -120 74 -139 65 -157 54 
-170 43 -180 31 -188 17 -190 4 -190 -9 -185 -23 -176 -35 -166 -48 
-150 -58 -132 -69 -111 -77 -88 -85 -64 -90 -38 -93 -11 -95 16 -95 
43 -93 68 -89 92 -83 116 -76 135 -67 153 -57 167 -45 179 -33 
186 -21 190 -7 190 7 186 20 179 32 168 45 154 57 136 67 
116 75 93 83 69 89 44 93 17 95 -10 95 -37 93 -63 90 
-88 85 -110 77 -131 69 -150 59 -164 48 -177 36 -185 23 -189 10 
-191 -3 -187 -17 -181 -30 -170 -43 -157 -54 -140 -64 -121 -74 -98 -82 
-75 -87 -49 -93 -22 -94 4 -95 31 -94 57 -91 83 -86 106 -79 
127 -71 145 -62 162 -50 4208 3097 300 MP stroke
174 -39 184 -26 188 -12 191 0 188 15 183 27 173 40 160 51 
144 63 125 72 103 80 80 86 54 92 29 94 1 95 -25 94 
-52 92 -77 87 -101 81 -123 73 -142 63 -158 53 -172 41 -182 29 
-188 16 -190 2 -189 -11 -184 -25 -176 -37 -163 -49 -148 -61 -129 -70 
-108 -78 -85 -85 -60 -91 -34 -93 -7 -96 20 -94 46 -93 71 -88 
96 -82 119 -75 138 -66 155 -55 169 -44 180 -31 187 -19 190 -5 
190 9 185 22 178 34 166 47 151 58 134 68 113 77 90 83 
65 90 40 93 13 95 -14 95 -41 93 -66 90 -91 83 -114 77 
-134 67 -151 58 -167 46 -178 34 -185 22 -190 8 -191 -6 -186 -19 
-180 -32 -169 -44 -154 -55 -138 -66 -117 -75 -95 -83 -71 -88 -46 -93 
-18 -95 8 -95 35 -94 61 -90 85 -85 109 -78 130 -70 148 -60 
164 -48 176 -37 184 -24 189 -11 191 3 188 16 181 29 172 41 
157 54 142 63 122 74 100 81 76 87 51 92 25 94 -3 96 
-29 94 -55 91 -81 86 -104 80 -126 72 -144 62 -161 51 -173 39 
-183 27 -189 14 -190 0 -189 -13 -183 -26 -174 -39 -161 -51 -145 -62 
-126 -71 -105 -80 -82 -86 -56 -91 -31 -94 -3 -95 23 -95 50 -92 
76 -87 99 -81 121 -74 141 -64 157 -54 171 -42 181 -30 188 -16 
190 -3 190 10 184 24 176 36 165 48 148 60 131 69 110 78 
87 85 61 90 36 94 10 95 -18 95 -45 92 -70 89 -94 83 
-116 75 -137 66 -154 56 -169 45 -179 32 -186 20 -190 6 -190 -8 
-186 -21 -179 -33 -167 -46 -152 -57 -135 -68 -114 -76 -92 -83 -67 -89 
-42 -93 -15 -95 12 -95 39 -94 64 -89 90 -84 112 -77 132 -69 
151 -58 165 -47 178 -35 185 -23 190 -9 190 5 187 18 180 31 
170 43 156 55 138 65 119 75 97 82 73 88 47 92 21 95 
-6 95 -33 94 -59 90 -84 86 -108 79 -128 70 -147 61 -163 49 
-175 38 -184 25 -189 12 -190 -2 -188 -15 -182 -28 -173 -41 -159 -52 
-142 -64 -124 -72 -102 -81 -78 -87 -52 -91 -27 -94 1 -96 27 -94 
54 -91 78 -87 103 -80 124 -73 143 -63 160 -52 172 -40 183 -28 
188 -14 190 -2 189 13 184 25 175 38 162 50 146 61 128 71 
107 79 83 85 58 91 32 94 6 95 -22 95 -48 92 -73 88 
-98 82 -120 74 -139 65 -156 54 -170 43 -181 31 -187 17 -191 4 
-189 -9 -185 -23 -177 -35 -165 -47 -150 -59 -132 -69 -112 -77 -88 -85 
-64 -89 -38 -94 -11 -95 16 -95 42 -93 69 -89 92 -83 115 -76 
136 -67 153 -57 167 -45 179 -33 186 -21 190 -7 190 7 186 20 
179 32 168 45 154 57 136 66 116 76 93 83 69 89 44 92 
17 95 -10 96 -37 93 -63 90 -87 85 -111 77 -131 69 -149 59 
-165 48 -177 36 -184 23 -190 10 -190 -3 -188 -17 -181 -30 -170 -43 
-157 -54 -140 -64 -121 -74 4679 2113 300 MP stroke
-98 -82 -75 -87 -49 -92 -22 -95 4 -95 31 -94 57 -91 83 -86 
105 -79 127 -71 146 -62 162 -50 174 -39 183 -26 189 -12 191 0 
188 14 183 28 173 40 160 51 144 63 125 72 103 80 80 86 
54 91 29 95 1 95 -25 94 -52 92 -77 87 -101 81 -122 73 
-142 63 -159 53 -172 41 -181 29 -188 16 -191 2 -189 -11 -184 -25 
-175 -37 -164 -49 -147 -60 -129 -70 -109 -79 -85 -85 -60 -90 -34 -94 
-7 -95 19 -95 47 -93 71 -88 96 -82 118 -75 138 -66 156 -55 
169 -44 180 -31 187 -19 190 -5 190 9 185 21 178 35 166 47 
151 58 133 68 113 76 91 84 65 90 40 93 13 95 -14 95 
-41 93 -66 89 -91 84 -113 77 -134 67 -152 58 -167 46 -177 34 
-186 22 -190 8 -190 -6 -187 -19 -180 -32 -168 -44 -155 -55 -138 -66 
-117 -75 -95 -83 -71 -88 -46 -93 -18 -95 8 -95 35 -93 61 -91 
85 -85 109 -78 130 -70 148 -59 164 -49 175 -37 185 -24 189 -11 
191 3 187 16 182 29 171 41 158 53 142 64 122 73 100 82 
76 87 51 92 25 94 -3 95 -29 94 -55 92 -81 86 -104 80 
-125 71 -145 63 -161 51 -173 39 -183 27 -188 14 -191 0 -189 -13 
-183 -26 -174 -39 -161 -51 -145 -62 -126 -71 4646 2091 134 MP stroke
gr

c8
0 sg
1237 2422 mt  -90 rotate
(Z) s
90 rotate
2874  275 mt 
(Relative Circular Orbit) s
4480 4901 mt 
(X) s
2201 4839 mt 
(Y) s

end %%Color Dict

eplot
%%EndObject

epage
end

showpage

%%Trailer
%%BoundingBox:   107   198   490   606
%%Pages: 001
%%EOF
