%!PS-Adobe-3.0 
%%Creator: MATLAB, The Mathworks, Inc. Version 7.10.0.499 (R2010a). Operating System: Linux 2.6.38-13-generic #53-Ubuntu SMP Mon Nov 28 19:33:45 UTC 2011 x86_64.
%%Title: /home/saeed/Desktop/Plots/Time_Zoom.eps
%%CreationDate: 05/09/2012  01:03:50
%%DocumentNeededFonts: Helvetica
%%DocumentProcessColors: Cyan Magenta Yellow Black
%%LanguageLevel: 2
%%Pages: (atend)
%%BoundingBox: (atend)
%%EndComments

%%BeginProlog
% MathWorks dictionary
/MathWorks 160 dict begin
% definition operators
/bdef {bind def} bind def
/ldef {load def} bind def
/xdef {exch def} bdef
/xstore {exch store} bdef
% operator abbreviations
/c  /clip ldef
/cc /concat ldef
/cp /closepath ldef
/gr /grestore ldef
/gs /gsave ldef
/mt /moveto ldef
/np /newpath ldef
/cm /currentmatrix ldef
/sm /setmatrix ldef
/rm /rmoveto ldef
/rl /rlineto ldef
/s {show newpath} bdef
/sc {setcmykcolor} bdef
/sr /setrgbcolor ldef
/sg /setgray ldef
/w /setlinewidth ldef
/j /setlinejoin ldef
/cap /setlinecap ldef
/rc {rectclip} bdef
/rf {rectfill} bdef
% page state control
/pgsv () def
/bpage {/pgsv save def} bdef
/epage {pgsv restore} bdef
/bplot /gsave ldef
/eplot {stroke grestore} bdef
% orientation switch
/portraitMode 0 def /landscapeMode 1 def /rotateMode 2 def
% coordinate system mappings
/dpi2point 0 def
% font control
/FontSize 0 def
/FMS {/FontSize xstore findfont [FontSize 0 0 FontSize neg 0 0]
  makefont setfont} bdef
/reencode {exch dup where {pop load} {pop StandardEncoding} ifelse
  exch dup 3 1 roll findfont dup length dict begin
  { 1 index /FID ne {def}{pop pop} ifelse } forall
  /Encoding exch def currentdict end definefont pop} bdef
/isroman {findfont /CharStrings get /Agrave known} bdef
/FMSR {3 1 roll 1 index dup isroman {reencode} {pop pop} ifelse
  exch FMS} bdef
/csm {1 dpi2point div -1 dpi2point div scale neg translate
 dup landscapeMode eq {pop -90 rotate}
  {rotateMode eq {90 rotate} if} ifelse} bdef
% line types: solid, dotted, dashed, dotdash
/SO { [] 0 setdash } bdef
/DO { [.5 dpi2point mul 4 dpi2point mul] 0 setdash } bdef
/DA { [6 dpi2point mul] 0 setdash } bdef
/DD { [.5 dpi2point mul 4 dpi2point mul 6 dpi2point mul 4
  dpi2point mul] 0 setdash } bdef
% macros for lines and objects
/L {lineto stroke} bdef
/MP {3 1 roll moveto 1 sub {rlineto} repeat} bdef
/AP {{rlineto} repeat} bdef
/PDlw -1 def
/W {/PDlw currentlinewidth def setlinewidth} def
/PP {closepath eofill} bdef
/DP {closepath stroke} bdef
/MR {4 -2 roll moveto dup  0 exch rlineto exch 0 rlineto
  neg 0 exch rlineto closepath} bdef
/FR {MR stroke} bdef
/PR {MR fill} bdef
/L1i {{currentfile picstr readhexstring pop} image} bdef
/tMatrix matrix def
/MakeOval {newpath tMatrix currentmatrix pop translate scale
0 0 1 0 360 arc tMatrix setmatrix} bdef
/FO {MakeOval stroke} bdef
/PO {MakeOval fill} bdef
/PD {currentlinewidth 2 div 0 360 arc fill
   PDlw -1 eq not {PDlw w /PDlw -1 def} if} def
/FA {newpath tMatrix currentmatrix pop translate scale
  0 0 1 5 -2 roll arc tMatrix setmatrix stroke} bdef
/PA {newpath tMatrix currentmatrix pop	translate 0 0 moveto scale
  0 0 1 5 -2 roll arc closepath tMatrix setmatrix fill} bdef
/FAn {newpath tMatrix currentmatrix pop translate scale
  0 0 1 5 -2 roll arcn tMatrix setmatrix stroke} bdef
/PAn {newpath tMatrix currentmatrix pop translate 0 0 moveto scale
  0 0 1 5 -2 roll arcn closepath tMatrix setmatrix fill} bdef
/vradius 0 def /hradius 0 def /lry 0 def
/lrx 0 def /uly 0 def /ulx 0 def /rad 0 def
/MRR {/vradius xdef /hradius xdef /lry xdef /lrx xdef /uly xdef
  /ulx xdef newpath tMatrix currentmatrix pop ulx hradius add uly
  vradius add translate hradius vradius scale 0 0 1 180 270 arc 
  tMatrix setmatrix lrx hradius sub uly vradius add translate
  hradius vradius scale 0 0 1 270 360 arc tMatrix setmatrix
  lrx hradius sub lry vradius sub translate hradius vradius scale
  0 0 1 0 90 arc tMatrix setmatrix ulx hradius add lry vradius sub
  translate hradius vradius scale 0 0 1 90 180 arc tMatrix setmatrix
  closepath} bdef
/FRR {MRR stroke } bdef
/PRR {MRR fill } bdef
/MlrRR {/lry xdef /lrx xdef /uly xdef /ulx xdef /rad lry uly sub 2 div def
  newpath tMatrix currentmatrix pop ulx rad add uly rad add translate
  rad rad scale 0 0 1 90 270 arc tMatrix setmatrix lrx rad sub lry rad
  sub translate rad rad scale 0 0 1 270 90 arc tMatrix setmatrix
  closepath} bdef
/FlrRR {MlrRR stroke } bdef
/PlrRR {MlrRR fill } bdef
/MtbRR {/lry xdef /lrx xdef /uly xdef /ulx xdef /rad lrx ulx sub 2 div def
  newpath tMatrix currentmatrix pop ulx rad add uly rad add translate
  rad rad scale 0 0 1 180 360 arc tMatrix setmatrix lrx rad sub lry rad
  sub translate rad rad scale 0 0 1 0 180 arc tMatrix setmatrix
  closepath} bdef
/FtbRR {MtbRR stroke } bdef
/PtbRR {MtbRR fill } bdef
/stri 6 array def /dtri 6 array def
/smat 6 array def /dmat 6 array def
/tmat1 6 array def /tmat2 6 array def /dif 3 array def
/asub {/ind2 exch def /ind1 exch def dup dup
  ind1 get exch ind2 get sub exch } bdef
/tri_to_matrix {
  2 0 asub 3 1 asub 4 0 asub 5 1 asub
  dup 0 get exch 1 get 7 -1 roll astore } bdef
/compute_transform {
  dmat dtri tri_to_matrix tmat1 invertmatrix 
  smat stri tri_to_matrix tmat2 concatmatrix } bdef
/ds {stri astore pop} bdef
/dt {dtri astore pop} bdef
/db {2 copy /cols xdef /rows xdef mul dup 3 mul string
  currentfile 
  3 index 0 eq {/ASCIIHexDecode filter}
  {/ASCII85Decode filter 3 index 2 eq {/RunLengthDecode filter} if }
  ifelse exch readstring pop
  dup 0 3 index getinterval /rbmap xdef
  dup 2 index dup getinterval /gbmap xdef
  1 index dup 2 mul exch getinterval /bbmap xdef pop pop}bdef
/it {gs np dtri aload pop moveto lineto lineto cp c
  cols rows 8 compute_transform 
  rbmap gbmap bbmap true 3 colorimage gr}bdef
/il {newpath moveto lineto stroke}bdef
currentdict end def
%%EndProlog

%%BeginSetup
MathWorks begin

0 cap

end
%%EndSetup

%%Page: 1 1
%%BeginPageSetup
%%PageBoundingBox:    73   213   556   590
MathWorks begin
bpage
%%EndPageSetup

%%BeginObject: obj1
bplot

/dpi2point 12 def
portraitMode 0216 7344 csm

  664   260  5800  4524 rc
86 dict begin %Colortable dictionary
/c0 { 0.000000 0.000000 0.000000 sr} bdef
/c1 { 1.000000 1.000000 1.000000 sr} bdef
/c2 { 0.900000 0.000000 0.000000 sr} bdef
/c3 { 0.000000 0.820000 0.000000 sr} bdef
/c4 { 0.000000 0.000000 0.800000 sr} bdef
/c5 { 0.910000 0.820000 0.320000 sr} bdef
/c6 { 1.000000 0.260000 0.820000 sr} bdef
/c7 { 0.000000 0.820000 0.820000 sr} bdef
c0
1 j
1 sg
   0    0 6913 5186 rf
6 w
0 4226 5356 0 0 -4226 899 4615 4 MP
PP
-5356 0 0 4226 5356 0 0 -4226 899 4615 5 MP stroke
4 w
DO
SO
6 w
0 sg
 899 4615 mt 6255 4615 L
 899  389 mt 6255  389 L
 899 4615 mt  899  389 L
6255 4615 mt 6255  389 L
 899 4615 mt 6255 4615 L
 899 4615 mt  899  389 L
 899 4615 mt  899 4561 L
 899  389 mt  899  442 L
%%IncludeResource: font Helvetica
/Helvetica /ISOLatin1Encoding 144 FMSR

 859 4783 mt 
(0) s
2684 4615 mt 2684 4561 L
2684  389 mt 2684  442 L
2564 4783 mt 
(500) s
4469 4615 mt 4469 4561 L
4469  389 mt 4469  442 L
4309 4783 mt 
(1000) s
6255 4615 mt 6255 4561 L
6255  389 mt 6255  442 L
6095 4783 mt 
(1500) s
 899 4615 mt  952 4615 L
6255 4615 mt 6201 4615 L
 784 4668 mt 
(0) s
 899 4086 mt  952 4086 L
6255 4086 mt 6201 4086 L
 664 4139 mt 
(0.5) s
 899 3558 mt  952 3558 L
6255 3558 mt 6201 3558 L
 784 3611 mt 
(1) s
 899 3030 mt  952 3030 L
6255 3030 mt 6201 3030 L
 664 3083 mt 
(1.5) s
 899 2502 mt  952 2502 L
6255 2502 mt 6201 2502 L
 784 2555 mt 
(2) s
 899 1973 mt  952 1973 L
6255 1973 mt 6201 1973 L
 664 2026 mt 
(2.5) s
 899 1445 mt  952 1445 L
6255 1445 mt 6201 1445 L
 784 1498 mt 
(3) s
 899  917 mt  952  917 L
6255  917 mt 6201  917 L
 664  970 mt 
(3.5) s
 899  389 mt  952  389 L
6255  389 mt 6201  389 L
 784  442 mt 
(4) s
 899 4615 mt 6255 4615 L
 899  389 mt 6255  389 L
 899 4615 mt  899  389 L
6255 4615 mt 6255  389 L
gs 899 389 5357 4227 rc
/c8 { 0.000000 0.000000 1.000000 sr} bdef
c8
6 -10 115 -254 114 159 114 -550 114 -190 115 -222 114 -158 114 -169 
114 -148 115 -211 114 -148 114 -169 114 -116 115 147 114 -422 114 -137 
114 -148 115 -138 114 -95 114 -63 115 -169 114 -21 114 -212 114 -53 
115 -84 114 -106 114 -63 114 -63 115 -64 114 -42 114 -53 114 -63 
115 -53 114 -21 114 -32 114 -42 115 -21 114 10 114 -32 1013 4615 40 MP stroke
gr

c8
  24   24 1013 4615 FO
  24   24 1127 4583 FO
  24   24 1241 4593 FO
  24   24 1356 4572 FO
  24   24 1470 4530 FO
  24   24 1584 4498 FO
  24   24 1698 4477 FO
  24   24 1813 4424 FO
  24   24 1927 4361 FO
  24   24 2041 4308 FO
  24   24 2155 4266 FO
  24   24 2270 4202 FO
  24   24 2384 4139 FO
  24   24 2498 4076 FO
  24   24 2612 3970 FO
  24   24 2727 3886 FO
  24   24 2841 3833 FO
  24   24 2955 3621 FO
  24   24 3069 3600 FO
  24   24 3184 3431 FO
  24   24 3298 3368 FO
  24   24 3412 3273 FO
  24   24 3527 3135 FO
  24   24 3641 2987 FO
  24   24 3755 2850 FO
  24   24 3869 2428 FO
  24   24 3984 2575 FO
  24   24 4098 2459 FO
  24   24 4212 2290 FO
  24   24 4326 2142 FO
  24   24 4441 1931 FO
  24   24 4555 1783 FO
  24   24 4669 1614 FO
  24   24 4783 1456 FO
  24   24 4898 1234 FO
  24   24 5012 1044 FO
  24   24 5126  494 FO
  24   24 5240  653 FO
  24   24 5355  399 FO
gs 899 389 5357 4227 rc
/c9 { 0.000000 1.000000 0.000000 sr} bdef
c9
101 -75 115 -85 114 -74 114 -63 115 -95 114 -85 114 -105 114 -64 
115 -84 114 -85 114 -84 114 -74 115 -85 114 -74 114 -105 114 -74 
115 -74 114 -74 114 -106 114 -74 115 -84 114 -85 114 -74 114 -95 
115 -74 114 -74 114 -84 115 -85 114 -84 114 -85 114 -74 115 -95 
114 -105 114 -74 114 -74 115 -85 114 -74 114 -95 114 -74 115 -84 
114 -85 114 -84 114 -74 115 -85 114 -84 114 -96 1013 4541 47 MP stroke
gr

c9
  24   24 1013 4541 FO
  24   24 1127 4445 FO
  24   24 1241 4361 FO
  24   24 1356 4276 FO
  24   24 1470 4202 FO
  24   24 1584 4118 FO
  24   24 1698 4033 FO
  24   24 1813 3949 FO
  24   24 1927 3875 FO
  24   24 2041 3780 FO
  24   24 2155 3706 FO
  24   24 2270 3621 FO
  24   24 2384 3547 FO
  24   24 2498 3473 FO
  24   24 2612 3368 FO
  24   24 2727 3273 FO
  24   24 2841 3199 FO
  24   24 2955 3114 FO
  24   24 3069 3030 FO
  24   24 3184 2945 FO
  24   24 3298 2861 FO
  24   24 3412 2787 FO
  24   24 3527 2713 FO
  24   24 3641 2618 FO
  24   24 3755 2544 FO
  24   24 3869 2459 FO
  24   24 3984 2375 FO
  24   24 4098 2301 FO
  24   24 4212 2195 FO
  24   24 4326 2121 FO
  24   24 4441 2047 FO
  24   24 4555 1973 FO
  24   24 4669 1868 FO
  24   24 4783 1794 FO
  24   24 4898 1709 FO
  24   24 5012 1635 FO
  24   24 5126 1551 FO
  24   24 5240 1466 FO
  24   24 5355 1382 FO
  24   24 5469 1318 FO
  24   24 5583 1213 FO
  24   24 5697 1128 FO
  24   24 5812 1033 FO
  24   24 5926  970 FO
  24   24 6040  896 FO
  24   24 6155  811 FO
gs 899 389 5357 4227 rc
gr


end %%Color Dict

eplot
%%EndObject

epage
end

showpage

%%Trailer
%%BoundingBox:    73   213   556   590
%%Pages: 001
%%EOF
