%!PS-Adobe-3.0 
%%Creator: MATLAB, The Mathworks, Inc. Version 7.10.0.499 (R2010a). Operating System: Linux 2.6.38-13-generic #53-Ubuntu SMP Mon Nov 28 19:33:45 UTC 2011 x86_64.
%%Title: /home/saeed/Desktop/Plots/Time.eps
%%CreationDate: 05/09/2012  01:10:05
%%DocumentNeededFonts: Helvetica
%%DocumentProcessColors: Cyan Magenta Yellow Black
%%LanguageLevel: 2
%%Pages: (atend)
%%BoundingBox: (atend)
%%EndComments

%%BeginProlog
% MathWorks dictionary
/MathWorks 160 dict begin
% definition operators
/bdef {bind def} bind def
/ldef {load def} bind def
/xdef {exch def} bdef
/xstore {exch store} bdef
% operator abbreviations
/c  /clip ldef
/cc /concat ldef
/cp /closepath ldef
/gr /grestore ldef
/gs /gsave ldef
/mt /moveto ldef
/np /newpath ldef
/cm /currentmatrix ldef
/sm /setmatrix ldef
/rm /rmoveto ldef
/rl /rlineto ldef
/s {show newpath} bdef
/sc {setcmykcolor} bdef
/sr /setrgbcolor ldef
/sg /setgray ldef
/w /setlinewidth ldef
/j /setlinejoin ldef
/cap /setlinecap ldef
/rc {rectclip} bdef
/rf {rectfill} bdef
% page state control
/pgsv () def
/bpage {/pgsv save def} bdef
/epage {pgsv restore} bdef
/bplot /gsave ldef
/eplot {stroke grestore} bdef
% orientation switch
/portraitMode 0 def /landscapeMode 1 def /rotateMode 2 def
% coordinate system mappings
/dpi2point 0 def
% font control
/FontSize 0 def
/FMS {/FontSize xstore findfont [FontSize 0 0 FontSize neg 0 0]
  makefont setfont} bdef
/reencode {exch dup where {pop load} {pop StandardEncoding} ifelse
  exch dup 3 1 roll findfont dup length dict begin
  { 1 index /FID ne {def}{pop pop} ifelse } forall
  /Encoding exch def currentdict end definefont pop} bdef
/isroman {findfont /CharStrings get /Agrave known} bdef
/FMSR {3 1 roll 1 index dup isroman {reencode} {pop pop} ifelse
  exch FMS} bdef
/csm {1 dpi2point div -1 dpi2point div scale neg translate
 dup landscapeMode eq {pop -90 rotate}
  {rotateMode eq {90 rotate} if} ifelse} bdef
% line types: solid, dotted, dashed, dotdash
/SO { [] 0 setdash } bdef
/DO { [.5 dpi2point mul 4 dpi2point mul] 0 setdash } bdef
/DA { [6 dpi2point mul] 0 setdash } bdef
/DD { [.5 dpi2point mul 4 dpi2point mul 6 dpi2point mul 4
  dpi2point mul] 0 setdash } bdef
% macros for lines and objects
/L {lineto stroke} bdef
/MP {3 1 roll moveto 1 sub {rlineto} repeat} bdef
/AP {{rlineto} repeat} bdef
/PDlw -1 def
/W {/PDlw currentlinewidth def setlinewidth} def
/PP {closepath eofill} bdef
/DP {closepath stroke} bdef
/MR {4 -2 roll moveto dup  0 exch rlineto exch 0 rlineto
  neg 0 exch rlineto closepath} bdef
/FR {MR stroke} bdef
/PR {MR fill} bdef
/L1i {{currentfile picstr readhexstring pop} image} bdef
/tMatrix matrix def
/MakeOval {newpath tMatrix currentmatrix pop translate scale
0 0 1 0 360 arc tMatrix setmatrix} bdef
/FO {MakeOval stroke} bdef
/PO {MakeOval fill} bdef
/PD {currentlinewidth 2 div 0 360 arc fill
   PDlw -1 eq not {PDlw w /PDlw -1 def} if} def
/FA {newpath tMatrix currentmatrix pop translate scale
  0 0 1 5 -2 roll arc tMatrix setmatrix stroke} bdef
/PA {newpath tMatrix currentmatrix pop	translate 0 0 moveto scale
  0 0 1 5 -2 roll arc closepath tMatrix setmatrix fill} bdef
/FAn {newpath tMatrix currentmatrix pop translate scale
  0 0 1 5 -2 roll arcn tMatrix setmatrix stroke} bdef
/PAn {newpath tMatrix currentmatrix pop translate 0 0 moveto scale
  0 0 1 5 -2 roll arcn closepath tMatrix setmatrix fill} bdef
/vradius 0 def /hradius 0 def /lry 0 def
/lrx 0 def /uly 0 def /ulx 0 def /rad 0 def
/MRR {/vradius xdef /hradius xdef /lry xdef /lrx xdef /uly xdef
  /ulx xdef newpath tMatrix currentmatrix pop ulx hradius add uly
  vradius add translate hradius vradius scale 0 0 1 180 270 arc 
  tMatrix setmatrix lrx hradius sub uly vradius add translate
  hradius vradius scale 0 0 1 270 360 arc tMatrix setmatrix
  lrx hradius sub lry vradius sub translate hradius vradius scale
  0 0 1 0 90 arc tMatrix setmatrix ulx hradius add lry vradius sub
  translate hradius vradius scale 0 0 1 90 180 arc tMatrix setmatrix
  closepath} bdef
/FRR {MRR stroke } bdef
/PRR {MRR fill } bdef
/MlrRR {/lry xdef /lrx xdef /uly xdef /ulx xdef /rad lry uly sub 2 div def
  newpath tMatrix currentmatrix pop ulx rad add uly rad add translate
  rad rad scale 0 0 1 90 270 arc tMatrix setmatrix lrx rad sub lry rad
  sub translate rad rad scale 0 0 1 270 90 arc tMatrix setmatrix
  closepath} bdef
/FlrRR {MlrRR stroke } bdef
/PlrRR {MlrRR fill } bdef
/MtbRR {/lry xdef /lrx xdef /uly xdef /ulx xdef /rad lrx ulx sub 2 div def
  newpath tMatrix currentmatrix pop ulx rad add uly rad add translate
  rad rad scale 0 0 1 180 360 arc tMatrix setmatrix lrx rad sub lry rad
  sub translate rad rad scale 0 0 1 0 180 arc tMatrix setmatrix
  closepath} bdef
/FtbRR {MtbRR stroke } bdef
/PtbRR {MtbRR fill } bdef
/stri 6 array def /dtri 6 array def
/smat 6 array def /dmat 6 array def
/tmat1 6 array def /tmat2 6 array def /dif 3 array def
/asub {/ind2 exch def /ind1 exch def dup dup
  ind1 get exch ind2 get sub exch } bdef
/tri_to_matrix {
  2 0 asub 3 1 asub 4 0 asub 5 1 asub
  dup 0 get exch 1 get 7 -1 roll astore } bdef
/compute_transform {
  dmat dtri tri_to_matrix tmat1 invertmatrix 
  smat stri tri_to_matrix tmat2 concatmatrix } bdef
/ds {stri astore pop} bdef
/dt {dtri astore pop} bdef
/db {2 copy /cols xdef /rows xdef mul dup 3 mul string
  currentfile 
  3 index 0 eq {/ASCIIHexDecode filter}
  {/ASCII85Decode filter 3 index 2 eq {/RunLengthDecode filter} if }
  ifelse exch readstring pop
  dup 0 3 index getinterval /rbmap xdef
  dup 2 index dup getinterval /gbmap xdef
  1 index dup 2 mul exch getinterval /bbmap xdef pop pop}bdef
/it {gs np dtri aload pop moveto lineto lineto cp c
  cols rows 8 compute_transform 
  rbmap gbmap bbmap true 3 colorimage gr}bdef
/il {newpath moveto lineto stroke}bdef
currentdict end def
%%EndProlog

%%BeginSetup
MathWorks begin

0 cap

end
%%EndSetup

%%Page: 1 1
%%BeginPageSetup
%%PageBoundingBox:    49   195   543   606
MathWorks begin
bpage
%%EndPageSetup

%%BeginObject: obj1
bplot

/dpi2point 12 def
portraitMode 0216 7344 csm

  378    68  5927  4933 rc
86 dict begin %Colortable dictionary
/c0 { 0.000000 0.000000 0.000000 sr} bdef
/c1 { 1.000000 1.000000 1.000000 sr} bdef
/c2 { 0.900000 0.000000 0.000000 sr} bdef
/c3 { 0.000000 0.820000 0.000000 sr} bdef
/c4 { 0.000000 0.000000 0.800000 sr} bdef
/c5 { 0.910000 0.820000 0.320000 sr} bdef
/c6 { 1.000000 0.260000 0.820000 sr} bdef
/c7 { 0.000000 0.820000 0.820000 sr} bdef
c0
1 j
1 sg
   0    0 6913 5186 rf
6 w
0 4226 5356 0 0 -4226 899 4615 4 MP
PP
-5356 0 0 4226 5356 0 0 -4226 899 4615 5 MP stroke
4 w
DO
SO
6 w
0 sg
 899 4615 mt 6255 4615 L
 899  389 mt 6255  389 L
 899 4615 mt  899  389 L
6255 4615 mt 6255  389 L
 899 4615 mt 6255 4615 L
 899 4615 mt  899  389 L
1711 4615 mt 1711 4561 L
1711  389 mt 1711  442 L
%%IncludeResource: font Helvetica
/Helvetica /ISOLatin1Encoding 144 FMSR

1551 4783 mt 
(2000) s
2537 4615 mt 2537 4561 L
2537  389 mt 2537  442 L
2377 4783 mt 
(4000) s
3363 4615 mt 3363 4561 L
3363  389 mt 3363  442 L
3203 4783 mt 
(6000) s
4189 4615 mt 4189 4561 L
4189  389 mt 4189  442 L
4029 4783 mt 
(8000) s
5015 4615 mt 5015 4561 L
5015  389 mt 5015  442 L
4815 4783 mt 
(10000) s
5841 4615 mt 5841 4561 L
5841  389 mt 5841  442 L
5641 4783 mt 
(12000) s
 899 4615 mt  952 4615 L
6255 4615 mt 6201 4615 L
 784 4668 mt 
(0) s
 899 4011 mt  952 4011 L
6255 4011 mt 6201 4011 L
 704 4064 mt 
(50) s
 899 3407 mt  952 3407 L
6255 3407 mt 6201 3407 L
 624 3460 mt 
(100) s
 899 2803 mt  952 2803 L
6255 2803 mt 6201 2803 L
 624 2856 mt 
(150) s
 899 2200 mt  952 2200 L
6255 2200 mt 6201 2200 L
 624 2253 mt 
(200) s
 899 1596 mt  952 1596 L
6255 1596 mt 6201 1596 L
 624 1649 mt 
(250) s
 899  992 mt  952  992 L
6255  992 mt 6201  992 L
 624 1045 mt 
(300) s
 899  389 mt  952  389 L
6255  389 mt 6201  389 L
 624  442 mt 
(350) s
 899 4615 mt 6255 4615 L
 899  389 mt 6255  389 L
 899 4615 mt  899  389 L
6255 4615 mt 6255  389 L
gs 899 389 5357 4227 rc
/c8 { 0.000000 0.000000 1.000000 sr} bdef
c8
14 8 13 -17 13 -15 13 208 14 -32 13 -47 13 -7 13 -250 
13 432 14 -433 13 -68 13 -27 13 57 13 -56 14 -38 13 110 
13 130 13 -134 14 -194 13 -31 13 71 13 -105 13 69 14 -92 
13 29 13 157 13 -223 13 -15 14 -57 13 141 13 -42 13 -58 
14 -94 13 285 13 -274 13 -64 13 102 14 -153 13 -10 13 -31 
13 0 14 83 13 -127 13 49 13 -36 13 -16 14 298 13 -362 
13 55 13 -116 13 38 14 -61 13 -26 13 -18 13 91 14 -122 
13 392 13 -385 13 323 13 -393 14 255 13 -182 13 -115 13 191 
14 -226 13 -21 13 8 13 7 13 -50 14 105 13 -110 13 291 
13 -356 13 -5 14 -4 13 -17 13 -42 13 12 14 -44 13 -10 
13 13 13 309 13 -321 14 -45 13 -30 13 -9 13 7 13 28 
14 -86 13 285 13 -296 13 165 14 -203 13 -1 13 19 13 194 
13 -276 14 -3 13 -24 13 16 13 -47 14 7 13 -20 13 3 
13 -4 13 55 14 -120 13 -12 13 -16 13 17 13 -42 14 10 
13 222 13 -272 13 88 14 -95 13 -32 13 14 13 30 13 -80 
14 -13 13 81 13 -94 13 -8 13 -25 14 -16 13 205 13 -225 
13 -2 14 -15 13 164 13 -167 13 -43 13 33 14 -56 13 -4 
13 -4 13 -27 14 -13 13 -9 13 2 13 -20 13 59 14 -87 
13 141 13 -146 13 -27 13 -10 14 2 13 35 13 -68 13 36 
14 -47 13 -20 13 -1 13 -22 13 105 14 -103 13 -21 13 -22 
13 6 14 -18 13 -17 13 -10 13 -9 13 121 14 -133 13 -15 
13 -2 13 -18 13 4 14 -24 13 -7 13 -2 13 0 14 -27 
13 -7 13 31 13 -47 13 -5 14 -12 13 13 13 -36 13 -3 
13 27 14 -42 13 -15 13 -8 13 -9 14 -5 13 -11 13 54 
13 -57 13 1 14 -12 13 -21 13 0 13 -17 14 66 13 -78 
13 -13 13 91 13 -107 14 32 13 -44 13 -7 13 -8 13 -5 
14 -10 13 -2 13 -12 13 12 14 -20 13 -12 13 1 13 -13 
13 -8 14 51 13 -63 13 44 13 -57 13 -6 14 -6 13 -5 
13 -7 13 -4 14 -6 13 -7 13 -5 13 -6 13 -4 14 -6 
13 -6 13 -5 13 -7 14 -6 13 -4 13 -3 13 -8 13 -2 
14 -5 13 -8 13 -2 13 -7 13 -5 14 -2 13 -7 13 -5 
13 -5 14 -4 13 -4 13 -5 13 -3 13 -5 14 -4 13 -4 
13 -1 13 -7 14 0 13 -7 13 -4 13 -4 13 -3 14 -4 
13 -4 13 -3 13 -3 13 -4 14 -3 13 -3 13 -3 13 -3 
14 -1 13 -5 13 -3 13 -2 13 -3 14 -3 13 -3 13 -2 
13 -2 13 -3 14 2 13 -7 13 -2 13 -2 14 -2 13 -2 
13 -2 13 -2 13 -2 14 -2 13 -1 13 1 13 -4 14 -2 
13 -2 13 -1 13 -1 1163 4600 300 MP stroke
13 -1 14 -2 13 0 13 -3 13 0 13 -1 14 -1 13 -1 
13 -1 13 -1 14 0 13 -1 13 0 13 -1 13 0 14 -1 
13 0 13 0 13 0 13 -1 899 4615 21 MP stroke
gr

c8
  24   24  899 4615 FO
  24   24  912 4614 FO
  24   24  925 4614 FO
  24   24  938 4614 FO
  24   24  951 4614 FO
  24   24  965 4613 FO
  24   24  978 4613 FO
  24   24  991 4612 FO
  24   24 1004 4612 FO
  24   24 1017 4611 FO
  24   24 1031 4611 FO
  24   24 1044 4610 FO
  24   24 1057 4609 FO
  24   24 1070 4608 FO
  24   24 1084 4607 FO
  24   24 1097 4606 FO
  24   24 1110 4606 FO
  24   24 1123 4603 FO
  24   24 1136 4603 FO
  24   24 1150 4601 FO
  24   24 1163 4600 FO
  24   24 1176 4599 FO
  24   24 1189 4598 FO
  24   24 1202 4596 FO
  24   24 1216 4594 FO
  24   24 1229 4590 FO
  24   24 1242 4591 FO
  24   24 1255 4590 FO
  24   24 1269 4588 FO
  24   24 1282 4586 FO
  24   24 1295 4584 FO
  24   24 1308 4582 FO
  24   24 1321 4580 FO
  24   24 1335 4578 FO
  24   24 1348 4576 FO
  24   24 1361 4574 FO
  24   24 1374 4567 FO
  24   24 1388 4569 FO
  24   24 1401 4566 FO
  24   24 1414 4564 FO
  24   24 1427 4562 FO
  24   24 1440 4559 FO
  24   24 1454 4556 FO
  24   24 1467 4553 FO
  24   24 1480 4551 FO
  24   24 1493 4548 FO
  24   24 1506 4543 FO
  24   24 1520 4542 FO
  24   24 1533 4539 FO
  24   24 1546 4536 FO
  24   24 1559 4533 FO
  24   24 1573 4530 FO
  24   24 1586 4526 FO
  24   24 1599 4523 FO
  24   24 1612 4520 FO
  24   24 1625 4516 FO
  24   24 1639 4512 FO
  24   24 1652 4509 FO
  24   24 1665 4505 FO
  24   24 1678 4501 FO
  24   24 1691 4494 FO
  24   24 1705 4494 FO
  24   24 1718 4487 FO
  24   24 1731 4486 FO
  24   24 1744 4482 FO
  24   24 1758 4478 FO
  24   24 1771 4473 FO
  24   24 1784 4470 FO
  24   24 1797 4465 FO
  24   24 1810 4461 FO
  24   24 1824 4457 FO
  24   24 1837 4452 FO
  24   24 1850 4447 FO
  24   24 1863 4440 FO
  24   24 1877 4438 FO
  24   24 1890 4433 FO
  24   24 1903 4426 FO
  24   24 1916 4424 FO
  24   24 1929 4416 FO
  24   24 1943 4411 FO
  24   24 1956 4409 FO
  24   24 1969 4401 FO
  24   24 1982 4398 FO
  24   24 1995 4394 FO
  24   24 2009 4388 FO
  24   24 2022 4381 FO
  24   24 2035 4376 FO
  24   24 2048 4370 FO
  24   24 2062 4364 FO
  24   24 2075 4360 FO
  24   24 2088 4354 FO
  24   24 2101 4349 FO
  24   24 2114 4342 FO
  24   24 2128 4336 FO
  24   24 2141 4332 FO
  24   24 2154 4325 FO
  24   24 2167 4320 FO
  24   24 2181 4314 FO
  24   24 2194 4308 FO
  24   24 2207 4251 FO
  24   24 2220 4295 FO
  24   24 2233 4232 FO
  24   24 2247 4283 FO
  24   24 2260 4275 FO
  24   24 2273 4262 FO
  24   24 2286 4263 FO
  24   24 2299 4251 FO
  24   24 2313 4231 FO
  24   24 2326 4243 FO
  24   24 2339 4231 FO
  24   24 2352 4229 FO
  24   24 2366 4219 FO
  24   24 2379 4214 FO
  24   24 2392 4206 FO
  24   24 2405 4199 FO
  24   24 2418 4155 FO
  24   24 2432 4187 FO
  24   24 2445 4080 FO
  24   24 2458 4171 FO
  24   24 2471 4158 FO
  24   24 2484 4080 FO
  24   24 2498 4146 FO
  24   24 2511 4129 FO
  24   24 2524 4129 FO
  24   24 2537 4108 FO
  24   24 2551 4096 FO
  24   24 2564 4097 FO
  24   24 2577 4040 FO
  24   24 2590 4094 FO
  24   24 2603 4083 FO
  24   24 2617 4078 FO
  24   24 2630 4069 FO
  24   24 2643 4061 FO
  24   24 2656 4046 FO
  24   24 2670 4004 FO
  24   24 2683 4031 FO
  24   24 2696 4028 FO
  24   24 2709 3992 FO
  24   24 2722 4005 FO
  24   24 2736 3993 FO
  24   24 2749 3988 FO
  24   24 2762 3941 FO
  24   24 2775 3972 FO
  24   24 2788 3965 FO
  24   24 2802 3938 FO
  24   24 2815 3938 FO
  24   24 2828 3936 FO
  24   24 2841 3929 FO
  24   24 2855 3905 FO
  24   24 2868 3909 FO
  24   24 2881 3891 FO
  24   24 2894 3889 FO
  24   24 2907 3874 FO
  24   24 2921 3741 FO
  24   24 2934 3862 FO
  24   24 2947 3853 FO
  24   24 2960 3843 FO
  24   24 2973 3826 FO
  24   24 2987 3808 FO
  24   24 3000 3814 FO
  24   24 3013 3792 FO
  24   24 3026 3771 FO
  24   24 3040 3668 FO
  24   24 3053 3773 FO
  24   24 3066 3751 FO
  24   24 3079 3750 FO
  24   24 3092 3730 FO
  24   24 3106 3683 FO
  24   24 3119 3719 FO
  24   24 3132 3651 FO
  24   24 3145 3686 FO
  24   24 3159 3688 FO
  24   24 3172 3678 FO
  24   24 3185 3651 FO
  24   24 3198 3505 FO
  24   24 3211 3646 FO
  24   24 3225 3559 FO
  24   24 3238 3618 FO
  24   24 3251 3598 FO
  24   24 3264 3600 FO
  24   24 3277 3591 FO
  24   24 3291 3578 FO
  24   24 3304 3551 FO
  24   24 3317 3547 FO
  24   24 3330 3543 FO
  24   24 3344 3487 FO
  24   24 3357 3520 FO
  24   24 3370 3477 FO
  24   24 3383 3310 FO
  24   24 3396 3474 FO
  24   24 3410 3459 FO
  24   24 3423 3457 FO
  24   24 3436 3232 FO
  24   24 3449 3437 FO
  24   24 3463 3421 FO
  24   24 3476 3396 FO
  24   24 3489 3388 FO
  24   24 3502 3294 FO
  24   24 3515 3375 FO
  24   24 3529 3362 FO
  24   24 3542 3282 FO
  24   24 3555 3312 FO
  24   24 3568 3326 FO
  24   24 3581 3294 FO
  24   24 3595 3199 FO
  24   24 3608 3287 FO
  24   24 3621 3015 FO
  24   24 3634 3237 FO
  24   24 3648 3247 FO
  24   24 3661 3205 FO
  24   24 3674 3222 FO
  24   24 3687 3206 FO
  24   24 3700 3194 FO
  24   24 3714 3074 FO
  24   24 3727 3129 FO
  24   24 3740 3125 FO
  24   24 3753 3128 FO
  24   24 3766 3108 FO
  24   24 3780 3115 FO
  24   24 3793 3068 FO
  24   24 3806 3084 FO
  24   24 3819 3060 FO
  24   24 3833 3057 FO
  24   24 3846 2781 FO
  24   24 3859 2975 FO
  24   24 3872 2994 FO
  24   24 3885 2993 FO
  24   24 3899 2790 FO
  24   24 3912 2955 FO
  24   24 3925 2659 FO
  24   24 3938 2944 FO
  24   24 3952 2858 FO
  24   24 3965 2886 FO
  24   24 3978 2893 FO
  24   24 3991 2884 FO
  24   24 4004 2854 FO
  24   24 4018 2809 FO
  24   24 4031 2488 FO
  24   24 4044 2797 FO
  24   24 4057 2810 FO
  24   24 4070 2800 FO
  24   24 4084 2756 FO
  24   24 4097 2768 FO
  24   24 4110 2726 FO
  24   24 4123 2709 FO
  24   24 4137 2705 FO
  24   24 4150 2700 FO
  24   24 4163 2344 FO
  24   24 4176 2635 FO
  24   24 4189 2525 FO
  24   24 4203 2630 FO
  24   24 4216 2580 FO
  24   24 4229 2587 FO
  24   24 4242 2595 FO
  24   24 4255 2574 FO
  24   24 4269 2348 FO
  24   24 4282 2539 FO
  24   24 4295 2424 FO
  24   24 4308 2242 FO
  24   24 4322 2497 FO
  24   24 4335 2104 FO
  24   24 4348 2427 FO
  24   24 4361 2042 FO
  24   24 4374 2434 FO
  24   24 4388 2312 FO
  24   24 4401 2403 FO
  24   24 4414 2385 FO
  24   24 4427 2359 FO
  24   24 4441 2298 FO
  24   24 4454 2336 FO
  24   24 4467 2220 FO
  24   24 4480 2275 FO
  24   24 4493 1913 FO
  24   24 4507 2211 FO
  24   24 4520 2195 FO
  24   24 4533 2159 FO
  24   24 4546 2208 FO
  24   24 4559 2081 FO
  24   24 4573 2164 FO
  24   24 4586 2164 FO
  24   24 4599 2133 FO
  24   24 4612 2123 FO
  24   24 4626 1970 FO
  24   24 4639 2072 FO
  24   24 4652 2008 FO
  24   24 4665 1734 FO
  24   24 4678 2019 FO
  24   24 4692 1925 FO
  24   24 4705 1867 FO
  24   24 4718 1825 FO
  24   24 4731 1966 FO
  24   24 4745 1909 FO
  24   24 4758 1894 FO
  24   24 4771 1671 FO
  24   24 4784 1828 FO
  24   24 4797 1857 FO
  24   24 4811 1765 FO
  24   24 4824 1834 FO
  24   24 4837 1729 FO
  24   24 4850 1800 FO
  24   24 4863 1769 FO
  24   24 4877 1575 FO
  24   24 4890 1441 FO
  24   24 4903 1571 FO
  24   24 4916 1681 FO
  24   24 4930 1643 FO
  24   24 4943 1587 FO
  24   24 4956 1644 FO
  24   24 4969 1617 FO
  24   24 4982 1549 FO
  24   24 4996 1116 FO
  24   24 5009 1548 FO
  24   24 5022 1298 FO
  24   24 5035 1291 FO
  24   24 5048 1244 FO
  24   24 5062 1212 FO
  24   24 5075 1420 FO
  24   24 5088 1405 FO
  24   24 5101 1388 FO
  24   24 5115 1396 FO
gs 899 389 5357 4227 rc
/c9 { 0.000000 1.000000 0.000000 sr} bdef
c9
14 -2 13 -1 13 -1 13 -1 14 0 13 -1 13 -1 13 -2 
13 -2 14 0 13 -1 13 0 13 -2 13 -1 14 -1 13 -2 
13 1 13 -3 14 1 13 -1 13 -2 13 0 13 0 14 -2 
13 0 13 0 13 -1 13 -1 14 -1 13 -1 13 -2 13 -1 
14 0 13 0 13 -1 13 -1 13 -1 14 -3 13 1 13 -2 
13 -1 14 -1 13 -1 13 -1 13 -1 13 -1 14 -1 13 0 
13 -3 13 0 13 -1 14 -1 13 -1 13 -2 13 -1 14 -1 
13 -1 13 -1 13 -1 13 -2 14 0 13 -2 13 0 13 -1 
14 -1 13 -1 13 0 13 -2 13 -1 14 -1 13 0 13 -1 
13 -1 13 -1 14 -2 13 -1 13 -1 13 -1 14 0 13 -2 
13 -1 13 -1 13 0 14 -2 13 -1 13 0 13 -2 13 0 
14 -2 13 0 13 -1 13 -2 14 0 13 -1 13 -1 13 -1 
13 -2 14 -1 13 -1 13 -2 13 -1 14 -2 13 -1 13 2 
13 -3 13 -2 14 0 13 -1 13 -1 13 -1 13 -1 14 -1 
13 -1 13 -1 13 -1 14 -1 13 0 13 -1 13 -2 13 -1 
14 -1 13 0 13 -1 13 -2 13 2 14 -3 13 -1 13 -1 
13 -1 14 0 13 -2 13 0 13 -2 13 0 14 -1 13 -1 
13 -2 13 0 14 -2 13 0 13 -1 13 -1 13 -2 14 0 
13 -1 13 -1 13 -1 13 -1 14 -1 13 -1 13 -1 13 -1 
14 -1 13 -1 13 -1 13 -1 13 -1 14 0 13 -2 13 0 
13 -2 14 -1 13 0 13 -1 13 -1 13 -2 14 0 13 0 
13 -2 13 -1 13 -1 14 -1 13 -1 13 -1 13 -1 14 0 
13 -1 13 -2 13 -1 13 -1 14 0 13 -2 13 -1 13 0 
13 -1 14 -2 13 0 13 -1 13 -1 14 -1 13 -1 13 -1 
13 -1 13 -1 14 -1 13 0 13 -2 13 -1 14 -1 13 -1 
13 0 13 -1 13 -1 14 -2 13 -1 13 0 13 -1 13 -1 
14 -1 13 -1 13 -1 13 -1 14 -1 13 -1 13 2 13 -4 
13 -1 14 -1 13 -1 13 -1 13 -1 13 -1 14 0 13 -1 
13 -2 13 -1 14 -1 13 -1 13 -1 13 0 13 -1 14 -1 
13 -2 13 0 13 -1 14 -1 13 -1 13 -1 13 -1 13 -1 
14 -1 13 -1 13 -1 13 0 13 -2 14 0 13 -2 13 -1 
13 0 14 -1 13 -1 13 -1 13 -1 13 -1 14 -1 13 -1 
13 -1 13 -1 14 -1 13 -1 13 0 13 -1 13 -1 14 -1 
13 -1 13 -1 13 -1 13 -1 14 -1 13 -1 13 -1 13 -1 
14 -1 13 -1 13 -1 13 -1 13 -1 14 -1 13 -1 13 -1 
13 -1 13 -1 14 0 13 -1 13 -1 13 -1 14 -1 13 -1 
13 -1 13 -1 13 -1 14 -1 13 -1 13 -1 13 -1 14 -1 
13 -1 13 -1 13 0 1163 4594 300 MP stroke
13 -1 14 -1 13 -1 13 -1 13 -1 13 -1 14 -1 13 -1 
13 -1 13 -1 14 -1 13 -1 13 -1 13 -1 13 -1 14 -1 
13 -1 13 -1 13 -1 13 -1 899 4614 21 MP stroke
gr

c9
  24   24  899 4614 FO
  24   24  912 4613 FO
  24   24  925 4612 FO
  24   24  938 4611 FO
  24   24  951 4610 FO
  24   24  965 4609 FO
  24   24  978 4608 FO
  24   24  991 4607 FO
  24   24 1004 4606 FO
  24   24 1017 4605 FO
  24   24 1031 4604 FO
  24   24 1044 4603 FO
  24   24 1057 4602 FO
  24   24 1070 4601 FO
  24   24 1084 4600 FO
  24   24 1097 4599 FO
  24   24 1110 4598 FO
  24   24 1123 4597 FO
  24   24 1136 4596 FO
  24   24 1150 4595 FO
  24   24 1163 4594 FO
  24   24 1176 4594 FO
  24   24 1189 4593 FO
  24   24 1202 4592 FO
  24   24 1216 4591 FO
  24   24 1229 4590 FO
  24   24 1242 4589 FO
  24   24 1255 4588 FO
  24   24 1269 4587 FO
  24   24 1282 4586 FO
  24   24 1295 4585 FO
  24   24 1308 4584 FO
  24   24 1321 4583 FO
  24   24 1335 4582 FO
  24   24 1348 4581 FO
  24   24 1361 4580 FO
  24   24 1374 4579 FO
  24   24 1388 4579 FO
  24   24 1401 4578 FO
  24   24 1414 4577 FO
  24   24 1427 4576 FO
  24   24 1440 4575 FO
  24   24 1454 4574 FO
  24   24 1467 4573 FO
  24   24 1480 4572 FO
  24   24 1493 4571 FO
  24   24 1506 4570 FO
  24   24 1520 4569 FO
  24   24 1533 4568 FO
  24   24 1546 4567 FO
  24   24 1559 4566 FO
  24   24 1573 4565 FO
  24   24 1586 4564 FO
  24   24 1599 4563 FO
  24   24 1612 4562 FO
  24   24 1625 4561 FO
  24   24 1639 4560 FO
  24   24 1652 4559 FO
  24   24 1665 4558 FO
  24   24 1678 4558 FO
  24   24 1691 4557 FO
  24   24 1705 4556 FO
  24   24 1718 4555 FO
  24   24 1731 4554 FO
  24   24 1744 4553 FO
  24   24 1758 4552 FO
  24   24 1771 4551 FO
  24   24 1784 4550 FO
  24   24 1797 4549 FO
  24   24 1810 4548 FO
  24   24 1824 4547 FO
  24   24 1837 4547 FO
  24   24 1850 4546 FO
  24   24 1863 4544 FO
  24   24 1877 4544 FO
  24   24 1890 4542 FO
  24   24 1903 4542 FO
  24   24 1916 4541 FO
  24   24 1929 4540 FO
  24   24 1943 4539 FO
  24   24 1956 4538 FO
  24   24 1969 4537 FO
  24   24 1982 4536 FO
  24   24 1995 4535 FO
  24   24 2009 4534 FO
  24   24 2022 4533 FO
  24   24 2035 4533 FO
  24   24 2048 4531 FO
  24   24 2062 4530 FO
  24   24 2075 4529 FO
  24   24 2088 4529 FO
  24   24 2101 4528 FO
  24   24 2114 4527 FO
  24   24 2128 4526 FO
  24   24 2141 4525 FO
  24   24 2154 4523 FO
  24   24 2167 4522 FO
  24   24 2181 4522 FO
  24   24 2194 4521 FO
  24   24 2207 4520 FO
  24   24 2220 4519 FO
  24   24 2233 4518 FO
  24   24 2247 4517 FO
  24   24 2260 4516 FO
  24   24 2273 4512 FO
  24   24 2286 4514 FO
  24   24 2299 4513 FO
  24   24 2313 4512 FO
  24   24 2326 4511 FO
  24   24 2339 4510 FO
  24   24 2352 4509 FO
  24   24 2366 4508 FO
  24   24 2379 4507 FO
  24   24 2392 4506 FO
  24   24 2405 4506 FO
  24   24 2418 4505 FO
  24   24 2432 4503 FO
  24   24 2445 4502 FO
  24   24 2458 4501 FO
  24   24 2471 4501 FO
  24   24 2484 4500 FO
  24   24 2498 4499 FO
  24   24 2511 4498 FO
  24   24 2524 4496 FO
  24   24 2537 4496 FO
  24   24 2551 4495 FO
  24   24 2564 4494 FO
  24   24 2577 4493 FO
  24   24 2590 4492 FO
  24   24 2603 4491 FO
  24   24 2617 4490 FO
  24   24 2630 4489 FO
  24   24 2643 4488 FO
  24   24 2656 4488 FO
  24   24 2670 4486 FO
  24   24 2683 4485 FO
  24   24 2696 4485 FO
  24   24 2709 4484 FO
  24   24 2722 4482 FO
  24   24 2736 4482 FO
  24   24 2749 4481 FO
  24   24 2762 4480 FO
  24   24 2775 4478 FO
  24   24 2788 4477 FO
  24   24 2802 4477 FO
  24   24 2815 4476 FO
  24   24 2828 4475 FO
  24   24 2841 4474 FO
  24   24 2855 4473 FO
  24   24 2868 4472 FO
  24   24 2881 4471 FO
  24   24 2894 4469 FO
  24   24 2907 4469 FO
  24   24 2921 4469 FO
  24   24 2934 4467 FO
  24   24 2947 4466 FO
  24   24 2960 4465 FO
  24   24 2973 4465 FO
  24   24 2987 4464 FO
  24   24 3000 4462 FO
  24   24 3013 4462 FO
  24   24 3026 4460 FO
  24   24 3040 4460 FO
  24   24 3053 4459 FO
  24   24 3066 4458 FO
  24   24 3079 4457 FO
  24   24 3092 4456 FO
  24   24 3106 4455 FO
  24   24 3119 4454 FO
  24   24 3132 4453 FO
  24   24 3145 4452 FO
  24   24 3159 4451 FO
  24   24 3172 4450 FO
  24   24 3185 4449 FO
  24   24 3198 4448 FO
  24   24 3211 4447 FO
  24   24 3225 4447 FO
  24   24 3238 4445 FO
  24   24 3251 4444 FO
  24   24 3264 4443 FO
  24   24 3277 4443 FO
  24   24 3291 4441 FO
  24   24 3304 4441 FO
  24   24 3317 4439 FO
  24   24 3330 4438 FO
  24   24 3344 4437 FO
  24   24 3357 4437 FO
  24   24 3370 4435 FO
  24   24 3383 4435 FO
  24   24 3396 4433 FO
  24   24 3410 4433 FO
  24   24 3423 4432 FO
  24   24 3436 4431 FO
  24   24 3449 4430 FO
  24   24 3463 4427 FO
  24   24 3476 4429 FO
  24   24 3489 4427 FO
  24   24 3502 4426 FO
  24   24 3515 4426 FO
  24   24 3529 4425 FO
  24   24 3542 4424 FO
  24   24 3555 4422 FO
  24   24 3568 4421 FO
  24   24 3581 4421 FO
  24   24 3595 4420 FO
  24   24 3608 4419 FO
  24   24 3621 4418 FO
  24   24 3634 4417 FO
  24   24 3648 4416 FO
  24   24 3661 4415 FO
  24   24 3674 4414 FO
  24   24 3687 4413 FO
  24   24 3700 4412 FO
  24   24 3714 4412 FO
  24   24 3727 4410 FO
  24   24 3740 4407 FO
  24   24 3753 4409 FO
  24   24 3766 4408 FO
  24   24 3780 4406 FO
  24   24 3793 4405 FO
  24   24 3806 4403 FO
  24   24 3819 4402 FO
  24   24 3833 4401 FO
  24   24 3846 4399 FO
  24   24 3859 4398 FO
  24   24 3872 4397 FO
  24   24 3885 4396 FO
  24   24 3899 4396 FO
  24   24 3912 4394 FO
  24   24 3925 4393 FO
  24   24 3938 4393 FO
  24   24 3952 4391 FO
  24   24 3965 4391 FO
  24   24 3978 4389 FO
  24   24 3991 4389 FO
  24   24 4004 4388 FO
  24   24 4018 4386 FO
  24   24 4031 4386 FO
  24   24 4044 4385 FO
  24   24 4057 4384 FO
  24   24 4070 4382 FO
  24   24 4084 4382 FO
  24   24 4097 4381 FO
  24   24 4110 4380 FO
  24   24 4123 4379 FO
  24   24 4137 4377 FO
  24   24 4150 4376 FO
  24   24 4163 4375 FO
  24   24 4176 4374 FO
  24   24 4189 4374 FO
  24   24 4203 4373 FO
  24   24 4216 4372 FO
  24   24 4229 4370 FO
  24   24 4242 4370 FO
  24   24 4255 4369 FO
  24   24 4269 4368 FO
  24   24 4282 4367 FO
  24   24 4295 4367 FO
  24   24 4308 4365 FO
  24   24 4322 4365 FO
  24   24 4335 4363 FO
  24   24 4348 4362 FO
  24   24 4361 4361 FO
  24   24 4374 4360 FO
  24   24 4388 4359 FO
  24   24 4401 4358 FO
  24   24 4414 4356 FO
  24   24 4427 4355 FO
  24   24 4441 4354 FO
  24   24 4454 4353 FO
  24   24 4467 4353 FO
  24   24 4480 4350 FO
  24   24 4493 4350 FO
  24   24 4507 4349 FO
  24   24 4520 4348 FO
  24   24 4533 4347 FO
  24   24 4546 4346 FO
  24   24 4559 4345 FO
  24   24 4573 4344 FO
  24   24 4586 4343 FO
  24   24 4599 4341 FO
  24   24 4612 4342 FO
  24   24 4626 4339 FO
  24   24 4639 4338 FO
  24   24 4652 4337 FO
  24   24 4665 4336 FO
  24   24 4678 4336 FO
  24   24 4692 4336 FO
  24   24 4705 4335 FO
  24   24 4718 4333 FO
  24   24 4731 4332 FO
  24   24 4745 4331 FO
  24   24 4758 4330 FO
  24   24 4771 4329 FO
  24   24 4784 4329 FO
  24   24 4797 4329 FO
  24   24 4811 4327 FO
  24   24 4824 4327 FO
  24   24 4837 4327 FO
  24   24 4850 4325 FO
  24   24 4863 4324 FO
  24   24 4877 4325 FO
  24   24 4890 4322 FO
  24   24 4903 4323 FO
  24   24 4916 4321 FO
  24   24 4930 4320 FO
  24   24 4943 4319 FO
  24   24 4956 4317 FO
  24   24 4969 4317 FO
  24   24 4982 4316 FO
  24   24 4996 4316 FO
  24   24 5009 4314 FO
  24   24 5022 4312 FO
  24   24 5035 4311 FO
  24   24 5048 4310 FO
  24   24 5062 4310 FO
  24   24 5075 4309 FO
  24   24 5088 4308 FO
  24   24 5101 4307 FO
  24   24 5115 4305 FO
gs 899 389 5357 4227 rc
gr

0 sg
3524 4944 mt 
(N) s
 537 3279 mt  -90 rotate
(Time per step \(seconds\)) s
90 rotate
1977  275 mt 
(Time of the Runs per Step vs. Number of Particles) s
gs 899 389 5357 4227 rc
/c10 { 1.000000 0.000000 0.000000 sr} bdef
c10
1 0 1 0 1 0 1 0 1 -1 1 0 1 0 1 0 
1 0 1 0 1 0 1 0 1 0 1 0 1 0 1 0 
1 0 1 -1 1 0 1 0 1 0 1 0 1 0 1 0 
1 0 1 0 1 0 1 0 1 0 1 0 1 0 1 -1 
1 0 1 0 1 0 1 0 1 0 1 0 1 0 1 0 
1 0 1 0 1 0 1 0 1 0 1 -1 1 0 1 0 
1 0 1 0 1 0 1 0 1 0 1 0 1 0 1 0 
1 0 1 0 1 -1 1 0 1 0 1 0 1 0 1 0 
1 0 1 0 1 0 1 0 1 0 1 0 1 0 1 0 
1 -1 1 0 1 0 1 0 1 0 1 0 1 0 1 0 
1 0 1 0 1 0 1 0 1 0 1 -1 1 0 1 0 
1 0 1 0 1 0 1 0 1 0 1 0 1 0 1 0 
1 0 1 0 1 0 1 -1 1 0 1 0 1 0 1 0 
1 0 1 0 1 0 1 0 1 0 1 0 1 0 1 0 
1 0 1 -1 1 0 1 0 1 0 1 0 1 0 1 0 
1 0 1 0 1 0 1 0 1 0 1 0 1 -1 1 0 
1 0 1 0 1 0 1 0 1 0 1 0 1 0 1 0 
1 0 1 0 1 0 1 0 1 -1 1 0 1 0 1 0 
1 0 1 0 1 0 1 0 1 0 1 0 1 0 1 0 
1 0 1 0 1 -1 1 0 1 0 1 0 1 0 1 0 
1 0 1 0 1 0 1 0 1 0 1 0 1 0 1 0 
1 -1 1 0 1 0 1 0 1 0 1 0 1 0 1 0 
1 0 1 0 1 0 1 0 1 0 1 -1 1 0 1 0 
1 0 1 0 1 0 1 0 1 0 1 0 1 0 1 0 
1 0 1 0 1 0 1 -1 1 0 1 0 1 0 1 0 
1 0 1 0 1 0 1 0 1 0 1 0 1 0 1 0 
1 0 1 -1 1 0 1 0 1 0 1 0 1 0 1 0 
1 0 1 0 1 0 1 0 1 0 1 0 1 -1 1 0 
1 0 1 0 1 0 1 0 1 0 1 0 1 0 1 0 
1 0 1 0 1 0 1 0 1 -1 1 0 1 0 1 0 
1 0 1 0 1 0 1 0 1 0 1 0 1 0 1 0 
1 0 1 -1 1 0 1 0 1 0 1 0 1 0 1 0 
1 0 1 0 1 0 1 0 1 0 1 0 1 0 1 -1 
1 0 1 0 1 0 1 0 1 0 1 0 1 0 1 0 
1 0 1 0 1 0 1 0 1 0 1 -1 1 0 1 0 
1 0 1 0 1 0 1 0 1 0 1 0 1 0 1 0 
1 0 1 0 1 -1 1 0 1 0 1 0 1 0 1 0 
1 0 1 0 1 0 5542 4275 300 MP stroke
1 0 1 0 1 0 1 0 1 0 1 -1 1 0 1 0 
1 0 1 0 1 0 1 0 1 0 1 0 1 0 1 0 
1 0 1 0 1 0 1 -1 1 0 1 0 1 0 1 0 
1 0 1 0 1 0 1 0 1 0 1 0 1 0 1 0 
1 -1 1 0 1 0 1 0 1 0 1 0 1 0 1 0 
1 0 1 0 1 0 1 0 1 0 1 0 1 -1 1 0 
1 0 1 0 1 0 1 0 1 0 1 0 1 0 1 0 
1 0 1 0 1 0 1 -1 1 0 1 0 1 0 1 0 
1 0 1 0 1 0 1 0 1 0 1 0 1 0 1 0 
1 0 1 -1 1 0 1 0 1 0 1 0 1 0 1 0 
1 0 1 0 1 0 1 0 1 0 1 0 1 0 1 -1 
1 0 1 0 1 0 1 0 1 0 1 0 1 0 1 0 
1 0 1 0 1 0 1 0 1 0 1 -1 1 0 1 0 
1 0 1 0 1 0 1 0 1 0 1 0 1 0 1 0 
1 0 1 0 1 -1 1 0 1 0 1 0 1 0 1 0 
1 0 1 0 1 0 1 0 1 0 1 0 1 0 1 0 
1 -1 1 0 1 0 1 0 1 0 1 0 1 0 1 0 
1 0 1 0 1 0 1 0 1 0 1 0 1 -1 1 0 
1 0 1 0 1 0 1 0 1 0 1 0 1 0 1 0 
1 0 1 0 1 0 1 -1 1 0 1 0 1 0 1 0 
1 0 1 0 1 0 1 0 1 0 1 0 1 0 1 0 
1 0 1 -1 1 0 1 0 1 0 1 0 1 0 1 0 
1 0 1 0 1 0 1 0 1 0 1 0 1 0 1 -1 
1 0 1 0 1 0 1 0 1 0 1 0 1 0 1 0 
1 0 1 0 1 0 1 0 1 -1 1 0 1 0 1 0 
1 0 1 0 1 0 1 0 1 0 1 0 1 0 1 0 
1 0 1 0 1 -1 1 0 1 0 1 0 1 0 1 0 
1 0 1 0 1 0 1 0 1 0 1 0 1 0 1 -1 
1 0 1 0 1 0 1 0 1 0 1 0 1 0 1 0 
1 0 1 0 1 0 1 0 1 0 1 -1 1 0 1 0 
1 0 1 0 1 0 1 0 1 0 1 0 1 0 1 0 
1 0 1 0 1 0 1 -1 1 0 1 0 1 0 1 0 
1 0 1 0 1 0 1 0 1 0 1 0 1 0 1 0 
1 -1 1 0 1 0 1 0 1 0 1 0 1 0 1 0 
1 0 1 0 1 0 1 0 1 0 1 0 1 -1 1 0 
1 0 1 0 1 0 1 0 1 0 1 0 1 0 1 0 
1 0 1 0 1 0 1 0 1 -1 1 0 1 0 1 0 
1 0 1 0 1 0 5243 4297 300 MP stroke
1 0 1 0 1 0 1 0 1 0 1 0 1 0 1 -1 
1 0 1 0 1 0 1 0 1 0 1 0 1 0 1 0 
1 0 1 0 1 0 1 0 1 -1 1 0 1 0 1 0 
1 0 1 0 1 0 1 0 1 0 1 0 1 0 1 0 
1 0 1 0 1 -1 1 0 1 0 1 0 1 0 1 0 
1 0 1 0 1 0 1 0 1 0 1 0 1 0 1 -1 
1 0 1 0 1 0 1 0 1 0 1 0 1 0 1 0 
1 0 1 0 1 0 1 0 1 0 1 -1 1 0 1 0 
1 0 1 0 1 0 1 0 1 0 1 0 1 0 1 0 
1 0 1 0 1 0 1 -1 1 0 1 0 1 0 1 0 
1 0 1 0 1 0 1 0 1 0 1 0 1 0 1 0 
1 -1 1 0 1 0 1 0 1 0 1 0 1 0 1 0 
1 0 1 0 1 0 1 0 1 0 1 0 1 -1 1 0 
1 0 1 0 1 0 1 0 1 0 1 0 1 0 1 0 
1 0 1 0 1 0 1 0 1 -1 1 0 1 0 1 0 
1 0 1 0 1 0 1 0 1 0 1 0 1 0 1 0 
1 0 1 -1 1 0 1 0 1 0 1 0 1 0 1 0 
1 0 1 0 1 0 1 0 1 0 1 0 1 0 1 -1 
1 0 1 0 1 0 1 0 1 0 1 0 1 0 1 0 
1 0 1 0 1 0 1 0 1 0 1 -1 1 0 1 0 
1 0 1 0 1 0 1 0 1 0 1 0 1 0 1 0 
1 0 1 0 1 -1 1 0 1 0 1 0 1 0 1 0 
1 0 1 0 1 0 1 0 1 0 1 0 1 0 1 0 
1 -1 1 0 1 0 1 0 1 0 1 0 1 0 1 0 
1 0 1 0 1 0 1 0 1 0 1 0 1 -1 1 0 
1 0 1 0 1 0 1 0 1 0 1 0 1 0 1 0 
1 0 1 0 1 0 1 -1 1 0 1 0 1 0 1 0 
1 0 1 0 1 0 1 0 1 0 1 0 1 0 1 0 
1 0 1 -1 1 0 1 0 1 0 1 0 1 0 1 0 
1 0 1 0 1 0 1 0 1 0 1 0 1 0 1 -1 
1 0 1 0 1 0 1 0 1 0 1 0 1 0 1 0 
1 0 1 0 1 0 1 0 1 -1 1 0 1 0 1 0 
1 0 1 0 1 0 1 0 1 0 1 0 1 0 1 0 
1 0 1 0 1 -1 1 0 1 0 1 0 1 0 1 0 
1 0 1 0 1 0 1 0 1 0 1 0 1 0 1 0 
1 -1 1 0 1 0 1 0 1 0 1 0 1 0 1 0 
1 0 1 0 1 0 1 0 1 0 1 -1 1 0 1 0 
1 0 1 0 1 0 4944 4319 300 MP stroke
1 0 1 0 1 0 1 0 1 0 1 0 1 0 1 0 
1 -1 1 0 1 0 1 0 1 0 1 0 1 0 1 0 
1 0 1 0 1 0 1 0 1 0 1 -1 1 0 1 0 
1 0 1 0 1 0 1 0 1 0 1 0 1 0 1 0 
1 0 1 0 1 0 1 -1 1 0 1 0 1 0 1 0 
1 0 1 0 1 0 1 0 1 0 1 0 1 0 1 0 
1 0 1 -1 1 0 1 0 1 0 1 0 1 0 1 0 
1 0 1 0 1 0 1 0 1 0 1 0 1 -1 1 0 
1 0 1 0 1 0 1 0 1 0 1 0 1 0 1 0 
1 0 1 0 1 0 1 0 1 -1 1 0 1 0 1 0 
1 0 1 0 1 0 1 0 1 0 1 0 1 0 1 0 
1 0 1 0 1 -1 1 0 1 0 1 0 1 0 1 0 
1 0 1 0 1 0 1 0 1 0 1 0 1 0 1 0 
1 -1 1 0 1 0 1 0 1 0 1 0 1 0 1 0 
1 0 1 0 1 0 1 0 1 0 1 -1 1 0 1 0 
1 0 1 0 1 0 1 0 1 0 1 0 1 0 1 0 
1 0 1 0 1 0 1 -1 1 0 1 0 1 0 1 0 
1 0 1 0 1 0 1 0 1 0 1 0 1 0 1 0 
1 0 1 -1 1 0 1 0 1 0 1 0 1 0 1 0 
1 0 1 0 1 0 1 0 1 0 1 0 1 -1 1 0 
1 0 1 0 1 0 1 0 1 0 1 0 1 0 1 0 
1 0 1 0 1 0 1 0 1 -1 1 0 1 0 1 0 
1 0 1 0 1 0 1 0 1 0 1 0 1 0 1 0 
1 0 1 -1 1 0 1 0 1 0 1 0 1 0 1 0 
1 0 1 0 1 0 1 0 1 0 1 0 1 0 1 -1 
1 0 1 0 1 0 1 0 1 0 1 0 1 0 1 0 
1 0 1 0 1 0 1 0 1 0 1 -1 1 0 1 0 
1 0 1 0 1 0 1 0 1 0 1 0 1 0 1 0 
1 0 1 0 1 -1 1 0 1 0 1 0 1 0 1 0 
1 0 1 0 1 0 1 0 1 0 1 0 1 0 1 0 
1 -1 1 0 1 0 1 0 1 0 1 0 1 0 1 0 
1 0 1 0 1 0 1 0 1 0 1 0 1 -1 1 0 
1 0 1 0 1 0 1 0 1 0 1 0 1 0 1 0 
1 0 1 0 1 0 1 -1 1 0 1 0 1 0 1 0 
1 0 1 0 1 0 1 0 1 0 1 0 1 0 1 0 
1 0 1 -1 1 0 1 0 1 0 1 0 1 0 1 0 
1 0 1 0 1 0 1 0 1 0 1 0 1 0 1 -1 
1 0 1 0 1 0 4645 4341 300 MP stroke
1 0 1 0 1 0 1 0 1 0 1 0 1 0 1 0 
1 0 1 0 1 -1 1 0 1 0 1 0 1 0 1 0 
1 0 1 0 1 0 1 0 1 0 1 0 1 0 1 -1 
1 0 1 0 1 0 1 0 1 0 1 0 1 0 1 0 
1 0 1 0 1 0 1 0 1 0 1 -1 1 0 1 0 
1 0 1 0 1 0 1 0 1 0 1 0 1 0 1 0 
1 0 1 0 1 -1 1 0 1 0 1 0 1 0 1 0 
1 0 1 0 1 0 1 0 1 0 1 0 1 0 1 0 
1 -1 1 0 1 0 1 0 1 0 1 0 1 0 1 0 
1 0 1 0 1 0 1 0 1 0 1 0 1 -1 1 0 
1 0 1 0 1 0 1 0 1 0 1 0 1 0 1 0 
1 0 1 0 1 0 1 -1 1 0 1 0 1 0 1 0 
1 0 1 0 1 0 1 0 1 0 1 0 1 0 1 0 
1 0 1 -1 1 0 1 0 1 0 1 0 1 0 1 0 
1 0 1 0 1 0 1 0 1 0 1 0 1 0 1 -1 
1 0 1 0 1 0 1 0 1 0 1 0 1 0 1 0 
1 0 1 0 1 0 1 0 1 -1 1 0 1 0 1 0 
1 0 1 0 1 0 1 0 1 0 1 0 1 0 1 0 
1 0 1 0 1 -1 1 0 1 0 1 0 1 0 1 0 
1 0 1 0 1 0 1 0 1 0 1 0 1 0 1 -1 
1 0 1 0 1 0 1 0 1 0 1 0 1 0 1 0 
1 0 1 0 1 0 1 0 1 0 1 -1 1 0 1 0 
1 0 1 0 1 0 1 0 1 0 1 0 1 0 1 0 
1 0 1 0 1 0 1 -1 1 0 1 0 1 0 1 0 
1 0 1 0 1 0 1 0 1 0 1 0 1 0 1 0 
1 0 1 -1 1 0 1 0 1 0 1 0 1 0 1 0 
1 0 1 0 1 0 1 0 1 0 1 0 1 -1 1 0 
1 0 1 0 1 0 1 0 1 0 1 0 1 0 1 0 
1 0 1 0 1 0 1 0 1 -1 1 0 1 0 1 0 
1 0 1 0 1 0 1 0 1 0 1 0 1 0 1 0 
1 0 1 0 1 -1 1 0 1 0 1 0 1 0 1 0 
1 0 1 0 1 0 1 0 1 0 1 0 1 0 1 -1 
1 0 1 0 1 0 1 0 1 0 1 0 1 0 1 0 
1 0 1 0 1 0 1 0 1 0 1 -1 1 0 1 0 
1 0 1 0 1 0 1 0 1 0 1 0 1 0 1 0 
1 0 1 0 1 0 1 -1 1 0 1 0 1 0 1 0 
1 0 1 0 1 0 1 0 1 0 1 0 1 0 1 0 
1 -1 1 0 1 0 4346 4363 300 MP stroke
1 0 1 0 1 0 1 0 1 0 1 0 1 0 1 0 
1 0 1 0 1 0 1 -1 1 0 1 0 1 0 1 0 
1 0 1 0 1 0 1 0 1 0 1 0 1 0 1 0 
1 -1 1 0 1 0 1 0 1 0 1 0 1 0 1 0 
1 0 1 0 1 0 1 0 1 0 1 0 1 -1 1 0 
1 0 1 0 1 0 1 0 1 0 1 0 1 0 1 0 
1 0 1 0 1 0 1 0 1 -1 1 0 1 0 1 0 
1 0 1 0 1 0 1 0 1 0 1 0 1 0 1 0 
1 0 1 -1 1 0 1 0 1 0 1 0 1 0 1 0 
1 0 1 0 1 0 1 0 1 0 1 0 1 0 1 -1 
1 0 1 0 1 0 1 0 1 0 1 0 1 0 1 0 
1 0 1 0 1 0 1 0 1 0 1 -1 1 0 1 0 
1 0 1 0 1 0 1 0 1 0 1 0 1 0 1 0 
1 0 1 0 1 0 1 -1 1 0 1 0 1 0 1 0 
1 0 1 0 1 0 1 0 1 0 1 0 1 0 1 0 
1 -1 1 0 1 0 1 0 1 0 1 0 1 0 1 0 
1 0 1 0 1 0 1 0 1 0 1 0 1 -1 1 0 
1 0 1 0 1 0 1 0 1 0 1 0 1 0 1 0 
1 0 1 0 1 0 1 -1 1 0 1 0 1 0 1 0 
1 0 1 0 1 0 1 0 1 0 1 0 1 0 1 0 
1 0 1 -1 1 0 1 0 1 0 1 0 1 0 1 0 
1 0 1 0 1 0 1 0 1 0 1 0 1 0 1 -1 
1 0 1 0 1 0 1 0 1 0 1 0 1 0 1 0 
1 0 1 0 1 0 1 0 1 -1 1 0 1 0 1 0 
1 0 1 0 1 0 1 0 1 0 1 0 1 0 1 0 
1 0 1 0 1 -1 1 0 1 0 1 0 1 0 1 0 
1 0 1 0 1 0 1 0 1 0 1 0 1 0 1 0 
1 -1 1 0 1 0 1 0 1 0 1 0 1 0 1 0 
1 0 1 0 1 0 1 0 1 0 1 -1 1 0 1 0 
1 0 1 0 1 0 1 0 1 0 1 0 1 0 1 0 
1 0 1 0 1 0 1 -1 1 0 1 0 1 0 1 0 
1 0 1 0 1 0 1 0 1 0 1 0 1 0 1 0 
1 0 1 -1 1 0 1 0 1 0 1 0 1 0 1 0 
1 0 1 0 1 0 1 0 1 0 1 0 1 -1 1 0 
1 0 1 0 1 0 1 0 1 0 1 0 1 0 1 0 
1 0 1 0 1 0 1 0 1 -1 1 0 1 0 1 0 
1 0 1 0 1 0 1 0 1 0 1 0 1 0 1 0 
1 0 1 0 1 -1 4047 4385 300 MP stroke
1 0 1 0 1 0 1 0 1 0 1 0 1 0 1 0 
1 0 1 0 1 0 1 0 1 -1 1 0 1 0 1 0 
1 0 1 0 1 0 1 0 1 0 1 0 1 0 1 0 
1 0 1 0 1 -1 1 0 1 0 1 0 1 0 1 0 
1 0 1 0 1 0 1 0 1 0 1 0 1 0 1 0 
1 -1 1 0 1 0 1 0 1 0 1 0 1 0 1 0 
1 0 1 0 1 0 1 0 1 0 1 -1 1 0 1 0 
1 0 1 0 1 0 1 0 1 0 1 0 1 0 1 0 
1 0 1 0 1 0 1 -1 1 0 1 0 1 0 1 0 
1 0 1 0 1 0 1 0 1 0 1 0 1 0 1 0 
1 0 1 -1 1 0 1 0 1 0 1 0 1 0 1 0 
1 0 1 0 1 0 1 0 1 0 1 0 1 -1 1 0 
1 0 1 0 1 0 1 0 1 0 1 0 1 0 1 0 
1 0 1 0 1 0 1 0 1 -1 1 0 1 0 1 0 
1 0 1 0 1 0 1 0 1 0 1 0 1 0 1 0 
1 0 1 0 1 -1 1 0 1 0 1 0 1 0 1 0 
1 0 1 0 1 0 1 0 1 0 1 0 1 0 1 -1 
1 0 1 0 1 0 1 0 1 0 1 0 1 0 1 0 
1 0 1 0 1 0 1 0 1 0 1 -1 1 0 1 0 
1 0 1 0 1 0 1 0 1 0 1 0 1 0 1 0 
1 0 1 0 1 -1 1 0 1 0 1 0 1 0 1 0 
1 0 1 0 1 0 1 0 1 0 1 0 1 0 1 0 
1 -1 1 0 1 0 1 0 1 0 1 0 1 0 1 0 
1 0 1 0 1 0 1 0 1 0 1 0 1 -1 1 0 
1 0 1 0 1 0 1 0 1 0 1 0 1 0 1 0 
1 0 1 0 1 0 1 0 1 -1 1 0 1 0 1 0 
1 0 1 0 1 0 1 0 1 0 1 0 1 0 1 0 
1 0 1 -1 1 0 1 0 1 0 1 0 1 0 1 0 
1 0 1 0 1 0 1 0 1 0 1 0 1 0 1 -1 
1 0 1 0 1 0 1 0 1 0 1 0 1 0 1 0 
1 0 1 0 1 0 1 0 1 0 1 -1 1 0 1 0 
1 0 1 0 1 0 1 0 1 0 1 0 1 0 1 0 
1 0 1 0 1 -1 1 0 1 0 1 0 1 0 1 0 
1 0 1 0 1 0 1 0 1 0 1 0 1 0 1 0 
1 -1 1 0 1 0 1 0 1 0 1 0 1 0 1 0 
1 0 1 0 1 0 1 0 1 0 1 -1 1 0 1 0 
1 0 1 0 1 0 1 0 1 0 1 0 1 0 1 0 
1 0 1 0 1 0 3748 4406 300 MP stroke
1 -1 1 0 1 0 1 0 1 0 1 0 1 0 1 0 
1 0 1 0 1 0 1 0 1 0 1 0 1 -1 1 0 
1 0 1 0 1 0 1 0 1 0 1 0 1 0 1 0 
1 0 1 0 1 0 1 -1 1 0 1 0 1 0 1 0 
1 0 1 0 1 0 1 0 1 0 1 0 1 0 1 0 
1 0 1 -1 1 0 1 0 1 0 1 0 1 0 1 0 
1 0 1 0 1 0 1 0 1 0 1 0 1 0 1 -1 
1 0 1 0 1 0 1 0 1 0 1 0 1 0 1 0 
1 0 1 0 1 0 1 0 1 -1 1 0 1 0 1 0 
1 0 1 0 1 0 1 0 1 0 1 0 1 0 1 0 
1 0 1 0 1 -1 1 0 1 0 1 0 1 0 1 0 
1 0 1 0 1 0 1 0 1 0 1 0 1 0 1 0 
1 -1 1 0 1 0 1 0 1 0 1 0 1 0 1 0 
1 0 1 0 1 0 1 0 1 0 1 0 1 -1 1 0 
1 0 1 0 1 0 1 0 1 0 1 0 1 0 1 0 
1 0 1 0 1 0 1 -1 1 0 1 0 1 0 1 0 
1 0 1 0 1 0 1 0 1 0 1 0 1 0 1 0 
1 0 1 -1 1 0 1 0 1 0 1 0 1 0 1 0 
1 0 1 0 1 0 1 0 1 0 1 0 1 -1 1 0 
1 0 1 0 1 0 1 0 1 0 1 0 1 0 1 0 
1 0 1 0 1 0 1 0 1 -1 1 0 1 0 1 0 
1 0 1 0 1 0 1 0 1 0 1 0 1 0 1 0 
1 0 1 0 1 -1 1 0 1 0 1 0 1 0 1 0 
1 0 1 0 1 0 1 0 1 0 1 0 1 0 1 -1 
1 0 1 0 1 0 1 0 1 0 1 0 1 0 1 0 
1 0 1 0 1 0 1 0 1 0 1 -1 1 0 1 0 
1 0 1 0 1 0 1 0 1 0 1 0 1 0 1 0 
1 0 1 0 1 0 1 -1 1 0 1 0 1 0 1 0 
1 0 1 0 1 0 1 0 1 0 1 0 1 0 1 0 
1 -1 1 0 1 0 1 0 1 0 1 0 1 0 1 0 
1 0 1 0 1 0 1 0 1 0 1 0 1 -1 1 0 
1 0 1 0 1 0 1 0 1 0 1 0 1 0 1 0 
1 0 1 0 1 0 1 -1 1 0 1 0 1 0 1 0 
1 0 1 0 1 0 1 0 1 0 1 0 1 0 1 0 
1 0 1 -1 1 0 1 0 1 0 1 0 1 0 1 0 
1 0 1 0 1 0 1 0 1 0 1 0 1 0 1 -1 
1 0 1 0 1 0 1 0 1 0 1 0 1 0 1 0 
1 0 1 0 1 0 3449 4428 300 MP stroke
1 0 1 -1 1 0 1 0 1 0 1 0 1 0 1 0 
1 0 1 0 1 0 1 0 1 0 1 0 1 0 1 -1 
1 0 1 0 1 0 1 0 1 0 1 0 1 0 1 0 
1 0 1 0 1 0 1 0 1 0 1 -1 1 0 1 0 
1 0 1 0 1 0 1 0 1 0 1 0 1 0 1 0 
1 0 1 0 1 0 1 -1 1 0 1 0 1 0 1 0 
1 0 1 0 1 0 1 0 1 0 1 0 1 0 1 0 
1 -1 1 0 1 0 1 0 1 0 1 0 1 0 1 0 
1 0 1 0 1 0 1 0 1 0 1 0 1 -1 1 0 
1 0 1 0 1 0 1 0 1 0 1 0 1 0 1 0 
1 0 1 0 1 0 1 0 1 -1 1 0 1 0 1 0 
1 0 1 0 1 0 1 0 1 0 1 0 1 0 1 0 
1 0 1 -1 1 0 1 0 1 0 1 0 1 0 1 0 
1 0 1 0 1 0 1 0 1 0 1 0 1 0 1 -1 
1 0 1 0 1 0 1 0 1 0 1 0 1 0 1 0 
1 0 1 0 1 0 1 0 1 -1 1 0 1 0 1 0 
1 0 1 0 1 0 1 0 1 0 1 0 1 0 1 0 
1 0 1 0 1 -1 1 0 1 0 1 0 1 0 1 0 
1 0 1 0 1 0 1 0 1 0 1 0 1 0 1 0 
1 -1 1 0 1 0 1 0 1 0 1 0 1 0 1 0 
1 0 1 0 1 0 1 0 1 0 1 -1 1 0 1 0 
1 0 1 0 1 0 1 0 1 0 1 0 1 0 1 0 
1 0 1 0 1 0 1 -1 1 0 1 0 1 0 1 0 
1 0 1 0 1 0 1 0 1 0 1 0 1 0 1 0 
1 0 1 -1 1 0 1 0 1 0 1 0 1 0 1 0 
1 0 1 0 1 0 1 0 1 0 1 0 1 -1 1 0 
1 0 1 0 1 0 1 0 1 0 1 0 1 0 1 0 
1 0 1 0 1 0 1 0 1 -1 1 0 1 0 1 0 
1 0 1 0 1 0 1 0 1 0 1 0 1 0 1 0 
1 0 1 0 1 -1 1 0 1 0 1 0 1 0 1 0 
1 0 1 0 1 0 1 0 1 0 1 0 1 0 1 0 
1 -1 1 0 1 0 1 0 1 0 1 0 1 0 1 0 
1 0 1 0 1 0 1 0 1 0 1 -1 1 0 1 0 
1 0 1 0 1 0 1 0 1 0 1 0 1 0 1 0 
1 0 1 0 1 0 1 -1 1 0 1 0 1 0 1 0 
1 0 1 0 1 0 1 0 1 0 1 0 1 0 1 0 
1 -1 1 0 1 0 1 0 1 0 1 0 1 0 1 0 
1 0 1 0 1 0 3150 4450 300 MP stroke
1 0 1 0 1 0 1 -1 1 0 1 0 1 0 1 0 
1 0 1 0 1 0 1 0 1 0 1 0 1 0 1 0 
1 0 1 -1 1 0 1 0 1 0 1 0 1 0 1 0 
1 0 1 0 1 0 1 0 1 0 1 0 1 -1 1 0 
1 0 1 0 1 0 1 0 1 0 1 0 1 0 1 0 
1 0 1 0 1 0 1 0 1 -1 1 0 1 0 1 0 
1 0 1 0 1 0 1 0 1 0 1 0 1 0 1 0 
1 0 1 0 1 -1 1 0 1 0 1 0 1 0 1 0 
1 0 1 0 1 0 1 0 1 0 1 0 1 0 1 -1 
1 0 1 0 1 0 1 0 1 0 1 0 1 0 1 0 
1 0 1 0 1 0 1 0 1 0 1 -1 1 0 1 0 
1 0 1 0 1 0 1 0 1 0 1 0 1 0 1 0 
1 0 1 0 1 -1 1 0 1 0 1 0 1 0 1 0 
1 0 1 0 1 0 1 0 1 0 1 0 1 0 1 0 
1 -1 1 0 1 0 1 0 1 0 1 0 1 0 1 0 
1 0 1 0 1 0 1 0 1 0 1 0 1 -1 1 0 
1 0 1 0 1 0 1 0 1 0 1 0 1 0 1 0 
1 0 1 0 1 0 1 0 1 -1 1 0 1 0 1 0 
1 0 1 0 1 0 1 0 1 0 1 0 1 0 1 0 
1 0 1 -1 1 0 1 0 1 0 1 0 1 0 1 0 
1 0 1 0 1 0 1 0 1 0 1 0 1 0 1 -1 
1 0 1 0 1 0 1 0 1 0 1 0 1 0 1 0 
1 0 1 0 1 0 1 0 1 0 1 -1 1 0 1 0 
1 0 1 0 1 0 1 0 1 0 1 0 1 0 1 0 
1 0 1 0 1 -1 1 0 1 0 1 0 1 0 1 0 
1 0 1 0 1 0 1 0 1 0 1 0 1 0 1 0 
1 -1 1 0 1 0 1 0 1 0 1 0 1 0 1 0 
1 0 1 0 1 0 1 0 1 0 1 0 1 -1 1 0 
1 0 1 0 1 0 1 0 1 0 1 0 1 0 1 0 
1 0 1 0 1 0 1 -1 1 0 1 0 1 0 1 0 
1 0 1 0 1 0 1 0 1 0 1 0 1 0 1 0 
1 0 1 -1 1 0 1 0 1 0 1 0 1 0 1 0 
1 0 1 0 1 0 1 0 1 0 1 0 1 -1 1 0 
1 0 1 0 1 0 1 0 1 0 1 0 1 0 1 0 
1 0 1 0 1 0 1 0 1 -1 1 0 1 0 1 0 
1 0 1 0 1 0 1 0 1 0 1 0 1 0 1 0 
1 0 1 0 1 -1 1 0 1 0 1 0 1 0 1 0 
1 0 1 0 1 0 2851 4472 300 MP stroke
1 0 1 0 1 0 1 0 1 -1 1 0 1 0 1 0 
1 0 1 0 1 0 1 0 1 0 1 0 1 0 1 0 
1 0 1 0 1 -1 1 0 1 0 1 0 1 0 1 0 
1 0 1 0 1 0 1 0 1 0 1 0 1 0 1 0 
1 -1 1 0 1 0 1 0 1 0 1 0 1 0 1 0 
1 0 1 0 1 0 1 0 1 0 1 0 1 -1 1 0 
1 0 1 0 1 0 1 0 1 0 1 0 1 0 1 0 
1 0 1 0 1 0 1 -1 1 0 1 0 1 0 1 0 
1 0 1 0 1 0 1 0 1 0 1 0 1 0 1 0 
1 0 1 -1 1 0 1 0 1 0 1 0 1 0 1 0 
1 0 1 0 1 0 1 0 1 0 1 0 1 -1 1 0 
1 0 1 0 1 0 1 0 1 0 1 0 1 0 1 0 
1 0 1 0 1 0 1 0 1 -1 1 0 1 0 1 0 
1 0 1 0 1 0 1 0 1 0 1 0 1 0 1 0 
1 0 1 0 1 -1 1 0 1 0 1 0 1 0 1 0 
1 0 1 0 1 0 1 0 1 0 1 0 1 0 1 -1 
1 0 1 0 1 0 1 0 1 0 1 0 1 0 1 0 
1 0 1 0 1 0 1 0 1 0 1 -1 1 0 1 0 
1 0 1 0 1 0 1 0 1 0 1 0 1 0 1 0 
1 0 1 0 1 0 1 -1 1 0 1 0 1 0 1 0 
1 0 1 0 1 0 1 0 1 0 1 0 1 0 1 0 
1 -1 1 0 1 0 1 0 1 0 1 0 1 0 1 0 
1 0 1 0 1 0 1 0 1 0 1 0 1 -1 1 0 
1 0 1 0 1 0 1 0 1 0 1 0 1 0 1 0 
1 0 1 0 1 0 1 0 1 -1 1 0 1 0 1 0 
1 0 1 0 1 0 1 0 1 0 1 0 1 0 1 0 
1 0 1 -1 1 0 1 0 1 0 1 0 1 0 1 0 
1 0 1 0 1 0 1 0 1 0 1 0 1 0 1 -1 
1 0 1 0 1 0 1 0 1 0 1 0 1 0 1 0 
1 0 1 0 1 0 1 0 1 0 1 -1 1 0 1 0 
1 0 1 0 1 0 1 0 1 0 1 0 1 0 1 0 
1 0 1 0 1 -1 1 0 1 0 1 0 1 0 1 0 
1 0 1 0 1 0 1 0 1 0 1 0 1 0 1 0 
1 -1 1 0 1 0 1 0 1 0 1 0 1 0 1 0 
1 0 1 0 1 0 1 0 1 0 1 0 1 -1 1 0 
1 0 1 0 1 0 1 0 1 0 1 0 1 0 1 0 
1 0 1 0 1 0 1 -1 1 0 1 0 1 0 1 0 
1 0 1 0 1 0 2552 4494 300 MP stroke
1 0 1 0 1 0 1 0 1 0 1 0 1 -1 1 0 
1 0 1 0 1 0 1 0 1 0 1 0 1 0 1 0 
1 0 1 0 1 0 1 0 1 -1 1 0 1 0 1 0 
1 0 1 0 1 0 1 0 1 0 1 0 1 0 1 0 
1 0 1 -1 1 0 1 0 1 0 1 0 1 0 1 0 
1 0 1 0 1 0 1 0 1 0 1 0 1 0 1 -1 
1 0 1 0 1 0 1 0 1 0 1 0 1 0 1 0 
1 0 1 0 1 0 1 0 1 -1 1 0 1 0 1 0 
1 0 1 0 1 0 1 0 1 0 1 0 1 0 1 0 
1 0 1 0 1 -1 1 0 1 0 1 0 1 0 1 0 
1 0 1 0 1 0 1 0 1 0 1 0 1 0 1 0 
1 -1 1 0 1 0 1 0 1 0 1 0 1 0 1 0 
1 0 1 0 1 0 1 0 1 0 1 -1 1 0 1 0 
1 0 1 0 1 0 1 0 1 0 1 0 1 0 1 0 
1 0 1 0 1 0 1 -1 1 0 1 0 1 0 1 0 
1 0 1 0 1 0 1 0 1 0 1 0 1 0 1 0 
1 0 1 -1 1 0 1 0 1 0 1 0 1 0 1 0 
1 0 1 0 1 0 1 0 1 0 1 0 1 0 1 -1 
1 0 1 0 1 0 1 0 1 0 1 0 1 0 1 0 
1 0 1 0 1 0 1 0 1 -1 1 0 1 0 1 0 
1 0 1 0 1 0 1 0 1 0 1 0 1 0 1 0 
1 0 1 0 1 -1 1 0 1 0 1 0 1 0 1 0 
1 0 1 0 1 0 1 0 1 0 1 0 1 0 1 0 
1 -1 1 0 1 0 1 0 1 0 1 0 1 0 1 0 
1 0 1 0 1 0 1 0 1 0 1 -1 1 0 1 0 
1 0 1 0 1 0 1 0 1 0 1 0 1 0 1 0 
1 0 1 0 1 0 1 -1 1 0 1 0 1 0 1 0 
1 0 1 0 1 0 1 0 1 0 1 0 1 0 1 0 
1 -1 1 0 1 0 1 0 1 0 1 0 1 0 1 0 
1 0 1 0 1 0 1 0 1 0 1 0 1 -1 1 0 
1 0 1 0 1 0 1 0 1 0 1 0 1 0 1 0 
1 0 1 0 1 0 1 0 1 -1 1 0 1 0 1 0 
1 0 1 0 1 0 1 0 1 0 1 0 1 0 1 0 
1 0 1 -1 1 0 1 0 1 0 1 0 1 0 1 0 
1 0 1 0 1 0 1 0 1 0 1 0 1 0 1 -1 
1 0 1 0 1 0 1 0 1 0 1 0 1 0 1 0 
1 0 1 0 1 0 1 0 1 0 1 -1 1 0 1 0 
1 0 1 0 1 0 2253 4516 300 MP stroke
1 0 1 0 1 0 1 0 1 0 1 0 1 0 1 -1 
1 0 1 0 1 0 1 0 1 0 1 0 1 0 1 0 
1 0 1 0 1 0 1 0 1 0 1 -1 1 0 1 0 
1 0 1 0 1 0 1 0 1 0 1 0 1 0 1 0 
1 0 1 0 1 0 1 -1 1 0 1 0 1 0 1 0 
1 0 1 0 1 0 1 0 1 0 1 0 1 0 1 0 
1 0 1 -1 1 0 1 0 1 0 1 0 1 0 1 0 
1 0 1 0 1 0 1 0 1 0 1 0 1 -1 1 0 
1 0 1 0 1 0 1 0 1 0 1 0 1 0 1 0 
1 0 1 0 1 0 1 0 1 -1 1 0 1 0 1 0 
1 0 1 0 1 0 1 0 1 0 1 0 1 0 1 0 
1 0 1 -1 1 0 1 0 1 0 1 0 1 0 1 0 
1 0 1 0 1 0 1 0 1 0 1 0 1 0 1 -1 
1 0 1 0 1 0 1 0 1 0 1 0 1 0 1 0 
1 0 1 0 1 0 1 0 1 0 1 -1 1 0 1 0 
1 0 1 0 1 0 1 0 1 0 1 0 1 0 1 0 
1 0 1 0 1 -1 1 0 1 0 1 0 1 0 1 0 
1 0 1 0 1 0 1 0 1 0 1 0 1 0 1 0 
1 -1 1 0 1 0 1 0 1 0 1 0 1 0 1 0 
1 0 1 0 1 0 1 0 1 0 1 0 1 -1 1 0 
1 0 1 0 1 0 1 0 1 0 1 0 1 0 1 0 
1 0 1 0 1 0 1 -1 1 0 1 0 1 0 1 0 
1 0 1 0 1 0 1 0 1 0 1 0 1 0 1 0 
1 0 1 -1 1 0 1 0 1 0 1 0 1 0 1 0 
1 0 1 0 1 0 1 0 1 0 1 0 1 -1 1 0 
1 0 1 0 1 0 1 0 1 0 1 0 1 0 1 0 
1 0 1 0 1 0 1 0 1 -1 1 0 1 0 1 0 
1 0 1 0 1 0 1 0 1 0 1 0 1 0 1 0 
1 0 1 0 1 -1 1 0 1 0 1 0 1 0 1 0 
1 0 1 0 1 0 1 0 1 0 1 0 1 0 1 0 
1 -1 1 0 1 0 1 0 1 0 1 0 1 0 1 0 
1 0 1 0 1 0 1 0 1 0 1 -1 1 0 1 0 
1 0 1 0 1 0 1 0 1 0 1 0 1 0 1 0 
1 0 1 0 1 0 1 -1 1 0 1 0 1 0 1 0 
1 0 1 0 1 0 1 0 1 0 1 0 1 0 1 0 
1 0 1 -1 1 0 1 0 1 0 1 0 1 0 1 0 
1 0 1 0 1 0 1 0 1 0 1 0 1 -1 1 0 
1 0 1 0 1 0 1954 4538 300 MP stroke
1 0 1 0 1 0 1 0 1 0 1 0 1 0 1 0 
1 0 1 -1 1 0 1 0 1 0 1 0 1 0 1 0 
1 0 1 0 1 0 1 0 1 0 1 0 1 0 1 -1 
1 0 1 0 1 0 1 0 1 0 1 0 1 0 1 0 
1 0 1 0 1 0 1 0 1 -1 1 0 1 0 1 0 
1 0 1 0 1 0 1 0 1 0 1 0 1 0 1 0 
1 0 1 0 1 -1 1 0 1 0 1 0 1 0 1 0 
1 0 1 0 1 0 1 0 1 0 1 0 1 0 1 -1 
1 0 1 0 1 0 1 0 1 0 1 0 1 0 1 0 
1 0 1 0 1 0 1 0 1 0 1 -1 1 0 1 0 
1 0 1 0 1 0 1 0 1 0 1 0 1 0 1 0 
1 0 1 0 1 0 1 -1 1 0 1 0 1 0 1 0 
1 0 1 0 1 0 1 0 1 0 1 0 1 0 1 0 
1 -1 1 0 1 0 1 0 1 0 1 0 1 0 1 0 
1 0 1 0 1 0 1 0 1 0 1 0 1 -1 1 0 
1 0 1 0 1 0 1 0 1 0 1 0 1 0 1 0 
1 0 1 0 1 0 1 0 1 -1 1 0 1 0 1 0 
1 0 1 0 1 0 1 0 1 0 1 0 1 0 1 0 
1 0 1 0 1 -1 1 0 1 0 1 0 1 0 1 0 
1 0 1 0 1 0 1 0 1 0 1 0 1 0 1 -1 
1 0 1 0 1 0 1 0 1 0 1 0 1 0 1 0 
1 0 1 0 1 0 1 0 1 0 1 -1 1 0 1 0 
1 0 1 0 1 0 1 0 1 0 1 0 1 0 1 0 
1 0 1 0 1 0 1 -1 1 0 1 0 1 0 1 0 
1 0 1 0 1 0 1 0 1 0 1 0 1 0 1 0 
1 -1 1 0 1 0 1 0 1 0 1 0 1 0 1 0 
1 0 1 0 1 0 1 0 1 0 1 0 1 -1 1 0 
1 0 1 0 1 0 1 0 1 0 1 0 1 0 1 0 
1 0 1 0 1 0 1 -1 1 0 1 0 1 0 1 0 
1 0 1 0 1 0 1 0 1 0 1 0 1 0 1 0 
1 0 1 -1 1 0 1 0 1 0 1 0 1 0 1 0 
1 0 1 0 1 0 1 0 1 0 1 0 1 0 1 -1 
1 0 1 0 1 0 1 0 1 0 1 0 1 0 1 0 
1 0 1 0 1 0 1 0 1 -1 1 0 1 0 1 0 
1 0 1 0 1 0 1 0 1 0 1 0 1 0 1 0 
1 0 1 0 1 -1 1 0 1 0 1 0 1 0 1 0 
1 0 1 0 1 0 1 0 1 0 1 0 1 0 1 0 
1 -1 1 0 1 0 1655 4560 300 MP stroke
1 0 1 0 1 0 1 0 1 0 1 0 1 0 1 0 
1 0 1 0 1 -1 1 0 1 0 1 0 1 0 1 0 
1 0 1 0 1 0 1 0 1 0 1 0 1 0 1 0 
1 -1 1 0 1 0 1 0 1 0 1 0 1 0 1 0 
1 0 1 0 1 0 1 0 1 0 1 -1 1 0 1 0 
1 0 1 0 1 0 1 0 1 0 1 0 1 0 1 0 
1 0 1 0 1 0 1 -1 1 0 1 0 1 0 1 0 
1 0 1 0 1 0 1 0 1 0 1 0 1 0 1 0 
1 0 1 -1 1 0 1 0 1 0 1 0 1 0 1 0 
1 0 1 0 1 0 1 0 1 0 1 0 1 0 1 -1 
1 0 1 0 1 0 1 0 1 0 1 0 1 0 1 0 
1 0 1 0 1 0 1 0 1 -1 1 0 1 0 1 0 
1 0 1 0 1 0 1 0 1 0 1 0 1 0 1 0 
1 0 1 0 1 -1 1 0 1 0 1 0 1 0 1 0 
1 0 1 0 1 0 1 0 1 0 1 0 1 0 1 0 
1 -1 1 0 1 0 1 0 1 0 1 0 1 0 1 0 
1 0 1 0 1 0 1 0 1 0 1 -1 1 0 1 0 
1 0 1 0 1 0 1 0 1 0 1 0 1 0 1 0 
1 0 1 0 1 0 1 -1 1 0 1 0 1 0 1 0 
1 0 1 0 1 0 1 0 1 0 1 0 1 0 1 0 
1 0 1 -1 1 0 1 0 1 0 1 0 1 0 1 0 
1 0 1 0 1 0 1 0 1 0 1 0 1 -1 1 0 
1 0 1 0 1 0 1 0 1 0 1 0 1 0 1 0 
1 0 1 0 1 0 1 0 1 -1 1 0 1 0 1 0 
1 0 1 0 1 0 1 0 1 0 1 0 1 0 1 0 
1 0 1 -1 1 0 1 0 1 0 1 0 1 0 1 0 
1 0 1 0 1 0 1 0 1 0 1 0 1 0 1 -1 
1 0 1 0 1 0 1 0 1 0 1 0 1 0 1 0 
1 0 1 0 1 0 1 0 1 0 1 -1 1 0 1 0 
1 0 1 0 1 0 1 0 1 0 1 0 1 0 1 0 
1 0 1 0 1 -1 1 0 1 0 1 0 1 0 1 0 
1 0 1 0 1 0 1 0 1 0 1 0 1 0 1 0 
1 -1 1 0 1 0 1 0 1 0 1 0 1 0 1 0 
1 0 1 0 1 0 1 0 1 0 1 0 1 -1 1 0 
1 0 1 0 1 0 1 0 1 0 1 0 1 0 1 0 
1 0 1 0 1 0 1 0 1 -1 1 0 1 0 1 0 
1 0 1 0 1 0 1 0 1 0 1 0 1 0 1 0 
1 0 1 -1 1 0 1356 4582 300 MP stroke
1 0 1 0 1 0 1 0 1 0 1 0 1 0 1 0 
1 0 1 0 1 0 1 0 1 -1 1 0 1 0 1 0 
1 0 1 0 1 0 1 0 1 0 1 0 1 0 1 0 
1 0 1 -1 1 0 1 0 1 0 1 0 1 0 1 0 
1 0 1 0 1 0 1 0 1 0 1 0 1 0 1 -1 
1 0 1 0 1 0 1 0 1 0 1 0 1 0 1 0 
1 0 1 0 1 0 1 0 1 0 1 -1 1 0 1 0 
1 0 1 0 1 0 1 0 1 0 1 0 1 0 1 0 
1 0 1 0 1 -1 1 0 1 0 1 0 1 0 1 0 
1 0 1 0 1 0 1 0 1 0 1 0 1 0 1 0 
1 -1 1 0 1 0 1 0 1 0 1 0 1 0 1 0 
1 0 1 0 1 0 1 0 1 0 1 0 1 -1 1 0 
1 0 1 0 1 0 1 0 1 0 1 0 1 0 1 0 
1 0 1 0 1 0 1 -1 1 0 1 0 1 0 1 0 
1 0 1 0 1 0 1 0 1 0 1 0 1 0 1 0 
1 0 1 -1 1 0 1 0 1 0 1 0 1 0 1 0 
1 0 1 0 1 0 1 0 1 0 1 0 1 0 1 -1 
1 0 1 0 1 0 1 0 1 0 1 0 1 0 1 0 
1 0 1 0 1 0 1 0 1 -1 1 0 1 0 1 0 
1 0 1 0 1 0 1 0 1 0 1 0 1 0 1 0 
1 0 1 0 1 -1 1 0 1 0 1 0 1 0 1 0 
1 0 1 0 1 0 1 0 1 0 1 0 1 0 1 0 
1 -1 1 0 1 0 1 0 1 0 1 0 1 0 1 0 
1 0 1 0 1 0 1 0 1 0 1 -1 1 0 1 0 
1 0 1 0 1 0 1 0 1 0 1 0 1 0 1 0 
1 0 1 0 1 0 1 -1 1 0 1 0 1 0 1 0 
1 0 1 0 1 0 1 0 1 0 1 0 1 0 1 0 
1 0 1 -1 1 0 1 0 1 0 1 0 1 0 1 0 
1 0 1 0 1 0 1 0 1 0 1 0 1 -1 1 0 
1 0 1 0 1 0 1 0 1 0 1 0 1 0 1 0 
1 0 1 0 1 0 1 0 1 -1 1 0 1 0 1 0 
1 0 1 0 1 0 1 0 1 0 1 0 1 0 1 0 
1 0 1 0 1 -1 1 0 1 0 1 0 1 0 1 0 
1 0 1 0 1 0 1 0 1 0 1 0 1 0 1 -1 
1 0 1 0 1 0 1 0 1 0 1 0 1 0 1 0 
1 0 1 0 1 0 1 0 1 0 1 -1 1 0 1 0 
1 0 1 0 1 0 1 0 1 0 1 0 1 0 1 0 
1 0 1 0 1 -1 1057 4604 300 MP stroke
1 0 1 0 1 0 1 0 1 0 1 0 1 0 1 0 
1 0 1 0 1 0 1 0 1 0 1 -1 1 0 1 0 
1 0 1 0 1 0 1 0 1 0 1 0 1 0 1 0 
1 0 1 0 1 0 1 -1 1 0 1 0 1 0 1 0 
1 0 1 0 1 0 1 0 1 0 1 0 1 0 1 0 
1 -1 1 0 1 0 1 0 1 0 1 0 1 0 1 0 
1 0 1 0 1 0 1 0 1 0 1 0 1 -1 1 0 
1 0 1 0 1 0 1 0 1 0 1 0 1 0 1 0 
1 0 1 0 1 0 1 0 1 -1 1 0 1 0 1 0 
1 0 1 0 1 0 1 0 1 0 1 0 1 0 1 0 
1 0 1 0 1 -1 1 0 1 0 1 0 1 0 1 0 
1 0 1 0 1 0 1 0 1 0 1 0 1 0 1 -1 
1 0 1 0 1 0 1 0 1 0 1 0 1 0 1 0 
1 0 1 0 1 0 1 0 1 0 1 -1 1 0 1 0 
1 0 1 0 1 0 1 0 1 0 1 0 1 0 1 0 
1 0 1 0 1 0 1 -1 1 0 1 0 1 0 1 0 
1 0 1 0 1 0 1 0 1 0 1 0 1 0 1 0 
1 -1 1 0 1 0 1 0 1 0 1 0 1 0 1 0 
1 0 1 0 1 0 1 0 1 0 1 0 1 -1 1 0 
1 0 1 0 1 0 1 0 1 0 1 0 899 4615 159 MP stroke
gr

c10
0 sg
5428 1039 mt 
(T ) s
%%IncludeResource: font Symbol
/Symbol /ISOLatin1Encoding 144 FMSR

5556 1039 mt 
(\265) s
%%IncludeResource: font Helvetica
/Helvetica /ISOLatin1Encoding 144 FMSR

5658 1039 mt 
( N) s
%%IncludeResource: font Helvetica
/Helvetica /ISOLatin1Encoding 108 FMSR

5802  967 mt 
(4) s
%%IncludeResource: font Helvetica
/Helvetica /ISOLatin1Encoding 144 FMSR

5428 4063 mt 
(T ) s
%%IncludeResource: font Symbol
/Symbol /ISOLatin1Encoding 144 FMSR

5556 4063 mt 
(\265) s
%%IncludeResource: font Helvetica
/Helvetica /ISOLatin1Encoding 144 FMSR

5658 4063 mt 
( N) s
gs 899 389 5357 4227 rc
c10
1 -1 1 -1 0 -2 1 -1 1 -1 0 -2 2 -2 0 -1 
1 -1 0 -1 2 -2 0 -1 1 -1 0 -1 1 -1 0 -1 
1 -1 1 -1 0 -2 2 -2 1 -1 0 -2 1 -1 1 -1 
0 -1 1 -1 0 -1 1 -1 1 -1 0 -2 2 -2 0 -1 
1 -1 1 -1 0 -2 1 -1 1 -1 1 -1 0 -2 1 -1 
1 -1 0 -2 2 -2 0 -1 1 -1 0 -1 2 -2 0 -1 
1 -1 1 -1 0 -2 1 -1 1 -1 0 -1 1 -1 0 -1 
1 -1 1 -1 0 -2 2 -2 0 -1 1 -1 0 -1 2 -2 
0 -1 1 -1 1 -1 0 -2 1 -1 1 -1 0 -2 2 -2 
1 -1 0 -2 2 -2 0 -1 1 -1 0 -1 2 -2 0 -1 
1 -1 1 -1 0 -2 1 -1 1 -1 0 -2 2 -2 1 -1 
0 -2 2 -2 0 -1 1 -1 1 -1 0 -2 1 -1 1 -1 
1 -1 0 -2 1 -1 1 -1 0 -1 1 -1 0 -1 1 -1 
0 -1 1 -1 0 -1 2 -2 0 -1 1 -1 1 -1 0 -2 
2 -2 1 -1 0 -2 2 -2 0 -1 1 -1 1 -1 0 -2 
1 -1 1 -1 0 -1 1 -1 0 -1 1 -1 1 -1 0 -2 
2 -2 0 -1 1 -1 0 -1 2 -2 0 -1 1 -1 1 -1 
0 -2 2 -2 1 -1 0 -2 2 -2 0 -1 1 -1 1 -1 
0 -2 1 -1 1 -1 0 -1 1 -1 0 -1 1 -1 1 -1 
0 -2 2 -2 0 -1 1 -1 0 -1 2 -2 0 -1 1 -1 
1 -1 0 -2 2 -2 1 -1 0 -2 2 -2 0 -1 1 -1 
1 -1 0 -2 2 -2 1 -1 0 -2 2 -2 0 -1 1 -1 
1 -1 0 -2 1 -1 1 -1 1 -1 0 -2 1 -1 1 -1 
0 -1 1 -1 0 -1 1 -1 1 -1 0 -1 1 -1 0 -1 
1 -1 0 -1 1 -1 1 -1 0 -2 2 -2 1 -1 0 -1 
1 -1 0 -1 1 -1 0 -1 1 -1 1 -1 0 -2 2 -2 
1 -1 0 -2 2 -2 0 -1 1 -1 1 -1 0 -1 1 -1 
0 -1 1 -1 1 -1 0 -2 2 -2 0 -1 1 -1 0 -1 
2 -2 0 -1 1 -1 1 -1 0 -2 2 -2 0 -1 1 -1 
0 -1 2 -2 0 -1 1 -1 1 -1 0 -2 2 -2 1 -1 
0 -2 2 -2 0 -1 1 -1 1 -1 0 -2 2 -2 1 -1 
0 -1 1 -1 0 -1 1 -1 0 -1 1 -1 1 -1 0 -2 
2 -2 1 -1 0 -1 1 -1 0 -1 1 -1 0 -1 1 -1 
1 -1 1 -1 0 -2 1 -1 1 -1 0 -1 1 -1 1 -1 
0 -2 1 -1 1 -1 1 -1 0 -2 1 -1 1 -1 0 -1 
1 -1 1 -1 0 -2 1 -1 1 -1 1 -1 0 -2 2 -2 
0 -1 1 -1 0 -1 2 -2 0 -1 1 -1 1 -1 0 -2 
2 -2 0 -1 1 -1 5430 775 300 MP stroke
0 -1 2 -2 0 -1 1 -1 1 -1 0 -1 1 -1 0 -1 
1 -1 0 -1 1 -1 1 -1 1 -1 0 -2 1 -1 1 -1 
0 -1 1 -1 0 -1 2 -2 0 -1 1 -1 1 -1 0 -2 
2 -2 0 -1 1 -1 0 -1 2 -2 0 -1 1 -1 1 -1 
0 -2 2 -2 0 -1 1 -1 1 -1 1 -1 0 -2 1 -1 
1 -1 0 -1 1 -1 0 -1 2 -2 0 -1 1 -1 1 -1 
0 -2 2 -2 0 -1 1 -1 1 -1 0 -1 1 -1 0 -1 
1 -1 1 -1 0 -1 1 -1 1 -1 0 -2 1 -1 1 -1 
1 -1 0 -2 2 -2 0 -1 1 -1 0 -1 2 -2 0 -1 
1 -1 1 -1 0 -1 1 -1 0 -1 1 -1 0 -1 1 -1 
1 -1 1 -1 0 -2 2 -2 0 -1 1 -1 1 -1 0 -2 
2 -2 1 -1 0 -1 1 -1 0 -1 1 -1 0 -1 1 -1 
1 -1 1 -1 0 -2 2 -2 0 -1 1 -1 1 -1 0 -2 
2 -2 1 -1 0 -1 1 -1 1 -1 0 -2 1 -1 1 -1 
0 -1 1 -1 0 -1 2 -2 0 -1 1 -1 1 -1 0 -1 
1 -1 0 -1 1 -1 1 -1 0 -1 1 -1 1 -1 0 -2 
2 -2 0 -1 1 -1 1 -1 0 -1 1 -1 0 -1 1 -1 
1 -1 0 -1 1 -1 1 -1 0 -2 2 -2 1 -1 0 -2 
2 -2 0 -1 1 -1 1 -1 1 -1 0 -2 2 -2 0 -1 
1 -1 1 -1 0 -2 2 -2 1 -1 0 -1 1 -1 1 -1 
0 -2 2 -2 0 -1 1 -1 1 -1 0 -1 1 -1 0 -1 
1 -1 1 -1 0 -1 1 -1 0 -1 2 -2 0 -1 1 -1 
1 -1 0 -1 1 -1 1 -1 0 -2 2 -2 1 -1 0 -2 
2 -2 0 -1 1 -1 1 -1 0 -1 1 -1 0 -1 2 -2 
0 -1 1 -1 1 -1 0 -1 1 -1 0 -1 2 -2 0 -1 
1 -1 1 -1 0 -2 2 -2 0 -1 1 -1 1 -1 1 -1 
0 -2 2 -2 0 -1 1 -1 1 -1 0 -1 1 -1 0 -1 
2 -2 0 -1 1 -1 1 -1 0 -2 2 -2 1 -1 0 -1 
1 -1 1 -1 0 -2 2 -2 0 -1 1 -1 1 -1 1 -1 
0 -2 2 -2 0 -1 1 -1 1 -1 0 -1 1 -1 0 -1 
2 -2 0 -1 1 -1 1 -1 0 -1 1 -1 1 -1 0 -2 
2 -2 1 -1 0 -2 2 -2 0 -1 1 -1 1 -1 1 -1 
0 -2 2 -2 0 -1 1 -1 1 -1 0 -1 1 -1 0 -1 
2 -2 0 -1 1 -1 1 -1 0 -1 1 -1 1 -1 0 -2 
2 -2 1 -1 0 -1 1 -1 1 -1 0 -2 2 -2 1 -1 
0 -1 1 -1 1 -1 0 -2 2 -2 0 -1 1 -1 1 -1 
1 -1 0 -2 2 -2 0 -1 1 -1 1 -1 0 -1 1 -1 
0 -1 2 -2 0 -1 5205 1147 300 MP stroke
1 -1 1 -1 0 -1 1 -1 0 -1 2 -2 0 -1 1 -1 
1 -1 0 -1 1 -1 0 -1 2 -2 0 -1 2 -2 0 -1 
1 -1 1 -1 0 -1 1 -1 1 -1 0 -2 2 -2 1 -1 
0 -1 1 -1 1 -1 0 -2 2 -2 1 -1 0 -1 1 -1 
1 -1 0 -2 2 -2 0 -1 1 -1 1 -1 1 -1 0 -2 
2 -2 0 -1 1 -1 1 -1 0 -1 1 -1 1 -1 1 -1 
0 -2 2 -2 0 -1 1 -1 1 -1 1 -1 0 -2 2 -2 
0 -1 1 -1 1 -1 0 -1 1 -1 0 -1 2 -2 0 -1 
2 -2 0 -1 1 -1 1 -1 0 -1 1 -1 0 -1 2 -2 
0 -1 1 -1 1 -1 0 -1 1 -1 0 -1 2 -2 0 -1 
1 -1 1 -1 0 -1 1 -1 1 -1 0 -1 1 -1 0 -1 
2 -2 0 -1 1 -1 1 -1 0 -1 1 -1 0 -1 2 -2 
0 -1 2 -2 0 -1 1 -1 1 -1 0 -1 1 -1 0 -1 
2 -2 0 -1 1 -1 1 -1 0 -1 1 -1 1 -1 0 -1 
1 -1 0 -1 2 -2 0 -1 1 -1 1 -1 0 -1 1 -1 
0 -1 2 -2 0 -1 2 -2 0 -1 1 -1 1 -1 0 -1 
1 -1 0 -1 2 -2 0 -1 1 -1 1 -1 0 -1 1 -1 
1 -1 0 -1 1 -1 0 -1 2 -2 0 -1 1 -1 1 -1 
0 -1 1 -1 1 -1 0 -1 1 -1 0 -1 2 -2 0 -1 
1 -1 1 -1 0 -1 1 -1 1 -1 1 -1 0 -2 2 -2 
0 -1 1 -1 1 -1 0 -1 1 -1 1 -1 1 -1 0 -2 
2 -2 0 -1 1 -1 1 -1 0 -1 1 -1 1 -1 1 -1 
0 -2 2 -2 0 -1 2 -2 1 -1 0 -1 1 -1 0 -1 
2 -2 1 -1 0 -2 2 -2 1 -1 0 -1 1 -1 0 -1 
2 -2 1 -1 0 -2 2 -2 1 -1 0 -1 1 -1 1 -1 
0 -1 1 -1 0 -1 2 -2 0 -1 2 -2 0 -1 1 -1 
1 -1 0 -1 1 -1 1 -1 1 -1 0 -2 2 -2 0 -1 
1 -1 1 -1 0 -1 1 -1 1 -1 1 -1 0 -2 2 -2 
0 -1 2 -2 1 -1 0 -1 1 -1 0 -1 2 -2 1 -1 
0 -2 2 -2 1 -1 0 -1 1 -1 1 -1 0 -1 1 -1 
0 -1 2 -2 0 -1 2 -2 0 -1 1 -1 1 -1 0 -1 
1 -1 1 -1 0 -1 2 -2 1 -1 0 -2 2 -2 0 -1 
2 -2 1 -1 0 -1 1 -1 0 -1 2 -2 1 -1 0 -2 
2 -2 1 -1 0 -1 1 -1 1 -1 0 -1 1 -1 1 -1 
1 -1 0 -2 2 -2 0 -1 2 -2 0 -1 1 -1 1 -1 
1 -1 0 -1 1 -1 0 -1 2 -2 1 -1 0 -2 2 -2 
1 -1 0 -1 1 -1 1 -1 0 -1 1 -1 1 -1 1 -1 
0 -2 2 -2 0 -1 4970 1515 300 MP stroke
2 -2 0 -1 1 -1 1 -1 1 -1 0 -1 1 -1 0 -1 
2 -2 1 -1 0 -2 2 -2 1 -1 0 -1 1 -1 1 -1 
0 -1 1 -1 1 -1 0 -1 2 -2 1 -1 0 -2 2 -2 
0 -1 2 -2 1 -1 0 -1 1 -1 1 -1 0 -1 1 -1 
0 -1 2 -2 0 -1 2 -2 0 -1 2 -2 0 -1 1 -1 
1 -1 1 -1 0 -1 1 -1 0 -1 2 -2 0 -1 2 -2 
0 -1 2 -2 0 -1 2 -2 0 -1 1 -1 1 -1 0 -1 
1 -1 1 -1 0 -1 2 -2 0 -1 2 -2 0 -1 2 -2 
0 -1 2 -2 0 -1 1 -1 1 -1 0 -1 1 -1 1 -1 
0 -1 2 -2 0 -1 2 -2 0 -1 2 -2 0 -1 2 -2 
0 -1 1 -1 1 -1 0 -1 1 -1 1 -1 0 -1 1 -1 
1 -1 0 -1 2 -2 0 -1 2 -2 0 -1 2 -2 0 -1 
2 -2 0 -1 1 -1 1 -1 0 -1 1 -1 1 -1 1 -1 
0 -1 1 -1 0 -1 2 -2 0 -1 2 -2 0 -1 2 -2 
0 -1 2 -2 0 -1 2 -2 1 -1 0 -1 1 -1 1 -1 
0 -1 1 -1 1 -1 0 -1 1 -1 1 -1 0 -1 2 -2 
0 -1 2 -2 0 -1 2 -2 0 -1 2 -2 0 -1 1 -1 
1 -1 0 -1 1 -1 1 -1 1 -1 0 -1 1 -1 1 -1 
0 -1 1 -1 0 -1 2 -2 1 -1 0 -1 2 -2 1 -1 
0 -2 2 -2 0 -1 2 -2 1 -1 0 -1 1 -1 1 -1 
0 -1 1 -1 1 -1 1 -1 0 -1 1 -1 1 -1 0 -1 
1 -1 0 -1 2 -2 1 -1 0 -1 2 -2 0 -1 2 -2 
0 -1 2 -2 0 -1 2 -2 0 -1 1 -1 1 -1 0 -1 
1 -1 1 -1 1 -1 0 -1 1 -1 1 -1 0 -1 1 -1 
1 -1 0 -1 1 -1 1 -1 0 -1 2 -2 0 -1 2 -2 
0 -1 2 -2 1 -1 1 -1 0 -2 2 -2 0 -1 2 -2 
1 -1 0 -1 1 -1 1 -1 0 -1 1 -1 1 -1 0 -1 
1 -1 1 -1 1 -1 0 -1 1 -1 1 -1 0 -1 1 -1 
1 -1 0 -1 1 -1 1 -1 0 -1 2 -2 0 -1 2 -2 
1 -1 0 -1 2 -2 0 -1 2 -2 0 -1 2 -2 0 -1 
2 -2 0 -1 2 -2 1 -1 0 -1 2 -2 0 -1 2 -2 
0 -1 2 -2 0 -1 2 -2 1 -1 0 -1 1 -1 1 -1 
0 -1 1 -1 1 -1 0 -1 1 -1 1 -1 1 -1 0 -1 
1 -1 1 -1 0 -1 1 -1 1 -1 0 -1 1 -1 1 -1 
1 -1 0 -1 1 -1 1 -1 0 -1 1 -1 1 -1 0 -1 
2 -2 0 -1 2 -2 0 -1 2 -2 1 -1 0 -1 2 -2 
0 -1 2 -2 0 -1 2 -2 1 -1 0 -1 2 -2 0 -1 
2 -2 1 -1 0 -1 4719 1885 300 MP stroke
2 -2 0 -1 2 -2 0 -1 2 -2 1 -1 0 -1 2 -2 
0 -1 2 -2 0 -1 2 -2 1 -1 0 -1 2 -2 0 -1 
2 -2 0 -1 2 -2 1 -1 0 -1 2 -2 0 -1 2 -2 
1 -1 0 -1 2 -2 0 -1 2 -2 0 -1 2 -2 1 -1 
0 -1 2 -2 0 -1 2 -2 1 -1 0 -1 2 -2 0 -1 
2 -2 0 -1 2 -2 1 -1 0 -1 2 -2 0 -1 2 -2 
0 -1 2 -2 1 -1 0 -1 2 -2 0 -1 2 -2 1 -1 
0 -1 2 -2 0 -1 2 -2 0 -1 2 -2 1 -1 0 -1 
2 -2 1 -1 0 -1 1 -1 1 -1 0 -1 1 -1 1 -1 
1 -1 0 -1 1 -1 1 -1 0 -1 1 -1 1 -1 1 -1 
0 -1 1 -1 1 -1 0 -1 1 -1 1 -1 0 -1 2 -2 
1 -1 0 -1 1 -1 1 -1 0 -1 2 -2 1 -1 0 -1 
2 -2 1 -1 0 -1 2 -2 0 -1 2 -2 1 -1 0 -1 
2 -2 0 -1 2 -2 1 -1 0 -1 2 -2 0 -1 2 -2 
1 -1 0 -1 1 -1 1 -1 1 -1 0 -1 1 -1 1 -1 
0 -1 1 -1 1 -1 1 -1 0 -1 1 -1 1 -1 0 -1 
1 -1 1 -1 0 -1 2 -2 1 -1 0 -1 2 -2 1 -1 
0 -1 2 -2 1 -1 0 -1 2 -2 0 -1 2 -2 1 -1 
0 -1 2 -2 0 -1 2 -2 1 -1 0 -1 1 -1 1 -1 
1 -1 0 -1 1 -1 1 -1 0 -1 2 -2 1 -1 0 -1 
2 -2 1 -1 0 -1 2 -2 0 -1 2 -2 1 -1 0 -1 
2 -2 1 -1 0 -1 1 -1 1 -1 1 -1 0 -1 1 -1 
1 -1 0 -1 1 -1 1 -1 0 -1 2 -2 1 -1 1 -1 
0 -1 2 -2 0 -1 2 -2 1 -1 0 -1 2 -2 1 -1 
0 -1 1 -1 1 -1 1 -1 0 -1 1 -1 1 -1 0 -1 
2 -2 1 -1 0 -1 2 -2 1 -1 0 -1 2 -2 0 -1 
2 -2 1 -1 0 -1 2 -2 1 -1 0 -1 1 -1 1 -1 
1 -1 0 -1 1 -1 1 -1 1 -1 0 -1 2 -2 1 -1 
0 -1 2 -2 0 -1 2 -2 1 -1 0 -1 1 -1 1 -1 
1 -1 0 -1 1 -1 1 -1 1 -1 0 -1 2 -2 1 -1 
0 -1 2 -2 0 -1 2 -2 1 -1 1 -1 0 -1 1 -1 
1 -1 0 -1 2 -2 1 -1 1 -1 0 -1 2 -2 0 -1 
2 -2 1 -1 0 -1 2 -2 1 -1 0 -1 1 -1 1 -1 
1 -1 0 -1 2 -2 1 -1 0 -1 2 -2 1 -1 0 -1 
1 -1 1 -1 1 -1 0 -1 1 -1 1 -1 1 -1 0 -1 
2 -2 1 -1 0 -1 2 -2 1 -1 0 -1 1 -1 1 -1 
1 -1 0 -1 1 -1 1 -1 1 -1 0 -1 2 -2 1 -1 
0 -1 2 -2 1 -1 4448 2258 300 MP stroke
0 -1 1 -1 1 -1 1 -1 0 -1 2 -2 1 -1 0 -1 
2 -2 1 -1 0 -1 2 -2 1 -1 0 -1 1 -1 1 -1 
1 -1 1 -1 0 -1 2 -2 0 -1 2 -2 1 -1 1 -1 
0 -1 1 -1 1 -1 1 -1 0 -1 2 -2 1 -1 0 -1 
2 -2 1 -1 0 -1 1 -1 1 -1 1 -1 1 -1 0 -1 
2 -2 0 -1 2 -2 1 -1 1 -1 0 -1 1 -1 1 -1 
1 -1 0 -1 2 -2 1 -1 0 -1 2 -2 1 -1 0 -1 
1 -1 1 -1 1 -1 1 -1 0 -1 2 -2 0 -1 2 -2 
1 -1 1 -1 0 -1 1 -1 1 -1 1 -1 0 -1 2 -2 
1 -1 0 -1 2 -2 1 -1 1 -1 0 -1 2 -2 1 -1 
0 -1 2 -2 1 -1 0 -1 1 -1 1 -1 1 -1 1 -1 
0 -1 2 -2 1 -1 0 -1 1 -1 1 -1 1 -1 1 -1 
0 -1 2 -2 0 -1 2 -2 1 -1 1 -1 0 -1 2 -2 
1 -1 1 -1 0 -1 2 -2 1 -1 0 -1 1 -1 1 -1 
1 -1 1 -1 0 -1 2 -2 1 -1 0 -1 1 -1 1 -1 
1 -1 1 -1 0 -1 2 -2 0 -1 2 -2 1 -1 1 -1 
1 -1 0 -1 2 -2 0 -1 2 -2 1 -1 1 -1 1 -1 
0 -1 2 -2 0 -1 2 -2 1 -1 1 -1 1 -1 0 -1 
2 -2 1 -1 0 -1 2 -2 1 -1 1 -1 0 -1 2 -2 
1 -1 0 -1 2 -2 1 -1 1 -1 0 -1 2 -2 1 -1 
0 -1 2 -2 1 -1 1 -1 1 -1 0 -1 2 -2 1 -1 
0 -1 1 -1 1 -1 1 -1 1 -1 0 -1 2 -2 1 -1 
0 -1 2 -2 1 -1 1 -1 0 -1 2 -2 1 -1 1 -1 
1 -1 0 -1 2 -2 0 -1 2 -2 1 -1 1 -1 1 -1 
0 -1 2 -2 1 -1 0 -1 2 -2 1 -1 1 -1 0 -1 
2 -2 1 -1 1 -1 1 -1 0 -1 2 -2 1 -1 0 -1 
1 -1 1 -1 1 -1 1 -1 0 -1 2 -2 1 -1 1 -1 
0 -1 2 -2 1 -1 0 -1 2 -2 1 -1 1 -1 0 -1 
2 -2 1 -1 1 -1 1 -1 0 -1 2 -2 1 -1 1 -1 
0 -1 1 -1 1 -1 1 -1 0 -1 2 -2 1 -1 1 -1 
1 -1 0 -1 2 -2 1 -1 1 -1 1 -1 0 -1 2 -2 
0 -1 2 -2 1 -1 1 -1 1 -1 0 -1 2 -2 1 -1 
1 -1 1 -1 0 -1 2 -2 1 -1 1 -1 0 -1 2 -2 
1 -1 1 -1 0 -1 1 -1 1 -1 1 -1 1 -1 0 -1 
2 -2 1 -1 1 -1 0 -1 2 -2 1 -1 1 -1 1 -1 
0 -1 2 -2 1 -1 1 -1 1 -1 0 -1 2 -2 1 -1 
1 -1 1 -1 0 -1 2 -2 0 -1 2 -2 1 -1 1 -1 
1 -1 0 -1 2 -2 4164 2621 300 MP stroke
1 -1 1 -1 0 -1 2 -2 1 -1 1 -1 1 -1 0 -1 
2 -2 1 -1 1 -1 1 -1 0 -1 2 -2 1 -1 1 -1 
1 -1 0 -1 2 -2 1 -1 1 -1 0 -1 2 -2 1 -1 
1 -1 1 -1 0 -1 2 -2 1 -1 1 -1 1 -1 0 -1 
2 -2 1 -1 1 -1 1 -1 0 -1 2 -2 1 -1 1 -1 
0 -1 2 -2 1 -1 1 -1 1 -1 0 -1 2 -2 1 -1 
1 -1 1 -1 0 -1 2 -2 1 -1 1 -1 1 -1 0 -1 
2 -2 1 -1 1 -1 0 -1 2 -2 1 -1 1 -1 1 -1 
0 -1 2 -2 1 -1 1 -1 1 -1 0 -1 2 -2 1 -1 
1 -1 1 -1 1 -1 1 -1 0 -1 2 -2 1 -1 1 -1 
1 -1 0 -1 2 -2 1 -1 1 -1 1 -1 0 -1 2 -2 
1 -1 1 -1 0 -1 2 -2 1 -1 1 -1 1 -1 0 -1 
2 -2 1 -1 1 -1 1 -1 1 -1 1 -1 0 -1 2 -2 
1 -1 1 -1 1 -1 0 -1 2 -2 1 -1 1 -1 1 -1 
0 -1 2 -2 1 -1 1 -1 1 -1 1 -1 1 -1 0 -1 
2 -2 1 -1 1 -1 1 -1 0 -1 2 -2 1 -1 1 -1 
0 -1 2 -2 1 -1 1 -1 1 -1 1 -1 1 -1 0 -1 
2 -2 1 -1 1 -1 1 -1 0 -1 2 -2 1 -1 1 -1 
1 -1 1 -1 1 -1 0 -1 2 -2 1 -1 1 -1 1 -1 
0 -1 2 -2 1 -1 1 -1 1 -1 1 -1 1 -1 0 -1 
2 -2 1 -1 1 -1 1 -1 0 -1 2 -2 1 0 -1 0 
2 -2 1 -1 1 -1 1 -1 0 -1 2 -2 1 -1 1 -1 
1 -1 1 -1 1 -1 0 -1 2 -2 1 -1 1 -1 1 -1 
0 -1 2 -2 1 0 -1 0 2 -2 1 -1 1 -1 1 -1 
0 -1 2 -2 1 -1 1 -1 1 -1 1 -1 1 -1 0 -1 
2 -2 1 -1 1 -1 1 -1 1 -1 1 -1 0 -1 2 -2 
1 -1 1 -1 1 -1 1 -1 1 -1 0 -1 2 -2 1 -1 
1 -1 1 -1 1 -1 1 -1 1 -1 0 -1 2 -2 1 -1 
1 -1 1 -1 1 -1 1 -1 0 -1 2 -2 1 -1 1 -1 
1 -1 1 -1 1 -1 0 -1 2 -2 1 -1 1 -1 1 -1 
1 -1 1 -1 0 -1 2 -2 1 -1 1 -1 1 -1 1 -1 
1 -1 0 -1 2 -2 1 -1 1 -1 1 -1 1 -1 1 -1 
0 -1 2 -2 1 0 -1 0 2 -2 1 -1 1 -1 1 -1 
1 -1 1 -1 1 -1 0 -1 2 -2 1 -1 1 -1 1 -1 
1 -1 1 -1 0 -1 2 -2 1 -1 1 -1 1 -1 1 -1 
1 -1 1 -1 1 -1 0 -1 2 -2 1 -1 1 -1 1 -1 
1 -1 1 -1 0 -1 2 -2 1 -1 1 0 -1 0 2 -2 
1 -1 1 -1 1 -1 3869 2965 300 MP stroke
1 -1 1 -1 0 -1 2 -2 1 -1 1 -1 1 -1 1 -1 
1 -1 1 -1 1 -1 0 -1 2 -2 1 -1 1 -1 1 -1 
1 -1 1 -1 1 -1 1 -1 1 -1 0 -1 2 -2 1 -1 
1 -1 1 -1 1 -1 1 -1 1 -1 1 -1 0 -1 2 -2 
1 -1 1 -1 1 -1 1 -1 1 -1 1 -1 1 -1 1 -1 
0 -1 2 -2 1 0 -1 0 2 -2 1 -1 1 -1 1 -1 
1 -1 1 -1 0 -1 2 -2 1 0 0 -1 2 -2 1 -1 
1 -1 1 -1 1 -1 1 -1 1 -1 1 -1 0 -1 2 -2 
1 -1 1 0 -1 0 2 -2 1 -1 1 -1 1 -1 1 -1 
1 -1 1 -1 1 -1 0 -1 2 -2 1 -1 1 -1 1 -1 
1 -1 1 -1 1 -1 1 -1 1 -1 1 -1 1 -1 0 -1 
2 -2 1 0 -1 0 2 -2 1 -1 1 -1 1 -1 1 -1 
1 -1 1 -1 1 -1 1 -1 1 -1 1 -1 0 -1 2 -2 
1 -1 1 0 -1 0 2 -2 1 -1 1 -1 1 -1 1 -1 
1 -1 1 -1 1 -1 0 -1 2 -2 1 0 -1 0 2 -2 
1 -1 1 -1 1 -1 1 -1 1 -1 1 -1 1 -1 1 -1 
1 -1 1 -1 0 -1 2 -2 1 0 0 -1 2 -2 1 -1 
1 -1 1 -1 1 -1 1 -1 1 -1 1 -1 1 -1 1 -1 
1 -1 1 -1 1 -1 0 -1 2 -2 1 0 -1 0 2 -2 
1 -1 1 0 -1 0 2 -2 1 -1 1 -1 1 -1 1 -1 
1 -1 1 -1 1 -1 1 -1 1 -1 1 -1 1 -1 1 -1 
0 -1 2 -2 1 0 -1 0 2 -2 1 -1 1 0 -1 0 
2 -2 1 -1 1 -1 1 -1 1 -1 1 -1 1 -1 1 -1 
1 -1 1 -1 1 -1 1 -1 1 -1 1 -1 1 -1 0 -1 
2 -2 1 -1 1 0 -1 0 2 -2 1 -1 1 -1 1 -1 
1 -1 1 -1 1 -1 1 -1 1 -1 1 -1 1 -1 1 -1 
1 -1 1 -1 1 -1 1 -1 1 -1 1 -1 1 -1 1 -1 
0 -1 2 -2 1 0 -1 0 2 -2 1 -1 1 0 -1 0 
2 -2 1 -1 1 -1 1 -1 1 -1 1 -1 1 -1 1 -1 
1 -1 1 -1 1 -1 1 -1 1 -1 1 -1 1 -1 1 -1 
1 -1 1 -1 1 -1 1 -1 1 -1 1 -1 1 -1 1 -1 
1 -1 1 -1 1 -1 0 -1 2 -2 1 0 1 -1 1 -1 
0 -1 2 -2 1 0 -1 0 2 -2 1 -1 1 0 -1 0 
2 -2 1 0 -1 0 2 -2 1 -1 1 0 -1 0 2 -2 
1 -1 1 -1 1 -1 1 -1 1 -1 1 -1 1 -1 1 -1 
1 -1 1 -1 1 -1 1 -1 1 -1 1 -1 1 -1 1 -1 
1 -1 1 -1 1 -1 1 -1 1 -1 1 -1 1 -1 1 -1 
1 -1 1 -1 1 -1 3586 3265 300 MP stroke
1 -1 1 -1 1 -1 1 -1 1 -1 1 -1 1 -1 1 -1 
1 -1 1 -1 1 -1 1 -1 1 -1 1 -1 1 -1 1 -1 
1 -1 1 -1 1 -1 1 -1 1 -1 1 -1 1 -1 1 -1 
1 -1 1 -1 1 -1 1 -1 1 -1 1 -1 1 -1 1 -1 
1 -1 1 -1 1 -1 1 -1 1 -1 1 -1 1 -1 1 -1 
1 -1 1 -1 1 -1 1 -1 1 -1 1 -1 1 -1 1 -1 
1 -1 1 -1 1 -1 1 -1 1 -1 1 -1 1 -1 1 -1 
1 -1 1 -1 1 -1 1 -1 1 -1 1 0 -1 0 2 -2 
1 -1 1 -1 1 -1 1 -1 1 -1 1 0 -1 0 2 -2 
1 0 -1 0 2 -2 1 0 1 -1 1 -1 1 -1 1 -1 
1 -1 1 -1 1 -1 1 -1 1 -1 1 -1 1 -1 1 -1 
1 -1 1 -1 1 -1 1 -1 1 -1 1 -1 1 -1 1 -1 
1 -1 1 -1 1 -1 1 -1 1 -1 1 -1 1 -1 1 -1 
1 -1 1 -1 1 -1 1 -1 1 -1 1 0 -1 0 2 -2 
1 0 -1 0 2 -2 1 0 1 -1 1 -1 1 -1 1 -1 
1 -1 1 -1 1 -1 1 -1 1 -1 1 -1 1 -1 1 -1 
1 -1 1 -1 1 -1 1 -1 1 -1 1 -1 1 -1 1 0 
-1 0 2 -2 1 0 -1 0 2 -2 1 0 -1 0 2 -2 
1 0 1 -1 1 -1 1 -1 1 -1 1 -1 1 -1 1 -1 
1 -1 1 -1 1 -1 1 -1 1 -1 1 -1 1 -1 1 0 
-1 0 2 -2 1 0 -1 0 2 -2 1 0 1 -1 1 -1 
1 -1 1 -1 1 -1 1 -1 1 -1 1 -1 1 -1 1 -1 
1 -1 1 -1 1 -1 1 -1 1 0 -1 0 2 -2 1 0 
-1 0 2 -2 1 0 1 -1 1 -1 1 -1 1 -1 1 -1 
1 -1 1 -1 1 -1 1 -1 1 -1 1 -1 1 -1 1 0 
-1 0 2 -2 1 0 1 -1 1 -1 1 -1 1 -1 1 -1 
1 -1 1 -1 1 -1 1 -1 1 -1 1 -1 1 0 -1 0 
2 -2 1 0 -1 0 2 -2 1 0 1 -1 1 -1 1 -1 
1 -1 1 -1 1 -1 1 -1 1 -1 1 -1 1 -1 1 -1 
1 0 -1 0 2 -2 1 0 1 -1 1 -1 1 -1 1 -1 
1 -1 1 -1 1 -1 1 -1 1 -1 1 0 -1 0 2 -2 
1 0 1 -1 1 -1 1 -1 1 -1 1 -1 1 -1 1 -1 
1 -1 1 -1 1 0 -1 0 2 -2 1 0 1 -1 1 -1 
1 -1 1 -1 1 -1 1 -1 1 -1 1 -1 1 -1 1 0 
-1 0 2 -2 1 0 1 -1 1 -1 1 -1 1 -1 1 -1 
1 -1 1 -1 1 0 -1 0 2 -2 1 0 1 -1 1 -1 
1 -1 1 -1 1 -1 1 -1 1 -1 1 -1 1 -1 1 -1 
1 0 1 -1 1 -1 3307 3531 300 MP stroke
1 -1 1 -1 1 -1 1 -1 1 -1 1 0 -1 0 2 -2 
1 0 1 -1 1 -1 1 -1 1 -1 1 -1 1 -1 1 -1 
1 -1 1 0 1 -1 1 -1 1 -1 1 -1 1 -1 1 -1 
1 -1 1 0 -1 0 2 -2 1 0 1 -1 1 -1 1 -1 
1 -1 1 -1 1 -1 1 -1 1 -1 1 0 1 -1 1 -1 
1 -1 1 -1 1 -1 1 -1 1 -1 1 0 1 -1 1 -1 
1 -1 1 -1 1 -1 1 -1 1 -1 1 -1 1 0 1 -1 
1 -1 1 -1 1 -1 1 -1 1 -1 1 -1 1 0 1 -1 
1 -1 1 -1 1 -1 1 -1 1 -1 1 0 -1 0 2 -2 
1 0 1 -1 1 -1 1 -1 1 -1 1 -1 1 -1 1 0 
1 -1 1 -1 1 -1 1 -1 1 -1 1 -1 1 -1 1 -1 
1 0 1 -1 1 -1 1 -1 1 -1 1 -1 1 -1 1 0 
1 -1 1 -1 1 -1 1 -1 1 -1 1 -1 1 0 1 -1 
1 -1 1 -1 1 -1 1 -1 1 0 -1 0 2 -2 1 0 
1 -1 1 -1 1 -1 1 -1 1 -1 1 -1 1 0 1 -1 
1 -1 1 -1 1 -1 1 -1 1 -1 1 0 1 -1 1 -1 
1 -1 1 -1 1 -1 1 -1 1 0 1 -1 1 -1 1 -1 
1 -1 1 -1 1 -1 1 0 1 -1 1 -1 1 -1 1 -1 
1 0 -1 0 2 -2 1 0 1 -1 1 -1 1 -1 1 -1 
1 0 1 -1 1 -1 1 -1 1 -1 1 -1 1 -1 1 0 
1 -1 1 -1 1 -1 1 -1 1 -1 1 -1 1 0 1 -1 
1 -1 1 -1 1 -1 1 0 1 -1 1 -1 1 -1 1 -1 
1 -1 1 -1 1 0 1 -1 1 -1 1 -1 1 -1 1 0 
1 -1 1 -1 1 -1 1 -1 1 -1 1 -1 1 0 1 -1 
1 -1 1 -1 1 -1 1 0 1 -1 1 -1 1 -1 1 -1 
1 -1 1 -1 1 0 1 -1 1 -1 1 -1 1 -1 1 0 
1 -1 1 -1 1 -1 1 -1 1 0 1 -1 1 -1 1 -1 
1 -1 1 -1 1 -1 1 0 1 -1 1 -1 1 -1 1 -1 
1 0 1 -1 1 -1 1 -1 1 -1 1 -1 1 0 1 -1 
1 -1 1 -1 1 -1 1 0 1 -1 1 -1 1 -1 1 -1 
1 0 1 -1 1 -1 1 -1 1 -1 1 0 1 -1 1 -1 
1 -1 1 -1 1 0 1 -1 1 -1 1 -1 1 -1 1 -1 
1 0 1 -1 1 -1 1 -1 1 -1 1 0 1 -1 1 -1 
1 -1 1 -1 1 0 1 -1 1 -1 1 -1 1 -1 1 0 
1 -1 1 -1 1 -1 1 -1 1 0 1 -1 1 -1 1 -1 
1 -1 1 0 1 -1 1 -1 1 -1 1 -1 1 -1 1 0 
1 -1 1 -1 1 -1 1 -1 1 0 1 -1 1 -1 1 0 
1 -1 1 -1 1 -1 3013 3780 300 MP stroke
1 -1 1 0 1 -1 1 -1 1 -1 1 -1 1 -1 1 0 
1 -1 1 -1 1 -1 1 -1 1 0 1 -1 1 -1 1 0 
1 -1 1 -1 1 -1 1 -1 1 0 1 -1 1 -1 1 -1 
1 -1 1 -1 1 0 1 -1 1 -1 1 0 1 -1 1 -1 
1 -1 1 -1 1 0 1 -1 1 -1 1 -1 1 -1 1 0 
1 -1 1 -1 1 -1 1 0 1 -1 1 -1 1 -1 1 -1 
1 0 1 -1 1 -1 1 -1 1 0 1 -1 1 -1 1 -1 
1 -1 1 0 1 -1 1 -1 1 0 1 -1 1 -1 1 -1 
1 -1 1 0 1 -1 1 -1 1 -1 1 0 1 -1 1 -1 
1 -1 1 -1 1 0 1 -1 1 -1 1 0 1 -1 1 -1 
1 -1 1 -1 1 0 1 -1 1 -1 1 -1 1 0 1 -1 
1 -1 1 -1 1 0 1 -1 1 -1 1 -1 1 -1 1 0 
1 -1 1 -1 1 0 1 -1 1 -1 1 -1 1 0 1 -1 
1 -1 1 -1 1 -1 1 0 1 -1 1 -1 1 0 1 -1 
1 -1 1 -1 1 0 1 -1 1 -1 1 -1 1 -1 1 0 
1 -1 1 -1 1 0 1 -1 1 -1 1 -1 1 0 1 -1 
1 -1 1 -1 1 0 1 -1 1 -1 1 -1 1 0 1 -1 
1 -1 1 -1 1 0 1 -1 1 -1 1 0 1 -1 1 -1 
1 -1 1 0 1 -1 1 -1 1 -1 1 0 1 -1 1 -1 
1 -1 1 0 1 -1 1 -1 1 -1 1 0 1 -1 1 -1 
1 0 1 -1 1 -1 1 -1 1 0 1 -1 1 -1 1 0 
1 -1 1 -1 1 -1 1 0 1 -1 1 -1 1 -1 1 0 
1 -1 1 -1 1 -1 1 0 1 -1 1 -1 1 -1 1 0 
1 -1 1 -1 1 0 1 -1 1 -1 1 -1 1 0 1 -1 
1 -1 1 0 1 -1 1 -1 1 -1 1 0 1 -1 1 -1 
1 0 1 -1 1 -1 1 -1 1 0 1 -1 1 -1 1 0 
1 -1 1 -1 1 -1 1 0 1 -1 1 -1 1 0 1 -1 
1 -1 1 0 1 -1 1 -1 1 -1 1 0 1 -1 1 -1 
1 0 1 -1 1 -1 1 -1 1 0 1 -1 1 -1 1 0 
1 -1 1 -1 1 -1 1 0 1 -1 1 -1 1 0 1 -1 
1 -1 1 -1 1 0 1 -1 1 -1 1 0 1 -1 1 -1 
1 0 1 -1 1 -1 1 0 1 -1 1 -1 1 0 1 -1 
1 -1 1 0 1 -1 1 -1 1 -1 1 0 1 -1 1 -1 
1 0 1 -1 1 -1 1 -1 1 0 1 -1 1 -1 1 0 
1 -1 1 -1 1 0 1 -1 1 -1 1 0 1 -1 1 -1 
1 0 1 -1 1 -1 1 0 1 -1 1 -1 1 -1 1 0 
1 -1 1 -1 1 0 1 -1 1 -1 1 0 1 -1 1 -1 
1 0 1 -1 1 -1 2714 4000 300 MP stroke
1 0 1 -1 1 -1 1 0 1 -1 1 -1 1 -1 1 0 
1 -1 1 0 1 -1 1 -1 1 0 1 -1 1 -1 1 0 
1 -1 1 -1 1 -1 1 0 1 -1 1 -1 1 0 1 -1 
1 0 1 -1 1 -1 1 0 1 -1 1 -1 1 -1 1 0 
1 -1 1 -1 1 0 1 -1 1 0 1 -1 1 -1 1 0 
1 -1 1 -1 1 -1 1 0 1 -1 1 0 1 -1 1 -1 
1 0 1 -1 1 -1 1 0 1 -1 1 -1 1 0 1 -1 
1 -1 1 0 1 -1 1 -1 1 0 1 -1 1 -1 1 0 
1 -1 1 -1 1 0 1 -1 1 -1 1 0 1 -1 1 -1 
1 0 1 -1 1 0 1 -1 1 -1 1 0 1 -1 1 -1 
1 0 1 -1 1 -1 1 0 1 -1 1 -1 1 0 1 -1 
1 -1 1 0 1 -1 1 0 1 -1 1 -1 1 -1 1 0 
1 -1 1 0 1 -1 1 -1 1 0 1 -1 1 -1 1 0 
1 -1 1 0 1 -1 1 -1 1 0 1 -1 1 -1 1 0 
1 -1 1 -1 1 0 1 -1 1 -1 1 0 1 -1 1 0 
1 -1 1 -1 1 0 1 -1 1 0 1 -1 1 -1 1 0 
1 -1 1 -1 1 0 1 -1 1 -1 1 0 1 -1 1 0 
1 -1 1 -1 1 0 1 -1 1 -1 1 0 1 -1 1 0 
1 -1 1 -1 1 0 1 -1 1 0 1 -1 1 -1 1 -1 
1 0 1 -1 1 0 1 -1 1 -1 1 0 1 -1 1 0 
1 -1 1 -1 1 0 1 -1 1 0 1 -1 1 -1 1 0 
1 -1 1 -1 1 0 1 -1 1 0 1 -1 1 -1 1 0 
1 -1 1 -1 1 0 1 -1 1 0 1 -1 1 -1 1 0 
1 -1 1 0 1 -1 1 -1 1 0 1 -1 1 0 1 -1 
1 -1 1 0 1 -1 1 0 1 -1 1 -1 1 0 1 -1 
1 0 1 -1 1 -1 1 0 1 -1 1 0 1 -1 1 -1 
1 0 1 -1 1 0 1 -1 1 -1 1 0 1 -1 1 -1 
1 0 1 -1 1 0 1 -1 1 0 1 -1 1 -1 1 0 
1 -1 1 0 1 -1 1 -1 1 0 1 -1 1 0 1 -1 
1 -1 1 0 1 -1 1 0 1 -1 1 -1 1 0 1 -1 
1 0 1 -1 1 0 1 -1 1 -1 1 0 1 -1 1 0 
1 -1 1 -1 1 0 1 -1 1 0 1 -1 1 0 1 -1 
1 -1 1 0 1 -1 1 0 1 -1 1 -1 1 0 1 -1 
1 0 1 -1 1 0 1 -1 1 -1 1 0 1 -1 1 0 
1 -1 1 0 1 -1 1 -1 1 0 1 -1 1 0 1 -1 
1 0 1 -1 1 -1 1 0 1 -1 1 0 1 -1 1 0 
1 -1 1 -1 1 0 1 -1 1 0 1 -1 1 0 1 -1 
1 -1 1 0 1 -1 2415 4186 300 MP stroke
1 0 1 -1 1 0 1 -1 1 -1 1 0 1 -1 1 0 
1 -1 1 0 1 -1 1 -1 1 0 1 0 1 -1 1 -1 
1 0 1 -1 1 0 1 -1 1 0 1 -1 1 -1 1 0 
1 -1 1 0 1 -1 1 0 1 -1 1 0 1 -1 1 -1 
1 0 1 -1 1 0 1 -1 1 0 1 -1 1 0 1 -1 
1 -1 1 0 1 -1 1 0 1 -1 1 0 1 -1 1 0 
1 -1 1 -1 1 0 1 -1 1 0 1 -1 1 0 1 -1 
1 0 1 -1 1 0 1 -1 1 0 1 -1 1 -1 1 0 
1 -1 1 0 1 -1 1 0 1 -1 1 0 1 -1 1 -1 
1 0 1 -1 1 0 1 -1 1 0 1 -1 1 0 1 -1 
1 0 1 -1 1 0 1 -1 1 0 1 -1 1 0 1 -1 
1 -1 1 0 1 -1 1 0 1 -1 1 0 1 -1 1 0 
1 -1 1 0 1 -1 1 0 1 -1 1 0 1 -1 1 0 
1 -1 1 -1 1 0 1 -1 1 0 1 -1 1 0 1 -1 
1 0 1 -1 1 0 1 -1 1 0 1 -1 1 0 1 -1 
1 0 1 -1 1 0 1 -1 1 0 1 -1 1 -1 1 0 
1 -1 1 0 1 -1 1 0 1 -1 1 0 1 -1 1 0 
1 -1 1 0 1 -1 1 0 1 -1 1 0 1 -1 1 0 
1 -1 1 0 1 -1 1 0 1 -1 1 0 1 -1 1 0 
1 -1 1 0 1 -1 1 0 1 -1 1 0 1 -1 1 0 
1 -1 1 0 1 -1 1 -1 1 0 1 0 1 -1 1 0 
1 -1 1 0 1 -1 1 0 1 -1 1 -1 1 0 1 -1 
1 0 1 -1 1 0 1 0 1 -1 1 0 1 -1 1 0 
1 -1 1 0 1 -1 1 -1 1 0 1 -1 1 0 1 0 
1 -1 1 0 1 -1 1 0 1 -1 1 0 1 -1 1 0 
1 -1 1 0 1 -1 1 0 1 -1 1 0 1 -1 1 0 
1 -1 1 0 1 -1 1 0 1 -1 1 0 1 -1 1 0 
1 -1 1 0 1 -1 1 0 1 -1 1 0 1 0 1 -1 
1 0 1 -1 1 0 1 -1 1 0 1 -1 1 0 1 -1 
1 0 1 -1 1 0 1 -1 1 0 1 -1 1 0 1 -1 
1 0 1 -1 1 0 1 -1 1 0 1 -1 1 0 1 0 
1 -1 1 0 1 -1 1 0 1 -1 1 0 1 -1 1 0 
1 -1 1 0 1 -1 1 0 1 -1 1 0 1 0 1 -1 
1 0 1 -1 1 0 1 -1 1 0 1 -1 1 0 1 -1 
1 0 1 -1 1 0 1 -1 1 0 1 -1 1 0 1 0 
1 -1 1 0 1 -1 1 0 1 -1 1 0 1 -1 1 0 
1 -1 1 0 1 0 1 -1 1 0 1 -1 1 0 1 -1 
1 0 1 -1 1 0 2116 4338 300 MP stroke
1 -1 1 0 1 -1 1 0 1 0 1 -1 1 0 1 -1 
1 0 1 -1 1 0 1 -1 1 0 1 0 1 -1 1 0 
1 -1 1 0 1 -1 1 0 1 -1 1 0 1 0 1 -1 
1 0 1 -1 1 0 1 -1 1 0 1 -1 1 0 1 0 
1 -1 1 0 1 -1 1 0 1 -1 1 0 1 -1 1 0 
1 0 1 -1 1 0 1 -1 1 0 1 -1 1 0 1 -1 
1 0 1 0 1 -1 1 0 1 -1 1 0 1 -1 1 0 
1 0 1 -1 1 0 1 -1 1 0 1 -1 1 0 1 0 
1 -1 1 0 1 -1 1 0 1 -1 1 0 1 0 1 -1 
1 0 1 -1 1 0 1 0 1 -1 1 0 1 -1 1 0 
1 -1 1 0 1 0 1 -1 1 0 1 -1 1 0 1 -1 
1 0 1 0 1 -1 1 0 1 -1 1 0 1 0 1 -1 
1 0 1 -1 1 0 1 -1 1 0 1 0 1 -1 1 0 
1 -1 1 0 1 -1 1 0 1 0 1 -1 1 0 1 -1 
1 0 1 0 1 -1 1 0 1 -1 1 0 1 -1 1 0 
1 0 1 -1 1 0 1 -1 1 0 1 0 1 -1 1 0 
1 -1 1 0 1 0 1 -1 1 0 1 -1 1 0 1 0 
1 -1 1 0 1 -1 1 0 1 0 1 -1 1 0 1 -1 
1 0 1 0 1 -1 1 0 1 0 1 -1 1 0 1 -1 
1 0 1 0 1 -1 1 0 1 -1 1 0 1 0 1 -1 
1 0 1 -1 1 0 1 -1 1 0 1 0 1 -1 1 0 
1 0 1 -1 1 0 1 -1 1 0 1 0 1 -1 1 0 
1 -1 1 0 1 0 1 -1 1 0 1 0 1 -1 1 0 
1 -1 1 0 1 0 1 -1 1 0 1 0 1 -1 1 0 
1 -1 1 0 1 0 1 -1 1 0 1 -1 1 0 1 0 
1 -1 1 0 1 0 1 -1 1 0 1 -1 1 0 1 0 
1 -1 1 0 1 0 1 -1 1 0 1 -1 1 0 1 0 
1 -1 1 0 1 -1 1 0 1 0 1 -1 1 0 1 0 
1 -1 1 0 1 0 1 -1 1 0 1 0 1 -1 1 0 
1 -1 1 0 1 0 1 -1 1 0 1 0 1 -1 1 0 
1 -1 1 0 1 0 1 -1 1 0 1 0 1 -1 1 0 
1 0 1 -1 1 0 1 -1 1 0 1 0 1 -1 1 0 
1 0 1 -1 1 0 1 0 1 -1 1 0 1 0 1 -1 
1 0 1 -1 1 0 1 0 1 -1 1 0 1 0 1 -1 
1 0 1 0 1 -1 1 0 1 0 1 -1 1 0 1 0 
1 -1 1 0 1 -1 1 0 1 0 1 -1 1 0 1 0 
1 -1 1 0 1 0 1 -1 1 0 1 0 1 -1 1 0 
1 0 1 -1 1 0 1817 4457 300 MP stroke
1 0 1 -1 1 0 1 0 1 -1 1 0 1 0 1 -1 
1 0 1 0 1 -1 1 0 1 0 1 -1 1 0 1 0 
1 -1 1 0 1 0 1 -1 1 0 1 0 1 -1 1 0 
1 0 1 -1 1 0 1 0 1 -1 1 0 1 0 1 -1 
1 0 1 0 1 -1 1 0 1 0 1 -1 1 0 1 0 
1 -1 1 0 1 0 1 -1 1 0 1 0 1 -1 1 0 
1 0 1 -1 1 0 1 0 1 -1 1 0 1 0 1 -1 
1 0 1 0 1 0 1 -1 1 0 1 0 1 -1 1 0 
1 0 1 -1 1 0 1 0 1 -1 1 0 1 0 1 -1 
1 0 1 0 1 -1 1 0 1 0 1 0 1 -1 1 0 
1 0 1 -1 1 0 1 0 1 -1 1 0 1 0 1 -1 
1 0 1 0 1 -1 1 0 1 0 1 0 1 -1 1 0 
1 0 1 -1 1 0 1 0 1 -1 1 0 1 0 1 0 
1 -1 1 0 1 0 1 -1 1 0 1 0 1 -1 1 0 
1 0 1 0 1 -1 1 0 1 0 1 -1 1 0 1 0 
1 -1 1 0 1 0 1 0 1 -1 1 0 1 0 1 -1 
1 0 1 0 1 -1 1 0 1 0 1 0 1 -1 1 0 
1 0 1 -1 1 0 1 0 1 0 1 -1 1 0 1 0 
1 -1 1 0 1 0 1 0 1 -1 1 0 1 0 1 -1 
1 0 1 0 1 0 1 -1 1 0 1 0 1 -1 1 0 
1 0 1 0 1 -1 1 0 1 0 1 0 1 -1 1 0 
1 0 1 -1 1 0 1 0 1 0 1 -1 1 0 1 0 
1 -1 1 0 1 0 1 0 1 -1 1 0 1 0 1 0 
1 -1 1 0 1 0 1 -1 1 0 1 0 1 0 1 -1 
1 0 1 0 1 -1 1 0 1 0 1 0 1 -1 1 0 
1 0 1 0 1 -1 1 0 1 0 1 0 1 -1 1 0 
1 0 1 0 1 -1 1 0 1 0 1 -1 1 0 1 0 
1 0 1 -1 1 0 1 0 1 0 1 -1 1 0 1 0 
1 0 1 -1 1 0 1 0 1 0 1 -1 1 0 1 0 
1 0 1 -1 1 0 1 0 1 0 1 -1 1 0 1 0 
1 0 1 -1 1 0 1 0 1 0 1 -1 1 0 1 0 
1 0 1 -1 1 0 1 0 1 0 1 -1 1 0 1 0 
1 0 1 -1 1 0 1 0 1 0 1 -1 1 0 1 0 
1 0 1 -1 1 0 1 0 1 0 1 -1 1 0 1 0 
1 0 1 -1 1 0 1 0 1 0 1 -1 1 0 1 0 
1 0 1 0 1 -1 1 0 1 0 1 0 1 -1 1 0 
1 0 1 0 1 -1 1 0 1 0 1 0 1 0 1 -1 
1 0 1 0 1 0 1518 4542 300 MP stroke
1 -1 1 0 1 0 1 0 1 0 1 -1 1 0 1 0 
1 0 1 -1 1 0 1 0 1 0 1 -1 1 0 1 0 
1 0 1 0 1 -1 1 0 1 0 1 0 1 -1 1 0 
1 0 1 0 1 0 1 -1 1 0 1 0 1 0 1 -1 
1 0 1 0 1 0 1 0 1 -1 1 0 1 0 1 0 
1 -1 1 0 1 0 1 0 1 0 1 -1 1 0 1 0 
1 0 1 0 1 -1 1 0 1 0 1 0 1 0 1 -1 
1 0 1 0 1 0 1 -1 1 0 1 0 1 0 1 0 
1 -1 1 0 1 0 1 0 1 0 1 -1 1 0 1 0 
1 0 1 0 1 -1 1 0 1 0 1 0 1 0 1 -1 
1 0 1 0 1 0 1 0 1 -1 1 0 1 0 1 0 
1 0 1 -1 1 0 1 0 1 0 1 0 1 0 1 -1 
1 0 1 0 1 0 1 0 1 -1 1 0 1 0 1 0 
1 0 1 -1 1 0 1 0 1 0 1 0 1 -1 1 0 
1 0 1 0 1 0 1 0 1 -1 1 0 1 0 1 0 
1 0 1 -1 1 0 1 0 1 0 1 0 1 -1 1 0 
1 0 1 0 1 0 1 0 1 -1 1 0 1 0 1 0 
1 0 1 0 1 -1 1 0 1 0 1 0 1 0 1 -1 
1 0 1 0 1 0 1 0 1 0 1 -1 1 0 1 0 
1 0 1 0 1 -1 1 0 1 0 1 0 1 0 1 0 
1 -1 1 0 1 0 1 0 1 0 1 0 1 -1 1 0 
1 0 1 0 1 0 1 0 1 -1 1 0 1 0 1 0 
1 0 1 0 1 -1 1 0 1 0 1 0 1 0 1 0 
1 0 1 -1 1 0 1 0 1 0 1 0 1 0 1 -1 
1 0 1 0 1 0 1 0 1 0 1 -1 1 0 1 0 
1 0 1 0 1 0 1 0 1 -1 1 0 1 0 1 0 
1 0 1 0 1 -1 1 0 1 0 1 0 1 0 1 0 
1 0 1 -1 1 0 1 0 1 0 1 0 1 0 1 -1 
1 0 1 0 1 0 1 0 1 0 1 0 1 -1 1 0 
1 0 1 0 1 0 1 0 1 0 1 -1 1 0 1 0 
1 0 1 0 1 0 1 0 1 -1 1 0 1 0 1 0 
1 0 1 0 1 0 1 0 1 -1 1 0 1 0 1 0 
1 0 1 0 1 0 1 -1 1 0 1 0 1 0 1 0 
1 0 1 0 1 0 1 -1 1 0 1 0 1 0 1 0 
1 0 1 0 1 0 1 -1 1 0 1 0 1 0 1 0 
1 0 1 0 1 0 1 -1 1 0 1 0 1 0 1 0 
1 0 1 0 1 0 1 -1 1 0 1 0 1 0 1 0 
1 0 1 0 1 0 1219 4594 300 MP stroke
1 -1 1 0 1 0 1 0 1 0 1 0 1 0 1 0 
1 0 1 -1 1 0 1 0 1 0 1 0 1 0 1 0 
1 0 1 0 1 -1 1 0 1 0 1 0 1 0 1 0 
1 0 1 0 1 0 1 -1 1 0 1 0 1 0 1 0 
1 0 1 0 1 0 1 0 1 -1 1 0 1 0 1 0 
1 0 1 0 1 0 1 0 1 0 1 0 1 -1 1 0 
1 0 1 0 1 0 1 0 1 0 1 0 1 0 1 0 
1 -1 1 0 1 0 1 0 1 0 1 0 1 0 1 0 
1 0 1 0 1 -1 1 0 1 0 1 0 1 0 1 0 
1 0 1 0 1 0 1 0 1 0 1 -1 1 0 1 0 
1 0 1 0 1 0 1 0 1 0 1 0 1 0 1 0 
1 0 1 -1 1 0 1 0 1 0 1 0 1 0 1 0 
1 0 1 0 1 0 1 0 1 0 1 -1 1 0 1 0 
1 0 1 0 1 0 1 0 1 0 1 0 1 0 1 0 
1 0 1 -1 1 0 1 0 1 0 1 0 1 0 1 0 
1 0 1 0 1 0 1 0 1 0 1 0 1 0 1 -1 
1 0 1 0 1 0 1 0 1 0 1 0 1 0 1 0 
1 0 1 0 1 0 1 0 1 0 1 0 1 -1 1 0 
1 0 1 0 1 0 1 0 1 0 1 0 1 0 1 0 
1 0 1 0 1 0 1 0 1 0 1 -1 1 0 1 0 
1 0 1 0 1 0 1 0 1 0 1 0 1 0 1 0 
1 0 1 0 1 0 1 0 1 0 1 0 1 0 1 -1 
1 0 1 0 1 0 1 0 1 0 1 0 1 0 1 0 
1 0 1 0 1 0 1 0 1 0 1 0 1 0 1 0 
1 0 1 0 1 0 1 -1 1 0 1 0 1 0 1 0 
1 0 1 0 1 0 1 0 1 0 1 0 1 0 1 0 
1 0 1 0 1 0 1 0 1 0 1 0 1 0 1 0 
1 0 1 0 1 0 1 -1 1 0 1 0 1 0 1 0 
1 0 1 0 1 0 1 0 1 0 1 0 1 0 1 0 
1 0 1 0 1 0 1 0 1 0 1 0 1 0 1 0 
1 0 1 0 1 0 1 0 1 0 1 0 1 0 1 0 
1 0 1 0 1 0 1 0 1 -1 1 0 1 0 1 0 
1 0 1 0 1 0 1 0 1 0 1 0 1 0 1 0 
1 0 1 0 1 0 1 0 1 0 1 0 1 0 1 0 
1 0 1 0 1 0 1 0 1 0 1 0 1 0 1 0 
1 0 1 0 1 0 1 0 1 0 1 0 1 0 1 0 
1 0 1 0 1 0 1 0 1 0 1 0 1 0 1 0 
1 0 1 0 1 0 920 4613 300 MP stroke
1 0 1 0 1 0 1 0 1 0 1 0 1 0 1 0 
1 0 1 0 1 0 1 0 1 0 1 0 1 0 1 0 
1 0 1 0 1 0 1 0 1 0 899 4613 22 MP stroke
gr

c10

end %%Color Dict

eplot
%%EndObject

epage
end

showpage

%%Trailer
%%BoundingBox:    49   195   543   606
%%Pages: 001
%%EOF
